<?xml version="1.0" encoding="utf-8"?>
<!-- Generator: Adobe Illustrator 25.4.1, SVG Export Plug-In . SVG Version: 6.00 Build 0)  -->
<svg version="1.1" xmlns="http://www.w3.org/2000/svg" xmlns:xlink="http://www.w3.org/1999/xlink" x="0px" y="0px"
	 viewBox="0 0 200 200" style="enable-background:new 0 0 200 200;" xml:space="preserve">
<style type="text/css">
	.st0{fill:#BDE5FA;}
	.st1{fill:#266287;}
</style>
<g id="Capa_1">
	<rect x="0" class="st0" width="200" height="200"/>
</g>
<g id="Layer_1">
	<g>
		<g>
			<path class="st1" d="M149.22,116.35L149.22,116.35l0.61,0.8c0,0,0,0,0.16,0c0.12,0,0.12-0.46,0.11-0.68
				c-1.49-22.38-23.21-40.13-49.8-40.13c-26.53,0-48.22,17.68-49.79,40c0.04,0.65,0.9-0.02,0.9-0.02h0
				c1.41-1.71,4.15-2.88,7.32-2.88c3.25,0,6.07,1.23,7.44,3.03c0.45,0.59,1.31,0.59,1.76,0c1.37-1.79,4.18-3.03,7.44-3.03
				c3.25,0,6.07,1.23,7.44,3.03c0.45,0.59,1.31,0.59,1.76,0c1.37-1.79,4.18-3.03,7.43-3.03c3.25,0,6.07,1.23,7.44,3.03
				c0.45,0.59,1.31,0.59,1.76,0c1.37-1.79,4.18-3.03,7.44-3.03c3.25,0,6.07,1.23,7.43,3.03c0.45,0.59,1.31,0.59,1.76,0
				c1.37-1.79,4.18-3.03,7.44-3.03c3.25,0,6.07,1.23,7.44,3.03c0.45,0.59,1.31,0.59,1.76,0c1.37-1.79,4.18-3.03,7.44-3.03
				C145.06,113.43,147.82,114.61,149.22,116.35z"/>
			<path class="st1" d="M95.94,171.91c-0.02,0-0.05,0-0.07,0l0,0c-4.07-0.04-7.37-3.36-7.37-7.44c0-2.22,1.8-4.01,4.01-4.01
				c1.08,0,2.05,0.42,2.77,1.11v-86.7c0-2.22,1.8-4.01,4.01-4.01c2.22,0,4.01,1.8,4.01,4.01v89.6
				C103.31,168.55,100.01,171.87,95.94,171.91L95.94,171.91z"/>
		</g>
		<path class="st1" d="M90.67,60.82c-3.25,3.25-8.52,3.25-11.78,0c-3.25-3.25-3.25-8.52,0-11.78c3.25-3.25,20.4-8.62,20.4-8.62
			S93.93,57.57,90.67,60.82z"/>
		<path class="st1" d="M133.52,52.6c-3.25,3.25-8.52,3.25-11.78,0c-3.25-3.25-3.25-8.52,0-11.78c3.25-3.25,20.4-8.62,20.4-8.62
			S136.77,49.35,133.52,52.6z"/>
		<path class="st1" d="M158.8,79.65c-3.25,3.25-8.52,3.25-11.78,0c-3.25-3.25-3.25-8.52,0-11.78c3.25-3.25,20.4-8.62,20.4-8.62
			S162.05,76.4,158.8,79.65z"/>
	</g>
</g>
</svg>
