<?xml version="1.0" encoding="utf-8"?>
<!-- Generator: Adobe Illustrator 25.4.1, SVG Export Plug-In . SVG Version: 6.00 Build 0)  -->
<svg version="1.1" xmlns="http://www.w3.org/2000/svg" xmlns:xlink="http://www.w3.org/1999/xlink" x="0px" y="0px"
	 viewBox="0 0 503 401.26" style="enable-background:new 0 0 503 401.26;" xml:space="preserve">
<style type="text/css">
	.st0{fill:#333333;}
	.st1{opacity:0.5;fill:#333333;}
	.st2{fill:none;stroke:#000000;stroke-width:5.4345;stroke-miterlimit:10;}
	.st3{fill:#FFFFFF;stroke:#000000;stroke-width:3.623;stroke-miterlimit:10;}
	.st4{fill:#FFFFFF;}
	.st5{clip-path:url(#SVGID_00000073710550524529421080000011484964183508849550_);}
	.st6{clip-path:url(#SVGID_00000135670250662661286470000005229412214631465363_);}
	.st7{fill:#2B2E31;}
	.st8{clip-path:url(#SVGID_00000072254984315962431860000012319937544655813781_);}
	.st9{fill:none;stroke:#000000;stroke-width:5.4345;stroke-linecap:round;stroke-linejoin:round;stroke-miterlimit:10;}
	.st10{fill:none;stroke:#000000;stroke-width:3.623;stroke-miterlimit:10;}
	.st11{fill:none;stroke:#000000;stroke-width:1.5669;stroke-miterlimit:10;}
	.st12{fill:none;stroke:#808285;stroke-width:1.1955;stroke-miterlimit:10;}
	.st13{fill:none;stroke:#808285;stroke-width:1.1955;stroke-miterlimit:10;stroke-dasharray:3.0927,3.0927;}
	.st14{fill:none;stroke:#808285;stroke-width:1.1752;stroke-miterlimit:10;}
	.st15{fill:none;stroke:#808285;stroke-width:1.1752;stroke-miterlimit:10;stroke-dasharray:2.9824,2.9824;}
	.st16{fill:none;stroke:#808285;stroke-width:1.1752;stroke-miterlimit:10;stroke-dasharray:2.9606,2.9606;}
</style>
<g id="Capa_1">
</g>
<g id="Capa_2">
	<g>
		<g>
			<g>
				<path class="st0" d="M207.69,266.61c-10.67,5.22-15.09,18.09-9.88,28.76c5.22,10.67,18.09,15.09,28.76,9.88
					c10.67-5.22,15.09-18.09,9.88-28.76S218.36,261.4,207.69,266.61z M224.5,301.01c-8.33,4.07-18.37,0.62-22.44-7.71
					c-4.07-8.33-0.62-18.37,7.71-22.44c8.33-4.07,18.37-0.62,22.44,7.71C236.27,286.89,232.82,296.94,224.5,301.01z"/>
				<path class="st0" d="M208.97,269.25c-9.21,4.5-13.03,15.63-8.53,24.84c4.5,9.21,15.63,13.03,24.84,8.53
					c9.21-4.5,13.03-15.63,8.53-24.84C229.31,268.56,218.19,264.74,208.97,269.25z M224.5,301.01c-8.33,4.07-18.37,0.62-22.44-7.71
					c-4.07-8.33-0.62-18.37,7.71-22.44c8.33-4.07,18.37-0.62,22.44,7.71C236.27,286.89,232.82,296.94,224.5,301.01z"/>
				<path class="st0" d="M168.25,264.41c-0.08,0.04-0.17,0.07-0.25,0.11c-5.32,2.6-7.52,9.02-4.92,14.34
					c2.6,5.32,9.02,7.52,14.34,4.92c0.08-0.04,0.16-0.08,0.24-0.13L168.25,264.41z"/>
				<polygon class="st0" points="187.65,319.85 186.45,340.03 151.44,306.23 157.29,303.36 				"/>
				<polygon class="st1" points="173.99,312.43 182,335.75 186.45,340.03 187.65,319.85 				"/>
				<polygon class="st0" points="234.85,316.37 186.45,340.03 163.18,279.08 201.05,260.57 				"/>
				<path class="st1" d="M201.05,260.57l-3.46,1.69c0,0,22.02,36.39,17.72,48.5c-5.04,14.18-28.86,29.28-28.86,29.28l48.4-23.66
					L201.05,260.57z"/>
				<path class="st0" d="M143.78,304.96c0,0.01,0.01,0.01,0.01,0.02c1.24,2.53,6,2.75,10.63,0.48c4.64-2.27,7.39-6.16,6.15-8.69
					c0-0.01-0.01-0.01-0.01-0.02L143.78,304.96z"/>
			</g>
			<g>
				<g>
					<g>
						<path d="M169.43,193.63c0,0-4.13-6.36-18.21-10.01c-14.08-3.65-23.53,7.03-23.53,7.03s8.02,6.6,23.93,11.48
							c15.9,4.88,20.01,0.1,20.01,0.1L169.43,193.63z"/>
					</g>
					<path class="st2" d="M164.9,198.71c0,0,26.76,22.85,44.12,28.28c17.36,5.43,47.93,0.52,47.93,0.52"/>
				</g>
				<g>
					<g>
						<path d="M288.32,365.93c0,0-5.9-4.76-20.41-3.86c-14.52,0.91-20.19,13.99-20.19,13.99s9.68,3.78,26.31,3.48
							c16.63-0.3,19.05-6.12,19.05-6.12L288.32,365.93z"/>
					</g>
					<path class="st2" d="M287.43,278.32c0,0-9.32,32.42-9.32,50.61s9.32,45.83,9.32,45.83"/>
				</g>
				<g>
					<g>
						<path d="M367.07,368.32c0,0-5.9-4.76-20.41-3.86c-14.52,0.91-20.19,13.99-20.19,13.99s9.68,3.78,26.31,3.48
							c16.63-0.3,19.05-6.12,19.05-6.12L367.07,368.32z"/>
					</g>
					<path class="st2" d="M366.17,280.72c0,0-7.56,33-7.56,51.2s7.56,45.25,7.56,45.25"/>
				</g>
				<g>
					<path class="st3" d="M436.42,273.74l-145.3,47.39c-17.64,5.95-36.76-3.53-42.71-21.17l-55.87-185.18
						c-5.95-17.64,3.53-36.76,21.17-42.71L359,24.67c17.64-5.95,36.76,3.53,42.71,21.17l55.87,185.18
						C463.54,248.67,454.06,267.79,436.42,273.74z"/>
					<g>
						<g>
							<path class="st4" d="M411.76,237.37c12.37,19.32,6.74,45.02-12.58,57.39c-19.32,12.37-45.02,6.74-57.39-12.58"/>
							<path d="M411.76,237.37c3.43,4.27,5.87,9.41,7.21,14.86c1.29,5.47,1.49,11.27,0.46,16.9c-1.03,5.63-3.24,11.07-6.47,15.86
								c-3.22,4.8-7.46,8.92-12.33,12.06c-4.88,3.11-10.4,5.24-16.11,6.16c-5.7,0.92-11.58,0.66-17.12-0.76
								c-5.55-1.41-10.73-4.03-15.16-7.49c-4.39-3.51-8.04-7.87-10.48-12.78c6.81,8.55,16.35,14.31,26.55,16.09
								c10.18,1.85,20.81-0.29,29.38-5.8c8.59-5.47,14.98-14.24,17.56-24.26C417.92,258.2,416.68,247.13,411.76,237.37z"/>
						</g>
						<g>
							<path class="st4" d="M381.41,293.16l1.88,10.18c0.56,3.05-1.48,5.98-4.57,6.55l-0.2,0.04c-3.08,0.57-6.04-1.44-6.6-4.48
								l-1.88-10.18"/>
							<path d="M381.41,293.16c1.33,3.03,2.28,6.13,3.15,9.24l0.16,0.58c0.05,0.2,0.1,0.49,0.15,0.73c0.07,0.51,0.08,1.03,0.05,1.54
								c-0.08,1.04-0.42,2.05-0.94,2.96c-0.53,0.91-1.27,1.69-2.13,2.3c-0.86,0.6-1.92,0.99-2.89,1.17
								c-0.97,0.18-2.1,0.19-3.12-0.06c-1.03-0.26-2-0.72-2.81-1.38c-0.81-0.66-1.49-1.49-1.94-2.43c-0.22-0.47-0.39-0.96-0.51-1.46
								c-0.04-0.24-0.1-0.53-0.12-0.73l-0.06-0.6c-0.3-3.22-0.51-6.45-0.35-9.75c1.33,3.03,2.29,6.12,3.15,9.24l0.16,0.58
								c0.05,0.19,0.1,0.29,0.15,0.44c0.11,0.27,0.24,0.53,0.39,0.77c0.32,0.47,0.72,0.89,1.19,1.2c0.95,0.63,2.06,0.86,3.21,0.63
								c1.16-0.19,2.11-0.8,2.78-1.73c0.33-0.46,0.56-0.98,0.69-1.54c0.06-0.28,0.09-0.57,0.09-0.86c-0.01-0.16,0-0.27-0.02-0.47
								l-0.06-0.6C381.46,299.7,381.25,296.47,381.41,293.16z"/>
						</g>
						<g>
							<path class="st4" d="M396.53,286.82l4.51,9.31c1.35,2.79,0.16,6.16-2.67,7.52l-0.18,0.09c-2.82,1.37-6.21,0.22-7.56-2.57
								l-4.51-9.31"/>
							<path d="M396.53,286.82c2.08,2.57,3.82,5.3,5.49,8.07l0.31,0.52c0.1,0.18,0.23,0.44,0.34,0.66c0.21,0.47,0.35,0.97,0.46,1.48
								c0.2,1.02,0.14,2.09-0.12,3.1c-0.27,1.02-0.77,1.96-1.45,2.78c-0.67,0.81-1.58,1.46-2.47,1.9c-0.89,0.43-1.97,0.74-3.02,0.77
								c-1.06,0.02-2.12-0.17-3.08-0.59c-0.96-0.42-1.84-1.04-2.51-1.83c-0.34-0.4-0.63-0.82-0.88-1.27
								c-0.11-0.22-0.23-0.48-0.31-0.67l-0.22-0.56c-1.15-3.02-2.21-6.08-2.93-9.31c2.09,2.57,3.83,5.3,5.49,8.07l0.31,0.52
								c0.1,0.17,0.18,0.26,0.26,0.39c0.18,0.23,0.37,0.45,0.58,0.64c0.44,0.37,0.93,0.67,1.47,0.84c1.08,0.35,2.21,0.29,3.26-0.25
								c1.07-0.49,1.82-1.34,2.22-2.4c0.2-0.53,0.28-1.1,0.25-1.67c-0.02-0.29-0.07-0.57-0.14-0.86c-0.05-0.15-0.07-0.26-0.14-0.45
								l-0.22-0.56C398.32,293.1,397.26,290.04,396.53,286.82z"/>
						</g>
						<g>
							<path class="st4" d="M409.85,276.79l6.21,8.28c1.86,2.48,1.33,6.01-1.18,7.89l-0.16,0.12c-2.51,1.88-6.05,1.4-7.91-1.08
								l-6.21-8.28"/>
							<path d="M409.85,276.79c2.54,2.12,4.77,4.47,6.93,6.87l0.4,0.45c0.14,0.16,0.31,0.39,0.46,0.58
								c0.29,0.42,0.53,0.88,0.73,1.36c0.39,0.96,0.54,2.02,0.47,3.07c-0.07,1.05-0.38,2.08-0.89,3.01
								c-0.5,0.92-1.27,1.74-2.07,2.34c-0.79,0.6-1.8,1.11-2.82,1.33c-1.03,0.23-2.11,0.24-3.13,0.01c-1.02-0.23-2-0.67-2.82-1.31
								c-0.41-0.33-0.78-0.69-1.1-1.08c-0.15-0.2-0.32-0.43-0.43-0.6l-0.32-0.51c-1.7-2.75-3.33-5.55-4.66-8.58
								c2.54,2.12,4.77,4.47,6.94,6.87l0.4,0.45c0.13,0.15,0.22,0.22,0.33,0.33c0.22,0.2,0.45,0.37,0.7,0.52
								c0.5,0.28,1.04,0.47,1.6,0.54c1.13,0.14,2.23-0.14,3.15-0.87c0.96-0.68,1.53-1.66,1.72-2.78c0.09-0.56,0.06-1.13-0.07-1.69
								c-0.07-0.28-0.18-0.55-0.3-0.81c-0.08-0.14-0.12-0.24-0.22-0.41l-0.32-0.51C412.81,282.62,411.18,279.82,409.85,276.79z"/>
						</g>
					</g>
					<g>
						<defs>
							<path id="SVGID_1_" d="M434.52,272.82l-142.45,46.43c-17.64,5.95-36.76-3.53-42.71-21.17l-54.93-182.39
								c-5.95-17.64,3.53-36.76,21.17-42.71l142.45-46.43c17.64-5.95,36.76,3.53,42.71,21.17l54.93,182.39
								C461.64,247.75,452.16,266.87,434.52,272.82z"/>
						</defs>
						<clipPath id="SVGID_00000042738824874937027770000008802226020576224643_">
							<use xlink:href="#SVGID_1_"  style="overflow:visible;"/>
						</clipPath>
						<g style="clip-path:url(#SVGID_00000042738824874937027770000008802226020576224643_);">
							<defs>
								<path id="SVGID_00000106828323765221399840000004916560016089451657_" d="M394.79,28.41c-27.06-2.55-51.78,12.01-63.47,34.8
									c-4.44-2.59-9.48-4.31-14.93-4.83c-20.06-1.89-37.86,12.83-39.75,32.89s12.83,37.86,32.89,39.75
									c8.61,0.81,16.8-1.45,23.5-5.87c10.13,17.31,28.14,29.68,49.64,31.71c35.47,3.35,66.94-22.69,70.29-58.16
									C456.3,63.22,430.26,31.76,394.79,28.41z"/>
							</defs>
							<clipPath id="SVGID_00000080908394991937377830000009754428171202747292_">
								<use xlink:href="#SVGID_00000106828323765221399840000004916560016089451657_"  style="overflow:visible;"/>
							</clipPath>
							<g style="clip-path:url(#SVGID_00000080908394991937377830000009754428171202747292_);">
								<g>
									<path class="st7" d="M446.79,21.32c-3.46,9.53-8.36,18.44-13.02,27.42c-4.78,9.22-8.94,18.73-13.18,28.21
										c-4.37,9.76-8.68,19.54-12.86,29.38c-4.03,9.5-7.43,19.38-12.67,28.31c-2.65,4.51-5.77,8.71-8.57,13.12
										c-2.59,4.08-5.18,8.33-8.99,11.4c-1.36,1.1,0.57,3.01,1.92,1.92c3.4-2.74,5.89-6.45,8.23-10.1
										c2.46-3.83,5.09-7.54,7.54-11.37c2.69-4.2,5.1-8.57,7.11-13.14c2.12-4.81,3.99-9.74,6.01-14.59
										c4.21-10.05,8.58-20.04,13.02-29.99c4.32-9.69,8.49-19.47,13.31-28.93c5.19-10.18,10.86-20.16,14.77-30.93
										C450,20.4,447.38,19.69,446.79,21.32L446.79,21.32z"/>
								</g>
							</g>
							<g style="clip-path:url(#SVGID_00000080908394991937377830000009754428171202747292_);">
								<g>
									<path class="st7" d="M455.47,20.43c-3.46,9.53-8.36,18.44-13.02,27.42c-4.78,9.22-8.94,18.73-13.19,28.21
										c-4.37,9.76-8.68,19.54-12.86,29.38c-4.03,9.5-7.43,19.38-12.67,28.31c-2.65,4.51-5.77,8.71-8.57,13.12
										c-2.59,4.08-5.18,8.33-8.99,11.4c-1.36,1.1,0.57,3.01,1.92,1.92c3.4-2.74,5.89-6.45,8.23-10.1
										c2.46-3.83,5.09-7.54,7.54-11.37c2.69-4.2,5.1-8.57,7.11-13.14c2.12-4.81,3.99-9.74,6.01-14.59
										c4.21-10.05,8.58-20.04,13.02-29.99c4.32-9.69,8.49-19.47,13.31-28.93c5.19-10.18,10.86-20.16,14.77-30.93
										C458.69,19.51,456.06,18.8,455.47,20.43L455.47,20.43z"/>
								</g>
							</g>
							<g style="clip-path:url(#SVGID_00000080908394991937377830000009754428171202747292_);">
								<g>
									<path class="st7" d="M464.15,19.54c-3.46,9.53-8.36,18.44-13.02,27.42c-4.78,9.22-8.94,18.73-13.18,28.21
										c-4.37,9.76-8.68,19.54-12.86,29.38c-4.03,9.5-7.43,19.38-12.67,28.31c-2.65,4.51-5.77,8.71-8.57,13.12
										c-2.59,4.08-5.18,8.33-8.99,11.4c-1.36,1.1,0.57,3.01,1.92,1.92c3.4-2.74,5.89-6.45,8.23-10.1
										c2.46-3.83,5.09-7.54,7.54-11.37c2.69-4.2,5.1-8.57,7.11-13.14c2.12-4.81,3.99-9.74,6.01-14.59
										c4.21-10.05,8.58-20.04,13.02-29.99c4.32-9.69,8.49-19.47,13.31-28.93c5.19-10.18,10.86-20.16,14.77-30.93
										C467.37,18.62,464.74,17.91,464.15,19.54L464.15,19.54z"/>
								</g>
							</g>
							<g style="clip-path:url(#SVGID_00000080908394991937377830000009754428171202747292_);">
								<g>
									<path class="st7" d="M472.83,18.65c-3.46,9.53-8.36,18.44-13.02,27.42c-4.78,9.22-8.94,18.73-13.18,28.21
										c-4.37,9.76-8.68,19.54-12.86,29.38c-4.03,9.5-7.43,19.38-12.67,28.31c-2.65,4.51-5.77,8.71-8.57,13.12
										c-2.59,4.08-5.18,8.33-8.99,11.4c-1.36,1.1,0.57,3.01,1.92,1.92c3.4-2.74,5.89-6.45,8.23-10.1
										c2.46-3.83,5.09-7.54,7.54-11.37c2.69-4.2,5.1-8.57,7.11-13.14c2.12-4.81,3.99-9.74,6.01-14.59
										c4.21-10.05,8.58-20.04,13.02-29.99c4.32-9.69,8.49-19.47,13.31-28.93c5.19-10.18,10.86-20.16,14.77-30.93
										C476.05,17.73,473.42,17.02,472.83,18.65L472.83,18.65z"/>
								</g>
							</g>
							<g style="clip-path:url(#SVGID_00000080908394991937377830000009754428171202747292_);">
								<g>
									<path class="st7" d="M481.51,17.76c-3.46,9.53-8.36,18.44-13.02,27.42c-4.78,9.22-8.94,18.73-13.19,28.21
										c-4.37,9.76-8.68,19.54-12.86,29.38c-4.03,9.5-7.43,19.38-12.67,28.31c-2.65,4.51-5.77,8.71-8.57,13.12
										c-2.59,4.08-5.18,8.33-8.99,11.4c-1.36,1.1,0.57,3.01,1.92,1.92c3.4-2.74,5.89-6.45,8.23-10.1
										c2.46-3.83,5.09-7.54,7.54-11.37c2.69-4.2,5.1-8.57,7.11-13.14c2.12-4.81,3.99-9.74,6.01-14.59
										c4.21-10.05,8.58-20.04,13.02-29.99c4.32-9.69,8.49-19.47,13.31-28.93c5.19-10.18,10.86-20.16,14.77-30.93
										C484.73,16.84,482.1,16.13,481.51,17.76L481.51,17.76z"/>
								</g>
							</g>
							<g style="clip-path:url(#SVGID_00000080908394991937377830000009754428171202747292_);">
								<g>
									<path class="st7" d="M490.19,16.87c-3.46,9.53-8.36,18.44-13.02,27.42c-4.78,9.22-8.94,18.73-13.18,28.21
										c-4.37,9.76-8.68,19.54-12.86,29.38c-4.03,9.5-7.43,19.38-12.67,28.31c-2.65,4.51-5.77,8.71-8.57,13.12
										c-2.59,4.08-5.18,8.33-8.99,11.4c-1.36,1.1,0.57,3.01,1.92,1.92c3.4-2.74,5.89-6.45,8.23-10.1
										c2.46-3.83,5.09-7.54,7.54-11.37c2.69-4.2,5.1-8.57,7.11-13.14c2.12-4.81,3.99-9.74,6.01-14.59
										c4.21-10.05,8.58-20.04,13.02-29.99c4.32-9.69,8.49-19.47,13.31-28.93c5.19-10.18,10.86-20.16,14.77-30.93
										C493.41,15.95,490.79,15.24,490.19,16.87L490.19,16.87z"/>
								</g>
							</g>
							<g style="clip-path:url(#SVGID_00000080908394991937377830000009754428171202747292_);">
								<g>
									<path class="st7" d="M420.74,23.99c-3.46,9.53-8.36,18.44-13.02,27.42c-4.78,9.22-8.94,18.73-13.19,28.21
										c-4.37,9.76-8.68,19.54-12.86,29.38c-4.03,9.5-7.43,19.38-12.67,28.31c-2.65,4.51-5.77,8.71-8.57,13.12
										c-2.59,4.08-5.18,8.33-8.99,11.4c-1.36,1.1,0.57,3.01,1.92,1.92c3.4-2.74,5.89-6.45,8.23-10.1
										c2.46-3.83,5.09-7.54,7.54-11.37c2.69-4.2,5.1-8.57,7.11-13.14c2.12-4.81,3.99-9.74,6.01-14.59
										c4.21-10.05,8.58-20.04,13.02-29.99c4.32-9.69,8.49-19.47,13.31-28.93c5.19-10.18,10.86-20.16,14.77-30.93
										C423.96,23.07,421.34,22.36,420.74,23.99L420.74,23.99z"/>
								</g>
							</g>
							<g style="clip-path:url(#SVGID_00000080908394991937377830000009754428171202747292_);">
								<g>
									<path class="st7" d="M429.42,23.1c-3.46,9.53-8.36,18.44-13.02,27.42c-4.78,9.22-8.94,18.73-13.18,28.21
										c-4.37,9.76-8.68,19.54-12.86,29.38c-4.03,9.5-7.43,19.38-12.67,28.31c-2.65,4.51-5.77,8.71-8.57,13.12
										c-2.59,4.08-5.18,8.33-8.99,11.4c-1.36,1.1,0.57,3.01,1.92,1.92c3.4-2.74,5.89-6.45,8.23-10.1
										c2.46-3.83,5.09-7.54,7.54-11.37c2.69-4.2,5.1-8.57,7.11-13.14c2.12-4.81,3.99-9.74,6.01-14.59
										c4.21-10.05,8.58-20.04,13.02-29.99c4.32-9.69,8.49-19.47,13.31-28.93c5.19-10.18,10.86-20.16,14.77-30.93
										C432.64,22.18,430.02,21.47,429.42,23.1L429.42,23.1z"/>
								</g>
							</g>
							<g style="clip-path:url(#SVGID_00000080908394991937377830000009754428171202747292_);">
								<g>
									<path class="st7" d="M438.1,22.21c-3.46,9.53-8.36,18.44-13.02,27.42c-4.78,9.22-8.94,18.73-13.19,28.21
										c-4.37,9.76-8.68,19.54-12.86,29.38c-4.03,9.5-7.43,19.38-12.67,28.31c-2.65,4.51-5.77,8.71-8.57,13.12
										c-2.59,4.08-5.18,8.33-8.99,11.4c-1.36,1.1,0.57,3.01,1.92,1.92c3.4-2.74,5.89-6.45,8.23-10.1
										c2.46-3.83,5.09-7.54,7.54-11.37c2.69-4.2,5.1-8.57,7.11-13.14c2.12-4.81,3.99-9.74,6.01-14.59
										c4.21-10.05,8.58-20.04,13.02-29.99c4.32-9.69,8.49-19.47,13.31-28.93c5.19-10.18,10.86-20.16,14.77-30.93
										C441.32,21.29,438.7,20.58,438.1,22.21L438.1,22.21z"/>
								</g>
							</g>
							<g style="clip-path:url(#SVGID_00000080908394991937377830000009754428171202747292_);">
								<g>
									<path class="st7" d="M394.7,26.66c-3.46,9.53-8.36,18.44-13.02,27.42c-4.78,9.22-8.94,18.73-13.19,28.21
										c-4.37,9.76-8.68,19.54-12.86,29.38c-4.03,9.5-7.43,19.38-12.67,28.31c-2.65,4.51-5.77,8.71-8.57,13.12
										c-2.59,4.08-5.18,8.33-8.99,11.4c-1.36,1.1,0.57,3.01,1.92,1.92c3.4-2.74,5.89-6.45,8.23-10.1
										c2.46-3.83,5.09-7.54,7.54-11.37c2.69-4.2,5.1-8.57,7.11-13.14c2.12-4.81,3.99-9.74,6.01-14.59
										c4.21-10.05,8.58-20.04,13.02-29.99c4.32-9.69,8.49-19.47,13.31-28.93c5.19-10.18,10.86-20.16,14.77-30.93
										C397.92,25.74,395.29,25.03,394.7,26.66L394.7,26.66z"/>
								</g>
							</g>
							<g style="clip-path:url(#SVGID_00000080908394991937377830000009754428171202747292_);">
								<g>
									<path class="st7" d="M403.38,25.77c-3.46,9.53-8.36,18.44-13.02,27.42c-4.78,9.22-8.94,18.73-13.18,28.21
										c-4.37,9.76-8.68,19.54-12.86,29.38c-4.03,9.5-7.43,19.38-12.67,28.31c-2.65,4.51-5.77,8.71-8.57,13.12
										c-2.59,4.08-5.18,8.33-8.99,11.4c-1.36,1.1,0.57,3.01,1.92,1.92c3.4-2.74,5.89-6.45,8.23-10.1
										c2.46-3.83,5.09-7.54,7.54-11.37c2.69-4.2,5.1-8.57,7.11-13.14c2.12-4.81,3.99-9.74,6.01-14.59
										c4.21-10.05,8.58-20.04,13.02-29.99c4.32-9.69,8.49-19.47,13.31-28.93c5.19-10.18,10.86-20.16,14.77-30.93
										C406.6,24.85,403.97,24.14,403.38,25.77L403.38,25.77z"/>
								</g>
							</g>
							<g style="clip-path:url(#SVGID_00000080908394991937377830000009754428171202747292_);">
								<g>
									<path class="st7" d="M412.06,24.88c-3.46,9.53-8.36,18.44-13.02,27.42c-4.78,9.22-8.94,18.73-13.18,28.21
										c-4.37,9.76-8.68,19.54-12.86,29.38c-4.03,9.5-7.43,19.38-12.67,28.31c-2.65,4.51-5.77,8.71-8.57,13.12
										c-2.59,4.08-5.18,8.33-8.99,11.4c-1.36,1.1,0.57,3.01,1.92,1.92c3.4-2.74,5.89-6.45,8.23-10.1
										c2.46-3.83,5.09-7.54,7.54-11.37c2.69-4.2,5.1-8.57,7.11-13.14c2.12-4.81,3.99-9.74,6.01-14.59
										c4.21-10.05,8.58-20.04,13.02-29.99c4.32-9.69,8.49-19.47,13.31-28.93c5.19-10.18,10.86-20.16,14.77-30.93
										C415.28,23.96,412.65,23.25,412.06,24.88L412.06,24.88z"/>
								</g>
							</g>
							<g style="clip-path:url(#SVGID_00000080908394991937377830000009754428171202747292_);">
								<g>
									<path class="st7" d="M368.65,29.33c-3.46,9.53-8.36,18.44-13.02,27.42c-4.78,9.22-8.94,18.73-13.18,28.21
										c-4.37,9.76-8.68,19.54-12.86,29.38c-4.03,9.5-7.43,19.38-12.67,28.31c-2.65,4.51-5.77,8.71-8.57,13.12
										c-2.59,4.08-5.18,8.33-8.99,11.4c-1.36,1.1,0.57,3.01,1.92,1.92c3.4-2.74,5.89-6.45,8.23-10.1
										c2.46-3.83,5.09-7.54,7.54-11.37c2.69-4.2,5.1-8.57,7.11-13.14c2.12-4.81,3.99-9.74,6.01-14.59
										c4.21-10.05,8.58-20.04,13.02-29.99c4.32-9.69,8.49-19.47,13.31-28.93c5.19-10.18,10.86-20.16,14.77-30.93
										C371.87,28.41,369.25,27.7,368.65,29.33L368.65,29.33z"/>
								</g>
							</g>
							<g style="clip-path:url(#SVGID_00000080908394991937377830000009754428171202747292_);">
								<g>
									<path class="st7" d="M377.34,28.44c-3.46,9.53-8.36,18.44-13.02,27.42c-4.78,9.22-8.94,18.73-13.19,28.21
										c-4.37,9.76-8.68,19.54-12.86,29.38c-4.03,9.5-7.43,19.38-12.67,28.31c-2.65,4.51-5.77,8.71-8.57,13.12
										c-2.59,4.08-5.18,8.33-8.99,11.4c-1.36,1.1,0.57,3.01,1.92,1.92c3.4-2.74,5.89-6.45,8.23-10.1
										c2.46-3.83,5.09-7.54,7.54-11.37c2.69-4.2,5.1-8.57,7.11-13.14c2.12-4.81,3.99-9.74,6.01-14.59
										c4.21-10.05,8.58-20.04,13.02-29.99c4.32-9.69,8.49-19.47,13.31-28.93c5.19-10.18,10.86-20.16,14.77-30.93
										C380.55,27.52,377.93,26.81,377.34,28.44L377.34,28.44z"/>
								</g>
							</g>
							<g style="clip-path:url(#SVGID_00000080908394991937377830000009754428171202747292_);">
								<g>
									<path class="st7" d="M386.02,27.55c-3.46,9.53-8.36,18.44-13.02,27.42c-4.78,9.22-8.94,18.73-13.18,28.21
										c-4.37,9.76-8.68,19.54-12.86,29.38c-4.03,9.5-7.43,19.38-12.67,28.31c-2.65,4.51-5.77,8.71-8.57,13.12
										c-2.59,4.08-5.18,8.33-8.99,11.4c-1.36,1.1,0.57,3.01,1.92,1.92c3.4-2.74,5.89-6.45,8.23-10.1
										c2.46-3.83,5.09-7.54,7.54-11.37c2.69-4.2,5.1-8.57,7.11-13.14c2.12-4.81,3.99-9.74,6.01-14.59
										c4.21-10.05,8.58-20.04,13.02-29.99c4.32-9.69,8.49-19.47,13.31-28.93c5.19-10.18,10.86-20.16,14.77-30.93
										C389.23,26.63,386.61,25.92,386.02,27.55L386.02,27.55z"/>
								</g>
							</g>
							<g style="clip-path:url(#SVGID_00000080908394991937377830000009754428171202747292_);">
								<g>
									<path class="st7" d="M342.61,32.01c-3.46,9.53-8.36,18.44-13.02,27.42c-4.78,9.22-8.94,18.73-13.18,28.21
										c-4.37,9.76-8.68,19.54-12.86,29.38c-4.03,9.5-7.43,19.38-12.67,28.31c-2.65,4.51-5.77,8.71-8.57,13.12
										c-2.59,4.08-5.18,8.33-8.99,11.4c-1.36,1.1,0.57,3.01,1.92,1.92c3.4-2.74,5.89-6.45,8.23-10.1
										c2.46-3.83,5.09-7.54,7.54-11.37c2.69-4.2,5.1-8.57,7.11-13.14c2.12-4.81,3.99-9.74,6.01-14.59
										c4.21-10.05,8.58-20.04,13.02-29.99c4.32-9.69,8.49-19.47,13.31-28.93c5.19-10.18,10.86-20.16,14.77-30.93
										C345.83,31.08,343.2,30.37,342.61,32.01L342.61,32.01z"/>
								</g>
							</g>
							<g style="clip-path:url(#SVGID_00000080908394991937377830000009754428171202747292_);">
								<g>
									<path class="st7" d="M351.29,31.12c-3.46,9.53-8.36,18.44-13.02,27.42c-4.78,9.22-8.94,18.73-13.19,28.21
										c-4.37,9.76-8.68,19.54-12.86,29.38c-4.03,9.5-7.43,19.38-12.67,28.31c-2.65,4.51-5.77,8.71-8.57,13.12
										c-2.59,4.08-5.18,8.33-8.99,11.4c-1.36,1.1,0.57,3.01,1.92,1.92c3.4-2.74,5.89-6.45,8.23-10.1
										c2.46-3.83,5.09-7.54,7.54-11.37c2.69-4.2,5.1-8.57,7.11-13.14c2.12-4.81,3.99-9.74,6.01-14.59
										c4.21-10.05,8.58-20.04,13.02-29.99c4.32-9.69,8.49-19.47,13.31-28.93c5.19-10.18,10.86-20.16,14.77-30.93
										C354.51,30.19,351.88,29.48,351.29,31.12L351.29,31.12z"/>
								</g>
							</g>
							<g style="clip-path:url(#SVGID_00000080908394991937377830000009754428171202747292_);">
								<g>
									<path class="st7" d="M359.97,30.22c-3.46,9.53-8.36,18.44-13.02,27.42c-4.78,9.22-8.94,18.73-13.18,28.21
										c-4.37,9.76-8.68,19.54-12.86,29.38c-4.03,9.5-7.43,19.38-12.67,28.31c-2.65,4.51-5.77,8.71-8.57,13.12
										c-2.59,4.08-5.18,8.33-8.99,11.4c-1.36,1.1,0.57,3.01,1.92,1.92c3.4-2.74,5.89-6.45,8.23-10.1
										c2.46-3.83,5.09-7.54,7.54-11.37c2.69-4.2,5.1-8.57,7.11-13.14c2.12-4.81,3.99-9.74,6.01-14.59
										c4.21-10.05,8.58-20.04,13.02-29.99c4.32-9.69,8.49-19.47,13.31-28.93c5.19-10.18,10.86-20.16,14.77-30.93
										C363.19,29.3,360.57,28.59,359.97,30.22L359.97,30.22z"/>
								</g>
							</g>
							<g style="clip-path:url(#SVGID_00000080908394991937377830000009754428171202747292_);">
								<g>
									<path class="st7" d="M316.57,34.68c-3.46,9.53-8.36,18.44-13.02,27.42c-4.78,9.22-8.94,18.73-13.19,28.21
										c-4.37,9.76-8.68,19.54-12.86,29.38c-4.03,9.5-7.43,19.38-12.67,28.31c-2.65,4.51-5.77,8.71-8.57,13.12
										c-2.59,4.08-5.18,8.33-8.99,11.4c-1.36,1.1,0.57,3.01,1.92,1.92c3.4-2.74,5.89-6.45,8.23-10.1
										c2.46-3.83,5.09-7.54,7.54-11.37c2.69-4.2,5.1-8.57,7.11-13.14c2.12-4.81,3.99-9.74,6.01-14.59
										c4.21-10.05,8.58-20.04,13.02-29.99c4.32-9.69,8.49-19.47,13.31-28.93c5.19-10.18,10.86-20.16,14.77-30.93
										C319.78,33.75,317.16,33.04,316.57,34.68L316.57,34.68z"/>
								</g>
							</g>
							<g style="clip-path:url(#SVGID_00000080908394991937377830000009754428171202747292_);">
								<g>
									<path class="st7" d="M307.88,35.57c-3.46,9.53-8.36,18.44-13.02,27.42c-4.78,9.22-8.94,18.73-13.19,28.21
										c-4.37,9.76-8.68,19.54-12.86,29.38c-4.03,9.5-7.43,19.38-12.67,28.31c-2.65,4.51-5.77,8.71-8.57,13.12
										c-2.59,4.08-5.18,8.33-8.99,11.4c-1.36,1.1,0.57,3.01,1.92,1.92c3.4-2.74,5.89-6.45,8.23-10.1
										c2.46-3.83,5.09-7.54,7.54-11.37c2.69-4.2,5.1-8.57,7.11-13.14c2.12-4.81,3.99-9.74,6.01-14.59
										c4.21-10.05,8.58-20.04,13.02-29.99c4.32-9.69,8.49-19.47,13.31-28.93c5.19-10.18,10.86-20.16,14.77-30.93
										C311.1,34.64,308.48,33.93,307.88,35.57L307.88,35.57z"/>
								</g>
							</g>
							<g style="clip-path:url(#SVGID_00000080908394991937377830000009754428171202747292_);">
								<g>
									<path class="st7" d="M299.2,36.46c-3.46,9.53-8.36,18.44-13.02,27.42c-4.78,9.22-8.94,18.73-13.18,28.21
										c-4.37,9.76-8.68,19.54-12.86,29.38c-4.03,9.5-7.43,19.38-12.67,28.31c-2.65,4.51-5.77,8.71-8.57,13.12
										c-2.59,4.08-5.18,8.33-8.99,11.4c-1.36,1.1,0.57,3.01,1.92,1.92c3.4-2.74,5.89-6.45,8.23-10.1
										c2.46-3.83,5.09-7.54,7.54-11.37c2.69-4.2,5.1-8.58,7.11-13.14c2.12-4.81,3.99-9.74,6.01-14.59
										c4.21-10.05,8.58-20.04,13.02-29.99c4.32-9.69,8.49-19.47,13.31-28.93c5.19-10.18,10.86-20.16,14.77-30.93
										C302.42,35.53,299.8,34.82,299.2,36.46L299.2,36.46z"/>
								</g>
							</g>
							<g style="clip-path:url(#SVGID_00000080908394991937377830000009754428171202747292_);">
								<g>
									<path class="st7" d="M325.25,33.79c-3.46,9.53-8.36,18.44-13.02,27.42c-4.78,9.22-8.94,18.73-13.18,28.21
										c-4.37,9.76-8.68,19.54-12.86,29.38c-4.03,9.5-7.43,19.38-12.67,28.31c-2.65,4.51-5.77,8.71-8.57,13.12
										c-2.59,4.08-5.18,8.33-8.99,11.4c-1.36,1.1,0.57,3.01,1.92,1.92c3.4-2.74,5.89-6.45,8.23-10.1
										c2.46-3.83,5.09-7.54,7.54-11.37c2.69-4.2,5.1-8.57,7.11-13.14c2.12-4.81,3.99-9.74,6.01-14.59
										c4.21-10.05,8.58-20.04,13.02-29.99c4.32-9.69,8.49-19.47,13.31-28.93c5.19-10.18,10.86-20.16,14.77-30.93
										C328.47,32.86,325.84,32.15,325.25,33.79L325.25,33.79z"/>
								</g>
							</g>
							<g style="clip-path:url(#SVGID_00000080908394991937377830000009754428171202747292_);">
								<g>
									<path class="st7" d="M333.93,32.9c-3.46,9.53-8.36,18.44-13.02,27.42c-4.78,9.22-8.94,18.73-13.19,28.21
										c-4.37,9.76-8.68,19.54-12.86,29.38c-4.03,9.5-7.43,19.38-12.67,28.31c-2.65,4.51-5.77,8.71-8.57,13.12
										c-2.59,4.08-5.18,8.33-8.99,11.4c-1.36,1.1,0.57,3.01,1.92,1.92c3.4-2.74,5.89-6.45,8.23-10.1
										c2.46-3.83,5.09-7.54,7.54-11.37c2.69-4.2,5.1-8.57,7.11-13.14c2.12-4.81,3.99-9.74,6.01-14.59
										c4.21-10.05,8.58-20.04,13.02-29.99c4.32-9.69,8.49-19.47,13.31-28.93c5.19-10.18,10.86-20.16,14.77-30.93
										C337.15,31.97,334.52,31.26,333.93,32.9L333.93,32.9z"/>
								</g>
							</g>
						</g>
					</g>
					<g>
						<g>
							<defs>
								
									<ellipse id="SVGID_00000182491045293592203040000008621493892000030646_" transform="matrix(0.8352 -0.55 0.55 0.8352 -48.2629 210.1454)" cx="326.47" cy="185.59" rx="42.26" ry="32.95"/>
							</defs>
							<clipPath id="SVGID_00000168828499600942780050000011917763656125426838_">
								<use xlink:href="#SVGID_00000182491045293592203040000008621493892000030646_"  style="overflow:visible;"/>
							</clipPath>
							<g style="clip-path:url(#SVGID_00000168828499600942780050000011917763656125426838_);">
								<g>
									<path class="st7" d="M418.82,109.98c-3.46,9.53-8.36,18.44-13.02,27.42c-4.78,9.22-8.94,18.73-13.18,28.21
										c-4.37,9.76-8.68,19.54-12.86,29.38c-4.03,9.5-7.43,19.38-12.67,28.31c-2.65,4.51-5.77,8.71-8.57,13.12
										c-2.59,4.08-5.18,8.33-8.99,11.4c-1.36,1.1,0.57,3.01,1.92,1.92c3.4-2.74,5.89-6.45,8.23-10.1
										c2.46-3.83,5.09-7.54,7.54-11.37c2.69-4.2,5.1-8.57,7.11-13.14c2.12-4.81,3.99-9.74,6.01-14.59
										c4.21-10.05,8.58-20.04,13.02-29.99c4.32-9.69,8.49-19.47,13.31-28.93c5.19-10.18,10.86-20.16,14.77-30.93
										C422.04,109.05,419.42,108.34,418.82,109.98L418.82,109.98z"/>
								</g>
							</g>
							<g style="clip-path:url(#SVGID_00000168828499600942780050000011917763656125426838_);">
								<g>
									<path class="st7" d="M427.51,109.09c-3.46,9.53-8.36,18.44-13.02,27.42c-4.78,9.22-8.94,18.73-13.19,28.21
										c-4.37,9.76-8.68,19.54-12.86,29.38c-4.03,9.5-7.43,19.38-12.67,28.31c-2.65,4.51-5.77,8.71-8.57,13.12
										c-2.59,4.08-5.18,8.33-8.99,11.4c-1.36,1.1,0.57,3.01,1.92,1.92c3.4-2.74,5.89-6.45,8.23-10.1
										c2.46-3.83,5.09-7.54,7.54-11.37c2.69-4.2,5.1-8.57,7.11-13.14c2.12-4.81,3.99-9.74,6.01-14.59
										c4.21-10.05,8.58-20.04,13.02-29.99c4.32-9.69,8.49-19.47,13.31-28.93c5.19-10.18,10.86-20.16,14.77-30.93
										C430.72,108.16,428.1,107.45,427.51,109.09L427.51,109.09z"/>
								</g>
							</g>
							<g style="clip-path:url(#SVGID_00000168828499600942780050000011917763656125426838_);">
								<g>
									<path class="st7" d="M436.19,108.2c-3.46,9.53-8.36,18.44-13.02,27.42c-4.78,9.22-8.94,18.73-13.18,28.21
										c-4.37,9.76-8.68,19.54-12.86,29.38c-4.03,9.5-7.43,19.38-12.67,28.31c-2.65,4.51-5.77,8.71-8.57,13.12
										c-2.59,4.08-5.18,8.33-8.99,11.4c-1.36,1.1,0.57,3.01,1.92,1.92c3.4-2.74,5.89-6.45,8.23-10.1
										c2.46-3.83,5.09-7.54,7.54-11.37c2.69-4.2,5.1-8.58,7.11-13.14c2.12-4.81,3.99-9.74,6.01-14.59
										c4.21-10.05,8.58-20.04,13.02-29.99c4.32-9.69,8.49-19.47,13.31-28.93c5.19-10.18,10.86-20.16,14.77-30.93
										C439.41,107.27,436.78,106.56,436.19,108.2L436.19,108.2z"/>
								</g>
							</g>
							<g style="clip-path:url(#SVGID_00000168828499600942780050000011917763656125426838_);">
								<g>
									<path class="st7" d="M444.87,107.31c-3.46,9.53-8.36,18.44-13.02,27.42c-4.78,9.22-8.94,18.73-13.19,28.21
										c-4.37,9.76-8.68,19.54-12.86,29.38c-4.03,9.5-7.43,19.38-12.67,28.31c-2.65,4.51-5.77,8.71-8.57,13.12
										c-2.59,4.08-5.18,8.33-8.99,11.4c-1.36,1.1,0.57,3.01,1.92,1.92c3.4-2.74,5.89-6.45,8.23-10.1
										c2.46-3.83,5.09-7.54,7.54-11.37c2.69-4.2,5.1-8.57,7.11-13.14c2.12-4.81,3.99-9.74,6.01-14.59
										c4.21-10.05,8.58-20.04,13.02-29.99c4.32-9.69,8.49-19.47,13.31-28.93c5.19-10.18,10.86-20.16,14.77-30.93
										C448.09,106.38,445.46,105.67,444.87,107.31L444.87,107.31z"/>
								</g>
							</g>
							<g style="clip-path:url(#SVGID_00000168828499600942780050000011917763656125426838_);">
								<g>
									<path class="st7" d="M453.55,106.42c-3.46,9.53-8.36,18.44-13.02,27.42c-4.78,9.22-8.94,18.73-13.18,28.21
										c-4.37,9.76-8.68,19.54-12.86,29.38c-4.03,9.5-7.43,19.38-12.67,28.31c-2.65,4.51-5.77,8.71-8.57,13.12
										c-2.59,4.08-5.18,8.33-8.99,11.4c-1.36,1.1,0.57,3.01,1.92,1.92c3.4-2.74,5.89-6.45,8.23-10.1
										c2.46-3.83,5.09-7.54,7.54-11.37c2.69-4.2,5.1-8.57,7.11-13.14c2.12-4.81,3.99-9.74,6.01-14.59
										c4.21-10.05,8.58-20.04,13.02-29.99c4.32-9.69,8.49-19.47,13.31-28.93c5.19-10.18,10.86-20.16,14.77-30.93
										C456.77,105.49,454.14,104.78,453.55,106.42L453.55,106.42z"/>
								</g>
							</g>
							<g style="clip-path:url(#SVGID_00000168828499600942780050000011917763656125426838_);">
								<g>
									<path class="st7" d="M462.23,105.53c-3.46,9.53-8.36,18.44-13.02,27.42c-4.78,9.22-8.94,18.73-13.18,28.21
										c-4.37,9.76-8.68,19.54-12.86,29.38c-4.03,9.5-7.43,19.38-12.67,28.31c-2.65,4.51-5.77,8.71-8.57,13.12
										c-2.59,4.08-5.18,8.33-8.99,11.4c-1.36,1.1,0.57,3.01,1.92,1.92c3.4-2.74,5.89-6.45,8.23-10.1
										c2.46-3.83,5.09-7.54,7.54-11.37c2.69-4.2,5.1-8.57,7.11-13.14c2.12-4.81,3.99-9.74,6.01-14.59
										c4.21-10.05,8.58-20.04,13.02-29.99c4.32-9.69,8.49-19.47,13.31-28.93c5.19-10.18,10.86-20.16,14.77-30.93
										C465.45,104.6,462.82,103.89,462.23,105.53L462.23,105.53z"/>
								</g>
							</g>
							<g style="clip-path:url(#SVGID_00000168828499600942780050000011917763656125426838_);">
								<g>
									<path class="st7" d="M392.78,112.65c-3.46,9.53-8.36,18.44-13.02,27.42c-4.78,9.22-8.94,18.73-13.18,28.21
										c-4.37,9.76-8.68,19.54-12.86,29.38c-4.03,9.5-7.43,19.38-12.67,28.31c-2.65,4.51-5.77,8.71-8.57,13.12
										c-2.59,4.08-5.18,8.33-8.99,11.4c-1.36,1.1,0.57,3.01,1.92,1.92c3.4-2.74,5.89-6.45,8.23-10.1
										c2.46-3.83,5.09-7.54,7.54-11.37c2.69-4.2,5.1-8.57,7.11-13.14c2.12-4.81,3.99-9.74,6.01-14.59
										c4.21-10.05,8.58-20.04,13.02-29.99c4.32-9.69,8.49-19.47,13.31-28.93c5.19-10.18,10.86-20.16,14.77-30.93
										C396,111.72,393.37,111.01,392.78,112.65L392.78,112.65z"/>
								</g>
							</g>
							<g style="clip-path:url(#SVGID_00000168828499600942780050000011917763656125426838_);">
								<g>
									<path class="st7" d="M401.46,111.76c-3.46,9.53-8.36,18.44-13.02,27.42c-4.78,9.22-8.94,18.73-13.18,28.21
										c-4.37,9.76-8.68,19.54-12.86,29.38c-4.03,9.5-7.43,19.38-12.67,28.31c-2.65,4.51-5.77,8.71-8.57,13.12
										c-2.59,4.08-5.18,8.33-8.99,11.4c-1.36,1.1,0.57,3.01,1.92,1.92c3.4-2.74,5.89-6.45,8.23-10.1
										c2.46-3.83,5.09-7.54,7.54-11.37c2.69-4.2,5.1-8.57,7.11-13.14c2.12-4.81,3.99-9.74,6.01-14.59
										c4.21-10.05,8.58-20.04,13.02-29.99c4.32-9.69,8.49-19.47,13.31-28.93c5.19-10.18,10.86-20.16,14.77-30.93
										C404.68,110.83,402.06,110.12,401.46,111.76L401.46,111.76z"/>
								</g>
							</g>
							<g style="clip-path:url(#SVGID_00000168828499600942780050000011917763656125426838_);">
								<g>
									<path class="st7" d="M410.14,110.87c-3.46,9.53-8.36,18.44-13.02,27.42c-4.78,9.22-8.94,18.73-13.19,28.21
										c-4.37,9.76-8.68,19.54-12.86,29.38c-4.03,9.5-7.43,19.38-12.67,28.31c-2.65,4.51-5.77,8.71-8.57,13.12
										c-2.59,4.08-5.18,8.33-8.99,11.4c-1.36,1.1,0.57,3.01,1.92,1.92c3.4-2.74,5.89-6.45,8.23-10.1
										c2.46-3.83,5.09-7.54,7.54-11.37c2.69-4.2,5.1-8.57,7.11-13.14c2.12-4.81,3.99-9.74,6.01-14.59
										c4.21-10.05,8.58-20.04,13.02-29.99c4.32-9.69,8.49-19.47,13.31-28.93c5.19-10.18,10.86-20.16,14.77-30.93
										C413.36,109.94,410.74,109.23,410.14,110.87L410.14,110.87z"/>
								</g>
							</g>
							<g style="clip-path:url(#SVGID_00000168828499600942780050000011917763656125426838_);">
								<g>
									<path class="st7" d="M366.74,115.32c-3.46,9.53-8.36,18.44-13.02,27.42c-4.78,9.22-8.94,18.73-13.19,28.21
										c-4.37,9.76-8.68,19.54-12.86,29.38c-4.03,9.5-7.43,19.38-12.67,28.31c-2.65,4.51-5.77,8.71-8.57,13.12
										c-2.59,4.08-5.18,8.33-8.99,11.4c-1.36,1.1,0.57,3.01,1.92,1.92c3.4-2.74,5.89-6.45,8.23-10.1
										c2.46-3.83,5.09-7.54,7.54-11.37c2.69-4.2,5.1-8.57,7.11-13.14c2.12-4.81,3.99-9.74,6.01-14.59
										c4.21-10.05,8.58-20.04,13.02-29.99c4.32-9.69,8.49-19.47,13.31-28.93c5.19-10.18,10.86-20.16,14.77-30.93
										C369.95,114.39,367.33,113.68,366.74,115.32L366.74,115.32z"/>
								</g>
							</g>
							<g style="clip-path:url(#SVGID_00000168828499600942780050000011917763656125426838_);">
								<g>
									<path class="st7" d="M375.42,114.43c-3.46,9.53-8.36,18.44-13.02,27.42c-4.78,9.22-8.94,18.73-13.18,28.21
										c-4.37,9.76-8.68,19.54-12.86,29.38c-4.03,9.5-7.43,19.38-12.67,28.31c-2.65,4.51-5.77,8.71-8.57,13.12
										c-2.59,4.08-5.18,8.33-8.99,11.4c-1.36,1.1,0.57,3.01,1.92,1.92c3.4-2.74,5.89-6.45,8.23-10.1
										c2.46-3.83,5.09-7.54,7.54-11.37c2.69-4.2,5.1-8.58,7.11-13.14c2.12-4.81,3.99-9.74,6.01-14.59
										c4.21-10.05,8.58-20.04,13.02-29.99c4.32-9.69,8.49-19.47,13.31-28.93c5.19-10.18,10.86-20.16,14.77-30.93
										C378.64,113.5,376.01,112.79,375.42,114.43L375.42,114.43z"/>
								</g>
							</g>
							<g style="clip-path:url(#SVGID_00000168828499600942780050000011917763656125426838_);">
								<g>
									<path class="st7" d="M384.1,113.54c-3.46,9.53-8.36,18.44-13.02,27.42c-4.78,9.22-8.94,18.73-13.19,28.21
										c-4.37,9.76-8.68,19.54-12.86,29.38c-4.03,9.5-7.43,19.38-12.67,28.31c-2.65,4.51-5.77,8.71-8.57,13.12
										c-2.59,4.08-5.18,8.33-8.99,11.4c-1.36,1.1,0.57,3.01,1.92,1.92c3.4-2.74,5.89-6.45,8.23-10.1
										c2.46-3.83,5.09-7.54,7.54-11.37c2.69-4.2,5.1-8.57,7.11-13.14c2.12-4.81,3.99-9.74,6.01-14.59
										c4.21-10.05,8.58-20.04,13.02-29.99c4.32-9.69,8.49-19.47,13.31-28.93c5.19-10.18,10.86-20.16,14.77-30.93
										C387.32,112.61,384.69,111.9,384.1,113.54L384.1,113.54z"/>
								</g>
							</g>
							<g style="clip-path:url(#SVGID_00000168828499600942780050000011917763656125426838_);">
								<g>
									<path class="st7" d="M340.69,117.99c-3.46,9.53-8.36,18.44-13.02,27.42c-4.78,9.22-8.94,18.73-13.19,28.21
										c-4.37,9.76-8.68,19.54-12.86,29.38c-4.03,9.5-7.43,19.38-12.67,28.31c-2.65,4.51-5.77,8.71-8.57,13.12
										c-2.59,4.08-5.18,8.33-8.99,11.4c-1.36,1.1,0.57,3.01,1.92,1.92c3.4-2.74,5.89-6.45,8.23-10.1
										c2.46-3.83,5.09-7.54,7.54-11.37c2.69-4.2,5.1-8.57,7.11-13.14c2.12-4.81,3.99-9.74,6.01-14.59
										c4.21-10.05,8.58-20.04,13.02-29.99c4.32-9.69,8.49-19.47,13.31-28.93c5.19-10.18,10.86-20.16,14.77-30.93
										C343.91,117.06,341.29,116.35,340.69,117.99L340.69,117.99z"/>
								</g>
							</g>
							<g style="clip-path:url(#SVGID_00000168828499600942780050000011917763656125426838_);">
								<g>
									<path class="st7" d="M349.37,117.1c-3.46,9.53-8.36,18.44-13.02,27.42c-4.78,9.22-8.94,18.73-13.18,28.21
										c-4.37,9.76-8.68,19.54-12.86,29.38c-4.03,9.5-7.43,19.38-12.67,28.31c-2.65,4.51-5.77,8.71-8.57,13.12
										c-2.59,4.08-5.18,8.33-8.99,11.4c-1.36,1.1,0.57,3.01,1.92,1.92c3.4-2.74,5.89-6.45,8.23-10.1
										c2.46-3.83,5.09-7.54,7.54-11.37c2.69-4.2,5.1-8.57,7.11-13.14c2.12-4.81,3.99-9.74,6.01-14.59
										c4.21-10.05,8.58-20.04,13.02-29.99c4.32-9.69,8.49-19.47,13.31-28.93c5.19-10.18,10.86-20.16,14.77-30.93
										C352.59,116.17,349.97,115.46,349.37,117.1L349.37,117.1z"/>
								</g>
							</g>
							<g style="clip-path:url(#SVGID_00000168828499600942780050000011917763656125426838_);">
								<g>
									<path class="st7" d="M358.06,116.21c-3.46,9.53-8.36,18.44-13.02,27.42c-4.78,9.22-8.94,18.73-13.18,28.21
										c-4.37,9.76-8.68,19.54-12.86,29.38c-4.03,9.5-7.43,19.38-12.67,28.31c-2.65,4.51-5.77,8.71-8.57,13.12
										c-2.59,4.08-5.18,8.33-8.99,11.4c-1.36,1.1,0.57,3.01,1.92,1.92c3.4-2.74,5.89-6.45,8.23-10.1
										c2.46-3.83,5.09-7.54,7.54-11.37c2.69-4.2,5.1-8.57,7.11-13.14c2.12-4.81,3.99-9.74,6.01-14.59
										c4.21-10.05,8.58-20.04,13.02-29.99c4.32-9.69,8.49-19.47,13.31-28.93c5.19-10.18,10.86-20.16,14.77-30.93
										C361.27,115.28,358.65,114.57,358.06,116.21L358.06,116.21z"/>
								</g>
							</g>
							<g style="clip-path:url(#SVGID_00000168828499600942780050000011917763656125426838_);">
								<g>
									<path class="st7" d="M314.65,120.66c-3.46,9.53-8.36,18.44-13.02,27.42c-4.78,9.22-8.94,18.73-13.18,28.21
										c-4.37,9.76-8.68,19.54-12.86,29.38c-4.03,9.5-7.43,19.38-12.67,28.31c-2.65,4.51-5.77,8.71-8.57,13.12
										c-2.59,4.08-5.18,8.33-8.99,11.4c-1.36,1.1,0.57,3.01,1.92,1.92c3.4-2.74,5.89-6.45,8.23-10.1
										c2.46-3.83,5.09-7.54,7.54-11.37c2.69-4.2,5.1-8.57,7.11-13.14c2.12-4.81,3.99-9.74,6.01-14.59
										c4.21-10.05,8.58-20.04,13.02-29.99c4.32-9.69,8.49-19.47,13.31-28.93c5.19-10.18,10.86-20.16,14.77-30.93
										C317.87,119.73,315.24,119.03,314.65,120.66L314.65,120.66z"/>
								</g>
							</g>
							<g style="clip-path:url(#SVGID_00000168828499600942780050000011917763656125426838_);">
								<g>
									<path class="st7" d="M323.33,119.77c-3.46,9.53-8.36,18.44-13.02,27.42c-4.78,9.22-8.94,18.73-13.19,28.21
										c-4.37,9.76-8.68,19.54-12.86,29.38c-4.03,9.5-7.43,19.38-12.67,28.31c-2.65,4.51-5.77,8.71-8.57,13.12
										c-2.59,4.08-5.18,8.33-8.99,11.4c-1.36,1.1,0.57,3.01,1.92,1.92c3.4-2.74,5.89-6.45,8.23-10.1
										c2.46-3.83,5.09-7.54,7.54-11.37c2.69-4.2,5.1-8.57,7.11-13.14c2.12-4.81,3.99-9.74,6.01-14.59
										c4.21-10.05,8.58-20.04,13.02-29.99c4.32-9.69,8.49-19.47,13.31-28.93c5.19-10.18,10.86-20.16,14.77-30.93
										C326.55,118.84,323.92,118.14,323.33,119.77L323.33,119.77z"/>
								</g>
							</g>
							<g style="clip-path:url(#SVGID_00000168828499600942780050000011917763656125426838_);">
								<g>
									<path class="st7" d="M332.01,118.88c-3.46,9.53-8.36,18.44-13.02,27.42c-4.78,9.22-8.94,18.73-13.18,28.21
										c-4.37,9.76-8.68,19.54-12.86,29.38c-4.03,9.5-7.43,19.38-12.67,28.31c-2.65,4.51-5.77,8.71-8.57,13.12
										c-2.59,4.08-5.18,8.33-8.99,11.4c-1.36,1.1,0.57,3.01,1.92,1.92c3.4-2.74,5.89-6.45,8.23-10.1
										c2.46-3.83,5.09-7.54,7.54-11.37c2.69-4.2,5.1-8.57,7.11-13.14c2.12-4.81,3.99-9.74,6.01-14.59
										c4.21-10.05,8.58-20.04,13.02-29.99c4.32-9.69,8.49-19.47,13.31-28.93c5.19-10.18,10.86-20.16,14.77-30.93
										C335.23,117.95,332.6,117.24,332.01,118.88L332.01,118.88z"/>
								</g>
							</g>
							<g style="clip-path:url(#SVGID_00000168828499600942780050000011917763656125426838_);">
								<g>
									<path class="st7" d="M288.61,123.33c-3.46,9.53-8.36,18.44-13.02,27.42c-4.78,9.22-8.94,18.73-13.18,28.21
										c-4.37,9.76-8.68,19.54-12.86,29.38c-4.03,9.5-7.43,19.38-12.67,28.31c-2.65,4.51-5.77,8.71-8.57,13.12
										c-2.59,4.08-5.18,8.33-8.99,11.4c-1.36,1.1,0.57,3.01,1.92,1.92c3.4-2.74,5.89-6.45,8.23-10.1
										c2.46-3.83,5.09-7.54,7.54-11.37c2.69-4.2,5.1-8.57,7.11-13.14c2.12-4.81,3.99-9.74,6.01-14.59
										c4.21-10.05,8.58-20.04,13.02-29.99c4.32-9.69,8.49-19.47,13.31-28.93c5.19-10.18,10.86-20.16,14.77-30.93
										C291.82,122.41,289.2,121.7,288.61,123.33L288.61,123.33z"/>
								</g>
							</g>
							<g style="clip-path:url(#SVGID_00000168828499600942780050000011917763656125426838_);">
								<g>
									<path class="st7" d="M279.92,124.22c-3.46,9.53-8.36,18.44-13.02,27.42c-4.78,9.22-8.94,18.73-13.19,28.21
										c-4.37,9.76-8.68,19.54-12.86,29.38c-4.03,9.5-7.43,19.38-12.67,28.31c-2.65,4.51-5.77,8.71-8.57,13.12
										c-2.59,4.08-5.18,8.33-8.99,11.4c-1.36,1.1,0.57,3.01,1.92,1.92c3.4-2.74,5.89-6.45,8.23-10.1
										c2.46-3.83,5.09-7.54,7.54-11.37c2.69-4.2,5.1-8.57,7.11-13.14c2.12-4.81,3.99-9.74,6.01-14.59
										c4.21-10.05,8.58-20.04,13.02-29.99c4.32-9.69,8.49-19.47,13.31-28.93c5.19-10.18,10.86-20.16,14.77-30.93
										C283.14,123.3,280.52,122.59,279.92,124.22L279.92,124.22z"/>
								</g>
							</g>
							<g style="clip-path:url(#SVGID_00000168828499600942780050000011917763656125426838_);">
								<g>
									<path class="st7" d="M271.24,125.11c-3.46,9.53-8.36,18.44-13.02,27.42c-4.78,9.22-8.94,18.73-13.18,28.21
										c-4.37,9.76-8.68,19.54-12.86,29.38c-4.03,9.5-7.43,19.38-12.67,28.31c-2.65,4.51-5.77,8.71-8.57,13.12
										c-2.59,4.08-5.18,8.33-8.99,11.4c-1.36,1.1,0.57,3.01,1.92,1.92c3.4-2.74,5.89-6.45,8.23-10.1
										c2.46-3.83,5.09-7.54,7.54-11.37c2.69-4.2,5.1-8.57,7.11-13.14c2.12-4.81,3.99-9.74,6.01-14.59
										c4.21-10.05,8.58-20.04,13.02-29.99c4.32-9.69,8.49-19.47,13.31-28.93c5.19-10.18,10.86-20.16,14.77-30.93
										C274.46,124.19,271.84,123.48,271.24,125.11L271.24,125.11z"/>
								</g>
							</g>
							<g style="clip-path:url(#SVGID_00000168828499600942780050000011917763656125426838_);">
								<g>
									<path class="st7" d="M297.29,122.44c-3.46,9.53-8.36,18.44-13.02,27.42c-4.78,9.22-8.94,18.73-13.19,28.21
										c-4.37,9.76-8.68,19.54-12.86,29.38c-4.03,9.5-7.43,19.38-12.67,28.31c-2.65,4.51-5.77,8.71-8.57,13.12
										c-2.59,4.08-5.18,8.33-8.99,11.4c-1.36,1.1,0.57,3.01,1.92,1.92c3.4-2.74,5.89-6.45,8.23-10.1
										c2.46-3.83,5.09-7.54,7.54-11.37c2.69-4.2,5.1-8.57,7.11-13.14c2.12-4.81,3.99-9.74,6.01-14.59
										c4.21-10.05,8.58-20.04,13.02-29.99c4.32-9.69,8.49-19.47,13.31-28.93c5.19-10.18,10.86-20.16,14.77-30.93
										C300.5,121.52,297.88,120.81,297.29,122.44L297.29,122.44z"/>
								</g>
							</g>
							<g style="clip-path:url(#SVGID_00000168828499600942780050000011917763656125426838_);">
								<g>
									<path class="st7" d="M305.97,121.55c-3.46,9.53-8.36,18.44-13.02,27.42c-4.78,9.22-8.94,18.73-13.19,28.21
										c-4.37,9.76-8.68,19.54-12.86,29.38c-4.03,9.5-7.43,19.38-12.67,28.31c-2.65,4.51-5.77,8.71-8.57,13.12
										c-2.59,4.08-5.18,8.33-8.99,11.4c-1.36,1.1,0.57,3.01,1.92,1.92c3.4-2.74,5.89-6.45,8.23-10.1
										c2.46-3.83,5.09-7.54,7.54-11.37c2.69-4.2,5.1-8.57,7.11-13.14c2.12-4.81,3.99-9.74,6.01-14.59
										c4.21-10.05,8.58-20.04,13.02-29.99c4.32-9.69,8.49-19.47,13.31-28.93c5.19-10.18,10.86-20.16,14.77-30.93
										C309.19,120.62,306.56,119.92,305.97,121.55L305.97,121.55z"/>
								</g>
							</g>
						</g>
					</g>
				</g>
				<g>
					<g>
						<path class="st3" d="M277.57,41.44c0,0-3.36-13.06,16.54-20.87c19.9-7.82,30.58-3.7,30.58-3.7s2.77,20.8-19.98,28.2
							S277.57,41.44,277.57,41.44z"/>
						<g>
							<path d="M277.57,41.44c0.48-1.43,1.45-2.63,2.44-3.75c1.01-1.11,2.16-2.07,3.36-2.96c2.41-1.75,5.04-3.13,7.77-4.23
								c2.71-1.1,5.5-1.96,8.37-2.55c2.86-0.56,5.83-0.92,8.78-0.53l-15.79,6.43c-2.59,1.04-5.15,2.12-7.66,3.31
								c-1.25,0.59-2.5,1.22-3.72,1.9C279.88,39.76,278.69,40.49,277.57,41.44z"/>
						</g>
					</g>
					<g>
						<path class="st3" d="M180.39,53.98c0,0,1.99-13.33-18.62-19.04s-30.8-0.51-30.8-0.51s-0.6,20.97,22.8,25.97
							S180.39,53.98,180.39,53.98z"/>
						<g>
							<path d="M180.39,53.98c-1.22-0.83-2.48-1.44-3.77-1.99c-1.28-0.56-2.59-1.05-3.9-1.51c-2.62-0.92-5.27-1.73-7.96-2.49
								l-16.38-4.76c2.9-0.7,5.88-0.65,8.79-0.39c2.92,0.28,5.78,0.85,8.59,1.66c2.82,0.81,5.58,1.91,8.16,3.4
								c1.28,0.75,2.53,1.59,3.65,2.59C178.67,51.51,179.76,52.61,180.39,53.98z"/>
						</g>
					</g>
					<path class="st3" d="M287.24,163.06c0,0,9.78-45.77,7.51-63.9c-3.36-26.8-15.06-64.22-15.06-64.22s8.47-9.89,7.14-19.95
						c-1.33-10.06-8.15-6.61-11.04-1.95c-2.89,4.66-10.61,9.51-10.61,9.51s-8.34-7.31-35.61-4l-7.55,1.05
						c-19.84,2.37-31.17,10.4-31.17,10.4s-8.48-3.36-12.17-7.41s-11.03-6.21-10.5,3.93s10.66,18.32,10.66,18.32
						s-5.4,44.99-6.19,63.24c-0.79,18.25,12.09,62.78,12.09,62.78"/>
					<g>
						<path class="st4" d="M188.66,155.89c0,0-21.39,6.42-16.88,24.14c5.54,21.8,24.75,37.44,67.99,25.27
							c43.24-12.17,52.75-37.49,51.72-51.12c-1.08-14.34-11.52-15.98-23.06-16.82"/>
						<path d="M188.66,155.89c-2.19,0.86-4.27,1.97-6.21,3.25c-1.95,1.27-3.76,2.73-5.31,4.4c-1.54,1.68-2.82,3.56-3.64,5.6
							c-0.79,2.05-1.16,4.24-1.01,6.41c0.12,2.18,0.72,4.28,1.47,6.47c0.73,2.16,1.64,4.24,2.71,6.22c1.07,1.98,2.28,3.86,3.66,5.61
							c1.38,1.74,2.95,3.32,4.64,4.73c3.38,2.83,7.37,4.85,11.57,6.24c4.23,1.32,8.69,2.01,13.2,2.11
							c9.03,0.28,18.18-1.25,27.07-3.64c8.89-2.4,17.61-5.51,25.57-9.96c0.99-0.56,2.03-1.06,2.98-1.67l2.85-1.86l1.43-0.93
							l1.34-1.04l2.68-2.09c0.85-0.74,1.66-1.53,2.49-2.29l1.24-1.15l1.14-1.25c0.75-0.84,1.56-1.63,2.26-2.51l2.05-2.68
							c2.57-3.68,4.6-7.73,5.87-12.02c1.26-4.28,1.76-8.84,0.87-13.19c-0.41-2.15-1.18-4.23-2.49-5.96
							c-1.29-1.74-3.11-3.08-5.14-4.07c-2.04-0.99-4.29-1.61-6.57-2.09c-2.28-0.5-4.61-0.85-6.95-1.16c4.69,0.1,9.48,0.2,14.11,1.86
							c2.29,0.83,4.49,2.2,6.18,4.12c1.7,1.91,2.79,4.28,3.46,6.68c1.33,4.83,1.07,9.92-0.02,14.71c-1.1,4.81-3.19,9.35-5.8,13.5
							c-2.64,4.16-5.99,7.78-9.58,11.1l-2.82,2.33l-1.42,1.16l-1.5,1.04l-3,2.08c-1,0.69-2.08,1.24-3.12,1.87
							c-8.4,4.87-17.52,8.16-26.74,10.74c-9.26,2.38-18.89,4-28.68,3.51c-4.88-0.25-9.79-1.13-14.49-2.74
							c-2.34-0.83-4.63-1.86-6.79-3.11c-2.17-1.25-4.18-2.77-6.04-4.44c-3.72-3.35-6.66-7.48-8.7-11.94
							c-1.03-2.23-1.87-4.53-2.5-6.87c-0.63-2.3-1.2-4.8-1.15-7.34c0.03-2.53,0.66-5.06,1.75-7.31c1.12-2.24,2.68-4.2,4.5-5.81
							C179.73,159.25,184.12,157.13,188.66,155.89z"/>
					</g>
					<g>
						<path d="M206.09,181.35c-2.88-0.82-5.66-1.71-8.31-2.08c-1.3-0.17-2.61-0.16-3.4,0.2c-0.39,0.17-0.63,0.39-0.83,0.7
							c-0.21,0.31-0.36,0.76-0.46,1.3c-0.09,0.55-0.11,1.13-0.07,1.62c0.06,0.49,0.2,0.91,0.42,1.3c0.45,0.77,1.4,1.45,2.6,1.91
							c2.43,0.93,5.35,1.24,8.31,1.52c-1.38,0.62-2.85,0.97-4.36,1.21c-1.51,0.22-3.08,0.25-4.7-0.03c-0.81-0.16-1.64-0.4-2.44-0.83
							c-0.81-0.41-1.6-1.02-2.2-1.84c-0.62-0.8-0.99-1.78-1.15-2.73c-0.16-0.96-0.11-1.85,0.01-2.74c0.14-0.9,0.45-1.86,1.08-2.76
							c0.62-0.9,1.61-1.59,2.59-1.9c2-0.6,3.72-0.22,5.23,0.25C201.45,177.5,203.97,179.2,206.09,181.35z"/>
					</g>
					<g>
						<path d="M257.2,171.36c2.45-1.72,4.89-3.33,6.84-5.16c0.95-0.91,1.77-1.93,1.97-2.77c0.12-0.41,0.09-0.73-0.02-1.08
							c-0.11-0.36-0.37-0.76-0.73-1.17c-0.37-0.42-0.81-0.8-1.22-1.07c-0.42-0.26-0.84-0.42-1.28-0.49
							c-0.88-0.13-2.01,0.18-3.12,0.83c-2.24,1.31-4.33,3.38-6.41,5.51c0.39-1.46,1.03-2.83,1.79-4.15
							c0.78-1.31,1.73-2.55,2.98-3.64c0.63-0.53,1.34-1.02,2.18-1.38c0.83-0.37,1.8-0.6,2.81-0.56c1.01,0.02,2.01,0.35,2.85,0.82
							c0.85,0.48,1.51,1.08,2.12,1.73c0.61,0.67,1.16,1.52,1.47,2.57c0.31,1.04,0.22,2.26-0.15,3.21c-0.79,1.93-2.16,3.03-3.48,3.92
							C263.11,170.16,260.2,171.06,257.2,171.36z"/>
					</g>
					<path d="M193.38,138.6L193.38,138.6c-2.8,0.31-5.32-1.7-5.63-4.49l-0.98-8.69c-0.31-2.8,1.7-5.32,4.49-5.63l0,0
						c2.8-0.31,5.32,1.7,5.63,4.49l0.98,8.69C198.18,135.76,196.17,138.29,193.38,138.6z"/>
					<path d="M220.93,135.5L220.93,135.5c-2.8,0.31-5.32-1.7-5.63-4.49l-0.98-8.69c-0.31-2.8,1.7-5.32,4.49-5.63l0,0
						c2.8-0.31,5.32,1.7,5.63,4.49l0.98,8.69C225.74,132.66,223.73,135.18,220.93,135.5z"/>
				</g>
				<g>
					<g>
						<path d="M263.46,263.24c0,0-7.18-2.42-20.48,3.46c-13.3,5.88-14.09,20.12-14.09,20.12s10.39,0.19,25.88-5.86
							c15.5-6.05,15.75-12.35,15.75-12.35L263.46,263.24z"/>
					</g>
					<path class="st2" d="M259.58,265.83"/>
					<path class="st2" d="M270.6,208.91"/>
					<path class="st9" d="M264.87,269.35l-2.04-3.52c0,0,28.44-2.51,32.26-12.5c3.83-9.99-12.33-30.66-12.33-30.66"/>
				</g>
				<g>
					<path d="M451.74,131.05c-7.34-6.29-27.33-5.47-30.17,16.43c-2.84,21.9,16.51,27.77,4.91,40.01
						c-11.6,12.24,16.78,4.77,25.8-10.64C462.58,159.25,462.57,140.32,451.74,131.05z"/>
					<path class="st10" d="M401.6,51.85c0,0,30.26,7.19,42.1,23.47s0.44,56.62,0.44,56.62"/>
				</g>
			</g>
			<g>
				<path class="st7" d="M82.86,320.88l0.52,0.06c0.61,0.07,1.23,0.14,1.79,0.14c0.57,0,1.08-0.08,1.48-0.3
					c1.17,2.39,1.94,5.09,2.3,8.09c-0.03-0.03-0.06-0.05-0.09-0.08c-2.05-1.65-4.29-2.81-6.66-3.45c-2.74-0.74-5.6-0.75-8.29-0.02
					c-2.01,0.54-3.51,1.44-4.58,2.75c-0.29,0.35-0.38,0.86-0.22,1.31c0.13,0.38,0.43,0.66,0.8,0.74c0.59,0.13,1.52,0.45,2.2,0.68
					c0.42,0.14,0.75,0.25,0.87,0.28c1.29,0.3,2.61,0.55,3.91,0.75c2.65,0.41,5.35,0.63,8.02,0.66c0.3,0,0.63,0.04,0.99,0.07
					c0.47,0.04,0.96,0.09,1.45,0.09c0.64,0,1.27-0.08,1.82-0.34c0,0,0.01-0.01,0.01-0.01c0.05,2.45-0.14,5.07-0.57,7.87
					c-0.12,0.75-0.25,1.5-0.39,2.26c-0.74-1.14-2.21-1.95-3.31-2.55l-0.54-0.3c-2.71-1.57-5.68-2.39-8.62-2.32
					c-2.3,0.04-3.96,0.77-5.07,2.24c-0.18,0.24-0.4,0.58-0.44,1.04c-0.07,0.74,0.35,1.41,1.13,1.82c4.62,2.4,9.56,2.82,14.34,3.23
					c0.22,0.02,0.5,0.04,0.8,0.04c0.35,0,0.74-0.03,1.08-0.15c-0.34,1.58-0.71,3.15-1.07,4.7c-0.21,0.91-0.43,1.83-0.64,2.76
					c-0.42-0.35-0.85-0.65-1.26-0.93l-0.18-0.12v0c-4.25-2.93-9.61-2.49-13.66,1.12c-0.21,0.19-0.31,0.47-0.26,0.75
					c0.05,0.28,0.23,0.51,0.5,0.62c1.78,0.73,2.7,0.91,3.3,1.03c0.14,0.03,0.25,0.05,0.36,0.08c1.46,0.37,2.75,0.61,3.95,0.73
					l0.16,0.02c0.66,0.06,1.62,0.16,2.65,0.16c1.33,0,2.77-0.16,3.85-0.74c-0.5,2.4-0.94,4.83-1.21,7.28
					c-1.01,9.28,0.98,17.26,5.59,22.46c0.16,0.18,0.39,0.28,0.61,0.28c0.07,0,0.13-0.02,0.2-0.04c0.04,0.01,0.08,0.02,0.12,0.02
					c0.04,0,0.09,0,0.13-0.01c0.45-0.07,0.75-0.49,0.67-0.94c-0.45-2.77-0.02-5.91,1.31-9.62c1.63-4.52,4.06-8.66,7.22-12.29
					c1.16-1.33,2.44-2.62,3.68-3.86c1.3-1.3,2.64-2.64,3.87-4.07c2.19-2.54,4.05-5.36,5.52-8.37c0.23,0.2,0.54,0.36,0.91,0.47
					c2.66,0.8,5.46,0.33,7.88-0.18c2.79-0.58,5.59-1.31,8.31-2.16c1.87-0.58,3.83-1.27,5.4-2.64c0.61-0.54,0.88-1.11,0.78-1.71
					c-0.08-0.48-0.41-1.11-1.57-1.43c-2.06-0.57-4.19-0.54-6.2-0.43c-2.24,0.13-5.58,0.42-8.79,1.51c-1.35,0.46-2.84,0.97-4.2,1.68
					c0.25-1.82-0.03-3.84-0.2-5.1c-0.32-2.38-0.89-4.71-1.68-6.95c-0.31-0.88-0.7-1.88-1.49-2.64c-0.11-0.11-0.41-0.39-0.86-0.4
					c-0.55-0.04-1.08,0.29-1.28,1.2l-1.05,4.62c-0.32,1.4-0.64,2.84-0.66,4.33c0,0.07,0,6.6,2.26,8.43
					c0.32,0.26,0.67,0.42,1.05,0.48c-1.43,2.95-3.23,5.71-5.38,8.2c-1.19,1.38-2.51,2.7-3.79,3.98c-1.26,1.26-2.56,2.56-3.76,3.94
					c-3.29,3.78-5.82,8.09-7.53,12.81c-1.08,2.99-1.6,5.67-1.58,8.12c-4.49-6.42-4.41-14.85-3.9-19.55c0.09-0.8,0.2-1.59,0.32-2.39
					c0.23,0.07,0.48,0.1,0.72,0.1c0.29,0,0.55-0.04,0.72-0.06c0.1-0.01,0.2-0.03,0.28-0.03c1.63-0.1,3.27-0.35,4.87-0.75
					c3.23-0.81,6.33-2.21,9.2-4.17c0.16-0.11,0.43-0.3,0.61-0.64c0.45-0.87-0.07-1.86-0.8-2.4c-1.73-1.26-3.98-1.6-6.36-0.97
					c-2.03,0.54-3.87,1.67-5.65,2.75c-0.98,0.6-1.98,1.23-2.87,2.13c0.42-2.06,0.9-4.1,1.37-6.11c0.3-1.3,0.61-2.61,0.9-3.94
					c0.86,0.57,2.14,0.73,3.26,0.73c1.03,0,1.93-0.13,2.24-0.21c2.35-0.55,4.61-1.92,6.51-3.2c2.23-1.5,4.51-3.29,6-6.26
					c0.23-0.46,0.56-1.34,0.15-2.04c-0.27-0.45-0.71-0.56-0.88-0.61c-2.06-0.51-4.32-0.56-7.1-0.14c-1.47,0.22-3.18,0.58-4.79,1.6
					c-1.45,0.91-2.94,2.41-4.23,4.17c0.01-0.08,0.03-0.16,0.04-0.24c0.62-4.02,0.75-7.72,0.42-11.08c0.22,0.05,0.45,0.08,0.69,0.08
					c1.01,0,2.12-0.39,3.06-0.71c0.26-0.09,0.51-0.18,0.73-0.24c5.75-1.78,11.38-4.31,16.73-7.53c0.22-0.13,0.67-0.4,0.87-0.96
					c0.15-0.43,0.11-0.89-0.11-1.31c-0.27-0.5-0.82-0.91-1.39-1.05c-1.4-0.34-2.77,0-3.99,0.3c-3.15,0.77-6.41,1.57-9.48,3.13
					c-2.45,1.25-5.63,3.33-7.36,6.37c-0.49-3.06-1.41-5.8-2.75-8.24c0.33-1.03,1.32-2.04,2.29-3.02c0.65-0.65,1.32-1.33,1.83-2.04
					c1.77-2.51,3.15-5.33,4.37-7.82c2.03-4.14,3.75-8.19,2.63-12.31c-0.07-0.26-0.29-1.06-1.03-1.35c-0.47-0.18-0.92-0.08-1.27,0.03
					c-1.18,0.38-2.34,1.07-3.65,2.16c-6.12,5.09-9.17,13.95-7.74,21.43c-1.36-0.93-3.05-1.49-4.64-1.94
					c-3.46-0.98-7.02-1.38-10.58-1.2c-2.4,0.13-5.49,0.77-6.61,3.1c-0.11,0.24-0.11,0.52,0.02,0.75
					C63.69,317.69,82.67,320.86,82.86,320.88z M85.85,343.94c-4.62-0.4-9.39-0.81-13.72-3.06c-0.2-0.1-0.26-0.19-0.26-0.22
					c0-0.01,0.01-0.06,0.12-0.2c0.8-1.05,2-1.55,3.79-1.59c2.65-0.05,5.31,0.68,7.77,2.1c0.17,0.1,0.36,0.2,0.58,0.32
					c0.96,0.52,2.4,1.31,2.82,2.16c0.13,0.27,0.16,0.42,0.18,0.44C87.01,343.96,86.69,344.01,85.85,343.94z M114.1,345.17
					c-0.01-0.03-0.02-0.07-0.03-0.1c6.22-2.68,13.02-4.15,19.8-4.26L114.1,345.17z M129.64,343.05c-2.68,0.83-5.42,1.55-8.16,2.12
					c-2.13,0.44-4.56,0.85-6.77,0.28l19.07-4.2C132.56,342.1,131.08,342.61,129.64,343.05z M120.3,341.45
					c2.31-0.79,4.88-1.22,8.33-1.42c1.85-0.1,3.81-0.13,5.63,0.36c-6.82,0.06-13.65,1.48-19.93,4.12c0.11-0.12,0.22-0.24,0.31-0.37
					C116.13,342.88,118.38,342.11,120.3,341.45z M113.75,336.86c0.33,2.4,0.5,4.86-0.34,6.18c-0.17,0.15-0.33,0.31-0.49,0.48
					c0.41-4.17,0.25-8.34-0.48-12.46C113.03,332.91,113.47,334.82,113.75,336.86z M109.97,336.68c0.01-1.32,0.32-2.67,0.62-3.99
					l0.92-4.01c0.02,0.04,0.04,0.08,0.06,0.11c1.16,4.95,1.46,10.01,0.92,15.06c-0.11,0.04-0.22,0.08-0.34,0.11
					c-0.2,0.05-0.35,0-0.52-0.13C110.43,342.86,109.95,338.62,109.97,336.68z M98.5,322.49c2.9-1.47,6.07-2.25,9.13-3
					c0.79-0.19,1.59-0.39,2.36-0.39c0.29,0,0.57,0.03,0.85,0.09c0.16,0.04,0.33,0.19,0.36,0.2c-0.02,0.02-0.08,0.06-0.18,0.12
					c-5.24,3.15-10.75,5.62-16.38,7.37c-0.24,0.07-0.5,0.17-0.78,0.26c-0.52,0.18-1.14,0.4-1.72,0.52
					C93.74,325.27,96.4,323.55,98.5,322.49z M100.91,354.42c-2.72,1.85-5.64,3.17-8.68,3.94c-1.5,0.38-3.04,0.61-4.57,0.7
					c-0.06,0-0.14,0.02-0.22,0.02c4.25-1.13,8.83-2.54,12.37-5.52c0.3,0.14,0.6,0.29,0.87,0.49
					C100.85,354.18,100.96,354.38,100.91,354.42z M87.81,357.89c0.77-0.82,1.69-1.39,2.67-1.99c1.68-1.03,3.41-2.09,5.22-2.57
					c0.63-0.17,1.26-0.25,1.85-0.25c0.65,0,1.26,0.11,1.83,0.3c-3.52,2.89-8.08,4.24-12.29,5.36
					C87.26,358.51,87.49,358.23,87.81,357.89L87.81,357.89z"/>
			</g>
		</g>
		<g>
			<path class="st11" d="M478.82,392.92c0,0,10.56-6.53,16.71-13.81c-4.83,1.27-9.9,1.03-15.84,1.66c0.13-3.02-0.19-6.39-1.19-9.85
				c-0.62,1.26-1.37,2.53-2.17,3.81c-0.65-4.88-1.41-9.14-1.26-13.88c-3.64,4.84-5.99,9.54-7.46,13.86
				c-0.17-0.87-0.37-1.75-0.62-2.63c-1.17,2.38-2.72,4.74-4.41,7.25c-0.96-2.65-1.83-5.15-2.42-7.62c-0.66,1.7-1.17,3.4-1.58,5.07
				c-0.59-3.06-1.56-6.26-3.09-9.44c-0.36,4.7-1.4,9-2.32,14.12c-0.71-1.48-1.54-3.01-2.49-4.55c-0.68,3.17-1.98,6.5-3.22,10.29
				h-0.11c0.02-8.24-0.94-14.52-0.41-21.29c-3.1,3.87-5.18,7.95-6.56,11.88c-0.05-4.81-0.54-10.26-1.7-16.29
				c-1.39,4.93-3.53,9.52-5.79,14.65c0.98-6.07,0.43-13.2-3.73-21.21c-1.3,9.48-4.32,15.63-7.3,21.04c-1.1-3.91-2.69-8.21-4.94-12.8
				c-0.18,5.61-1.5,11.07-2.52,17.51c-1.08-1.88-2.14-3.66-3.12-5.36c0.47-1.43,0.98-2.84,1.61-4.24c-1.03,0.61-1.97,1.27-2.87,1.94
				c-0.51-0.97-0.99-1.93-1.4-2.88c-0.4,1.6-0.67,3.18-0.84,4.71c-0.72,0.64-1.41,1.3-2.05,1.96c-0.02-4.52-0.5-9.67-1.7-15.39
				c-1.3,4.23-3.27,8.21-5.37,12.56c0.04-4.49-1.06-9.5-4.15-14.94c-1.21,8.08-3.91,13.53-6.68,18.24
				c-0.8-4.86-1.66-9.18-1.77-13.59c-2.63,5.34-4.3,10.26-5.29,14.54c-1.09-3.52-2.95-7.33-5.99-11.21
				c-0.07,4.38-1.13,8.31-1.96,13.03c-1.89-3.23-3.67-6.14-4.94-9.09c-0.53,2.12-0.84,4.2-0.97,6.18c-0.59-2.86-1.56-5.84-3.12-8.81
				c-0.39,4.64-1.56,8.85-2.53,14.04c-0.88-1.94-2.02-4-3.43-6.1c-0.7,2.99-2.06,6.12-3.33,9.73c0.05-7.7-0.95-13.53-0.41-19.81
				c-4.93,5.63-7.28,11.76-8.32,17.04c-2.15-3.11-5.43-6.34-10.47-9.09c0.65,1.83,1.01,3.64,1.3,5.53c-0.76,0.96-1.48,1.93-2.1,2.87
				c-0.18-6.05-0.83-11.04-0.37-16.34c-4.3,4.91-6.63,10.2-7.85,14.97c-0.79-1.58-1.73-3.23-2.86-4.9c-0.67,2.89-1.97,5.92-3.2,9.38
				c0.92-7.17,0.77-12.85,2.07-18.74c-5.15,4.51-8.2,9.72-10.01,14.47c-0.35-4.05-1.39-8.56-3.73-13.04
				c-0.38,4.47-1.47,8.54-2.42,13.47c-0.72-0.93-1.53-1.86-2.48-2.78c-0.79-3.31-2.18-6.88-4.51-10.48
				c-0.07,2.19-0.35,4.26-0.7,6.39c-0.65-0.41-1.32-0.81-2.04-1.2c0.64,1.81,1,3.6,1.29,5.46c-0.09,0.51-0.18,1.03-0.26,1.56
				c-0.81-4.45-2.76-9.6-6.89-14.86c-0.08,5.02-1.46,9.44-2.3,15.15c-1.92-5.5-3.94-9.72-5.16-14.55c-1.13,3.33-1.6,6.58-1.67,9.63
				c-0.76-1.47-1.68-2.96-2.82-4.47c0.01,4.85-1.38,9.02-1.81,15.04c-0.53-1.69-1.4-3.55-2.75-5.52c1.14-3.91,2.02-7.4,3.58-10.88
				c-2.44,1.46-4.51,3.12-6.27,4.85c-0.65-1.88-1.72-3.85-3.35-5.91c-0.91,4.34-2.67,7.61-4.65,10.41
				c-0.57-2.45-1.07-4.75-1.15-7.08c-3.24,4.7-5.03,8.95-5.87,12.45c-0.42-3.53-1.1-6.47-0.93-9.66c-2.35,2.22-3.93,4.49-4.98,6.66
				c-0.25-3.24-1.12-6.78-3.13-10.26c-0.64,4.13-2.1,7.91-3.37,12.62c-1.23-2.2-2.37-4.23-3.11-6.23c-0.66,1.12-1.17,2.23-1.58,3.32
				c-0.59-2.01-1.56-4.1-3.09-6.19c-0.37,3.09-1.4,5.92-2.33,9.29c-0.72-0.98-1.52-1.99-2.48-3.02c-0.57,1.76-1.6,3.6-2.65,5.63
				h-0.7c-0.1-4.86-0.89-8.72-0.39-12.84c-3.1,2.54-5.18,5.21-6.56,7.79c-0.05-3.15-0.54-6.73-1.7-10.68
				c-1.39,3.23-3.53,6.24-5.79,9.6c0.98-3.98,0.43-8.65-3.73-13.91c-1.3,6.21-4.32,10.24-7.3,13.79c-1.1-2.56-2.69-5.38-4.94-8.39
				c-0.22,4.55-2.19,8.97-3.18,14.63h-0.17c0.82-6.23,0.82-15.6-3.78-24.8c-0.3,3.31-0.92,6.43-1.63,9.74
				c-0.07-0.25-0.12-0.5-0.19-0.76c-0.62,1.26-1.37,2.53-2.17,3.81c-0.65-4.88-1.41-9.14-1.26-13.88c-2.78,3.69-4.78,7.3-6.24,10.71
				c-1.15-5.56-2.98-11.85-5.75-18.62c-0.15,7.13-1.5,14.1-2.51,22.32c-2.56-5.71-5.17-12.06-5.04-21.33
				c-3.6,3.8-5.69,7.59-6.77,11.24c-0.62-1.01-1.27-2.02-2-3.01c-0.42,4.11-1.49,8.43-2.61,13.14c-2.68-4.91-5.24-9.25-6.87-13.93
				c-1.37,5.72-1.93,10.87-1.94,15.39c-0.72-0.67-1.51-1.32-2.34-1.96c-0.19-1.53-0.5-3.11-0.96-4.71c-0.47,0.96-1.02,1.92-1.6,2.88
				c-1.03-0.67-2.1-1.33-3.27-1.94c0.71,1.4,1.3,2.81,1.84,4.24c-0.44,0.68-0.9,1.37-1.37,2.07c-0.96-2.65-1.83-5.15-2.42-7.62
				c-0.66,1.7-1.17,3.4-1.58,5.07c-0.59-3.06-1.56-6.26-3.09-9.44c-0.36,4.7-1.4,9-2.32,14.12c-0.71-1.48-1.54-3.01-2.49-4.55
				c-0.7,3.26-2.06,6.68-3.33,10.61c0.05-8.4-0.95-14.76-0.41-21.61c-3.1,3.87-5.18,7.95-6.56,11.88
				c-0.05-4.81-0.54-10.26-1.7-16.29c-1.39,4.93-3.53,9.52-5.79,14.65c0.98-6.07,0.43-13.2-3.73-21.21
				c-1.3,9.48-4.32,15.63-7.3,21.04c-1.1-3.91-2.69-8.21-4.94-12.8c-0.21,6.78-2.1,13.34-3.11,21.67
				c-0.55-4.18-1.99-9.01-5.15-13.88c-0.12,4.09-0.99,7.79-1.71,12.21c-0.81-4.45-2.76-9.6-6.89-14.86
				c-0.08,5.02-1.46,9.44-2.3,15.15c-1.92-5.5-3.94-9.72-5.16-14.55c-1.13,3.33-1.6,6.58-1.67,9.63c-0.76-1.47-1.68-2.96-2.82-4.47
				c0.01,4.74-1.32,8.85-1.78,14.65h-0.17c-0.54-1.59-1.37-3.31-2.61-5.14c1.14-3.91,2.02-7.4,3.58-10.88c-3.8,2.27-6.7,5-8.94,7.78
				c0.29-5,0.09-10.85-0.92-17.41c-1.69,5.58-4.35,10.75-7.04,16.89c1.05-5.63,0.55-12.26-3.68-19.73
				c-0.91,6.07-2.67,10.65-4.65,14.55c-0.58-3.42-1.07-6.64-1.15-9.9c-3.24,6.56-5.03,12.51-5.87,17.41
				c-0.42-4.93-1.1-9.04-0.93-13.49c-2.35,3.1-3.93,6.27-4.98,9.32c-0.25-4.54-1.12-9.49-3.13-14.34
				c-0.64,5.78-2.11,11.04-3.37,17.63c-1.23-3.07-2.37-5.91-3.1-8.7c-0.66,1.56-1.17,3.12-1.58,4.65c-0.59-2.81-1.56-5.74-3.09-8.65
				c-0.36,4.31-1.4,21.07-2.32,25.76"/>
		</g>
		<g>
			<g>
				<path class="st12" d="M154.24,295.4c-0.28-0.12-0.76-0.36-1.43-0.7"/>
				<path class="st13" d="M150.02,293.36c-5.1-2.36-13.84-5.77-22.44-5.08c-14.2,1.14-22.93,9.94-26.28,14.45"/>
				<path class="st12" d="M100.43,304c-0.58,0.92-0.79,1.45-0.63,1.37"/>
			</g>
		</g>
		<g>
			<g>
				<path class="st14" d="M149.09,299.57c-0.25-0.11-0.73-0.38-1.38-0.73"/>
				<path class="st15" d="M145.07,297.47c-4.34-2.12-11.41-4.9-18.2-3.81c-11.65,1.86-18.48,11.25-21.05,16"/>
				<path class="st14" d="M105.15,310.99c-0.44,0.96-0.59,1.51-0.46,1.43"/>
			</g>
		</g>
		<g>
			<g>
				<path class="st14" d="M144.75,302.38c-0.26-0.08-0.76-0.28-1.46-0.55"/>
				<path class="st16" d="M140.51,300.82c-4.06-1.34-10.26-2.79-15.84-1.13c-9.73,2.9-14.62,11.62-16.42,16.21"/>
				<path class="st14" d="M107.75,317.29c-0.32,1-0.4,1.57-0.29,1.48"/>
			</g>
		</g>
	</g>
</g>
</svg>
