<?xml version="1.0" encoding="utf-8"?>
<!-- Generator: Adobe Illustrator 25.4.1, SVG Export Plug-In . SVG Version: 6.00 Build 0)  -->
<svg version="1.1" xmlns="http://www.w3.org/2000/svg" xmlns:xlink="http://www.w3.org/1999/xlink" x="0px" y="0px"
	 viewBox="0 0 319.44 258.5" style="enable-background:new 0 0 319.44 258.5;" xml:space="preserve">
<style type="text/css">
	.st0{clip-path:url(#SVGID_00000048461755176016975370000016008791933156442030_);}
	.st1{fill:#8E9192;stroke:#FFFFFF;stroke-width:0.9529;stroke-miterlimit:10;}
	.st2{fill:#5D6162;stroke:#FFFFFF;stroke-width:0.9529;stroke-miterlimit:10;}
	.st3{fill:#2B2E31;stroke:#FFFFFF;stroke-width:0.9529;stroke-miterlimit:10;}
	.st4{fill:#C1C3C3;stroke:#FFFFFF;stroke-width:0.9529;stroke-miterlimit:10;}
	.st5{fill:none;stroke:#000000;stroke-width:2;stroke-miterlimit:10;}
	.st6{fill:none;stroke:#000000;stroke-width:3;stroke-miterlimit:10;}
	.st7{fill:#FFFFFF;stroke:#000000;stroke-width:2;stroke-miterlimit:10;}
	.st8{fill:#FFFFFF;}
	.st9{clip-path:url(#SVGID_00000123414386432427823090000005889552008852315307_);}
	.st10{clip-path:url(#SVGID_00000079449521117531899480000013077728426445455744_);}
	.st11{fill:#2B2E31;}
	.st12{clip-path:url(#SVGID_00000138535299537296757140000007972424962395485334_);}
</style>
<g id="Capa_1">
</g>
<g id="Modo_de_aislamiento">
	<g>
		<g>
			<g>
				<g>
					<defs>
						<path id="SVGID_1_" d="M169.8,51L96.06,4.97c-4.02-2.51-9.1-2.51-13.12,0L9.23,51C5.6,53.27,3.4,57.23,3.4,61.5v115
							c0,6.87,5.56,12.4,12.4,12.4h40.68c6.84,0,59.24,0,66.08,0h40.68c6.84,0,12.37-5.57,12.37-12.4v-115
							C175.6,57.23,173.4,53.24,169.8,51L169.8,51z"/>
					</defs>
					<clipPath id="SVGID_00000003812929395790689770000006479502269113759394_">
						<use xlink:href="#SVGID_1_"  style="overflow:visible;"/>
					</clipPath>
					<g style="clip-path:url(#SVGID_00000003812929395790689770000006479502269113759394_);">
						<path class="st1" d="M120.63,169.72l0.01,0.45v20.41h19.11c0.15,0,13.48,0.16,16.15,0.01c0.11-0.01,0.22-0.01,0.33-0.01h19.07
							c0.99,0,1.79-0.8,1.79-1.79l-0.01-19.15c0,0,0-0.04,0-0.04v-16.18c0,0,0.01-9.83,0.02-9.83v-7.41c0-0.21,0-2.11,0.01-3.35
							h-20.23c-1.53,0-3.2-0.57-3.96-1.99c-0.26-0.49-0.39-1.05-0.39-1.6c0-0.64,0.16-1.3,0.49-1.96c0.65-1.33,1.69-3.88,1.69-5.04
							c0-2.96-2.75-5.36-6.12-5.36c-3.38,0-6.12,2.41-6.12,5.36c0,1.16,1.04,3.7,1.69,5.04c0.33,0.66,0.49,1.32,0.49,1.96
							c0,1.97-1.57,3.41-3.9,3.58l-0.11,0.01l-0.4,0.01h-19.57c0,0,0,3.85-0.01,3.85v16.86c0,0.27,0.01,0.45,0,0.54
							c0.11,0.74,0.41,1.3,0.84,1.54c0.55,0.31,1.21,0.1,1.67-0.12c0.4-0.19,3.93-1.9,5.95-1.9c4.1,0,7.89,3.68,7.89,8.21
							c0,4.52-3.79,8.2-7.89,8.2c-2.02,0-5.56-1.71-5.95-1.9c-0.65-0.32-1.25-0.36-1.67-0.12c-0.46,0.26-0.77,0.86-0.86,1.66
							C120.62,169.67,120.63,169.7,120.63,169.72z"/>
						<path class="st2" d="M120.37,32.69c0.09,0.8,0.4,1.4,0.86,1.66c0.43,0.24,1.02,0.2,1.67-0.12c0.4-0.19,3.93-1.9,5.95-1.9
							c4.1,0,7.44,3.68,7.44,8.2c0,4.52-3.34,8.2-7.44,8.2c-2.02,0-5.56-1.7-5.95-1.9c-0.46-0.23-1.12-0.43-1.67-0.12
							c-0.44,0.25-0.74,0.8-0.84,1.54c0,0.08-0.01,0.26-0.01,0.53v16.85l0.01,1.04v2.8h20.01l0.5,0.01l0.04,0.01l-0.96-0.01
							c2.37,0.17,4.83,1.61,4.83,3.58c0,0.64-0.16,1.3-0.49,1.96c-0.65,1.33-1.69,3.88-1.69,5.04c0,2.96,2.75,6.25,6.12,6.25
							c3.38,0,6.12-3.3,6.12-6.25c0-1.16-1.04-3.7-1.69-5.04c-0.33-0.66-0.49-1.32-0.49-1.96c0-0.71,0.21-1.4,0.62-1.98
							c0.43-0.59,1.05-1.01,1.73-1.27c0.22-0.08,0.45-0.15,0.69-0.2c0.46-0.1,0.91-0.14,1.38-0.14c0.13,0,0.27,0,0.4,0
							c0.24,0,0.48,0,0.72,0c0.33,0-0.23,0,0.11,0c0.41,0,0.82,0,1.23,0c0.47,0,0.95,0,1.42,0c0.52,0,1.05,0,1.57,0
							c0.56,0,1.12,0,1.67,0c0.58,0,1.15,0,1.73,0c0.58,0,1.16,0,1.74,0c0.57,0,1.14,0,1.71,0c0.55,0,1.09,0,1.64,0
							c0.51,0,1.01,0,1.52,0c0.45,0,0.9,0,1.35,0c0.38,0,0.76,0,1.15,0c0.3,0,0.89,0,1.18,0c0.2,0,0.4,0,0.6,0c0.09,0,0.17,0,0.26,0
							c0-1.11-0.01-45.57-0.01-55.1c0-0.99-0.8-1.78-1.78-1.78c-12.1,0-52.25,0-54.95,0l0,19.53l-0.01,0.42
							C120.37,32.62,120.37,32.66,120.37,32.69z"/>
						<path class="st1" d="M134.63,40.5c0-3.52-2.52-6.38-5.61-6.38c-1.36,0-4.21,1.25-5.2,1.74c-1.29,0.63-2.56,0.65-3.59,0.05
							c-1.07-0.62-1.73-1.8-1.86-3.34h-0.02c0-0.09,0.01-0.27,0.01-0.53V-5.25c-19.31,0-38.62,0.01-57.93,0.01V31.6
							c0,0.25,0,0.43,0.01,0.53h-0.02c-0.13,1.54-0.79,2.72-1.86,3.34c-1.03,0.6-2.31,0.58-3.59-0.05c-0.99-0.48-3.84-1.74-5.2-1.74
							c-3.09,0-5.61,2.86-5.61,6.38c0,3.52,2.52,6.39,5.61,6.39c1.36,0,4.21-1.26,5.2-1.74c1.28-0.63,2.56-0.65,3.59-0.05
							c1.1,0.64,1.77,1.87,1.87,3.47l0.01,0.46v20.68l2.71,0.01l10.83,0h7.91c0,0,0.35,0.01,0.35,0c1.36-0.09,2.17-0.71,2.17-1.67
							c0-0.34-0.1-0.73-0.3-1.13c-0.2-0.4-1.93-3.99-1.93-6.02c0-4.11,3.69-7.46,8.23-7.46c4.54,0,8.24,3.35,8.24,7.46
							c0,2.03-1.73,5.62-1.93,6.02c-0.2,0.4-0.3,0.78-0.3,1.13c0,0.96,0.81,1.58,2.16,1.67c0.05,0,3.62,0,3.62,0l2.99,0l0.93-0.01
							h8.63c0.23,0,2.34-0.01,3.6-0.01V49.03l0.01-0.47c0.11-1.6,0.77-2.83,1.87-3.47c1.03-0.6,2.31-0.58,3.6,0.05
							c0.98,0.48,3.84,1.74,5.2,1.74C132.11,46.88,134.63,44.02,134.63,40.5z"/>
						<path class="st3" d="M44.12,161.67c0,3.55,2.54,6.43,5.65,6.43c1.37,0,4.25-1.26,5.24-1.75c1.3-0.64,2.58-0.65,3.62-0.05
							c1.08,0.62,1.74,1.81,1.87,3.36l0.03,0c-0.01,0.09-0.01,0.27-0.01,0.53v20.35h2.09l0.93-0.01h14.22l4.11,0l0.49,0.01
							c0,0,0.16,0,0.2,0.01l-0.02,0.02c0.2-0.02,0.43-0.02,0.68-0.02c0,0,15.7-0.01,15.77-0.01l7.57,0h12.32v-20.35
							c0-0.25-0.01-0.43-0.01-0.53l0.03,0c0.13-1.55,0.79-2.74,1.87-3.37c1.04-0.6,2.33-0.58,3.62,0.05
							c0.99,0.49,3.87,1.75,5.24,1.75c3.12,0,5.65-2.88,5.65-6.43c0-3.55-2.53-6.43-5.65-6.43c-1.37,0-4.25,1.26-5.24,1.75
							c-1.3,0.64-2.58,0.66-3.62,0.05c-1.11-0.64-1.78-1.88-1.88-3.49l-0.01-0.46v-20.83l-2.73-0.01l-10.92,0h-6.17l-0.35,0v0
							c-1.37,0.09-2.19,0.72-2.19,1.69c0,0.35,0.1,0.73,0.3,1.13c0.2,0.4,1.94,4.02,1.94,6.06c0,4.14-3.72,7.52-8.3,7.52
							c-4.58,0-8.3-3.37-8.3-7.52c0-2.05,1.74-5.66,1.94-6.06c0.2-0.4,0.3-0.79,0.3-1.13c0-0.96-0.81-1.59-2.18-1.69
							c-0.05,0-3.65,0-3.65,0l-4.82,0l-0.93,0.01h-8.69c-0.23,0-2.36,0.01-3.62,0.01v20.82l-0.01,0.47
							c-0.1,1.61-0.77,2.85-1.88,3.49c-1.04,0.6-2.33,0.58-3.62-0.05c-0.99-0.49-3.87-1.75-5.24-1.75
							C46.65,155.24,44.12,158.13,44.12,161.67z"/>
						<path class="st4" d="M97.22,61.48c0,1.83-1.79,5.48-1.79,5.48c-1.04,2.12,0.57,3.88,3.03,4.04l0.4,0h20.11v4.73h0.01V93.6
							c0,0.28-0.01,0.48-0.01,0.57c0-0.05,0.01-0.12,0.01-0.23c0.16,2.47,1.91,4.08,4.04,3.03c0,0,3.65-2.24,5.48-2.24
							c3.53,0,6.39,3.2,6.39,7.15c0,3.95-2.86,7.15-6.39,7.15c-1.83,0-5.48-1.79-5.48-1.79c-2.12-1.04-3.88,0.12-4.04,2.59
							l-0.01,0.4v7.28l0,0v12.86H98.87l-0.4,0.01c-2.47,0.16-4.07,1.91-3.03,4.04c0,0,2.24,4.1,2.24,5.93c0,3.53-3.2,6.83-7.15,6.83
							c-3.95,0-7.15-3.31-7.15-6.83c0-1.83,2.24-5.93,2.24-5.93c1.04-2.12-0.57-3.88-3.03-4.04c0.11-0.01,0.19-0.01,0.23-0.01
							c-0.09,0-0.28,0.01-0.57,0.01H60.57c0,0,0.01-2.26,0.01-3.55l0.01-16.65c0-0.28,0.01-0.48,0.01-0.57
							c0,0.05-0.01,0.12-0.01,0.23c-0.16-2.47-1.92-4.08-4.04-3.03c0,0-3.65,2.24-5.48,2.24c-3.53,0-6.39-3.2-6.39-7.15
							c0-3.95,2.86-7.15,6.39-7.15c1.83,0,5.48,2.24,5.48,2.24c2.12,1.04,3.88-0.57,4.04-3.03l0.01-0.4l-0.01-8.77h-0.01v-8.44
							c0-0.32-0.01-5.32-0.01-5.32h21.68c0.28,0,0.48,0.01,0.57,0.01c-0.05,0-0.12-0.01-0.23-0.01c2.47-0.16,4.08-1.92,3.04-4.04
							c0,0-1.79-3.65-1.79-5.48c0-3.53,2.75-6.39,6.7-6.39C94.46,55.09,97.22,57.95,97.22,61.48z"/>
						<path class="st4" d="M2.25,130.74c0,0,20.78,0,20.83,0v-0.01l0.12-0.01c0.56-0.06,1.86-0.33,1.86-1.58
							c0-0.34-0.09-0.71-0.28-1.1c-0.19-0.42-1.9-4.17-1.9-6.31c0-4.35,3.68-7.44,8.2-7.44c4.53,0,8.21,3.09,8.21,7.44
							c0,2.14-1.71,5.89-1.9,6.31c-0.18,0.4-0.28,0.77-0.28,1.11c0,1.33,1.51,1.55,1.97,1.59l0.03,0l0.35,0h19.1l0-20.24l0-0.44
							c0-0.06,0.01-0.11,0.01-0.14c-0.09-0.85-0.4-1.49-0.86-1.76c-0.43-0.26-1.02-0.21-1.68,0.13c-0.39,0.21-3.93,2.01-5.95,2.01
							c-4.11,0-7.44-3.9-7.44-8.69c0-4.79,3.34-8.69,7.44-8.69c2.02,0,5.56,1.81,5.95,2.02c0.46,0.24,1.12,0.46,1.67,0.13
							c0.44-0.26,0.74-0.85,0.85-1.63h-0.01c0-0.09,0.01-0.28,0.01-0.56V74.99l-0.01-1.1v-2.97H39.43l-0.45-0.01
							c-0.54,0.06-1.89,0.32-1.89,1.59c0,0.33,0.09,0.71,0.28,1.11c0.19,0.42,1.9,4.17,1.9,6.31c0,4.35-3.68,7.44-8.2,7.44
							c-4.52,0-8.2-3.09-8.2-7.44c0-2.14,1.71-5.89,1.9-6.31c0.18-0.4,0.27-0.77,0.27-1.1c0-1.22-1.24-1.51-1.82-1.58
							c-0.13,0-0.26,0-0.45,0H2.1C2.1,72.23,2.25,130.74,2.25,130.74z"/>
						<path class="st2" d="M22.78,69.16c0.5,0.01,1,0.06,1.5,0.19c0.72,0.19,1.41,0.54,1.94,1.09c0.6,0.62,0.91,1.46,0.91,2.32
							c0,0.64-0.16,1.3-0.49,1.96c-0.65,1.33-1.69,3.88-1.69,5.04c0,2.96,2.74,5.36,6.12,5.36c3.38,0,6.12-2.4,6.12-5.36
							c0-1.16-1.04-3.7-1.69-5.04c-0.32-0.66-0.49-1.32-0.49-1.96c0-1.97,1.57-3.41,3.9-3.58l0.11-0.01l0.4,0h19.13
							c0,0,0-3.85,0.01-3.85V48.46c0-0.27-0.01-0.45,0-0.53c-0.11-0.74-0.41-1.3-0.85-1.54c-0.55-0.31-1.21-0.1-1.67,0.12
							c-0.4,0.2-3.93,1.9-5.95,1.9c-4.11,0-7.44-3.68-7.44-8.21c0-4.52,3.34-8.2,7.44-8.2c2.02,0,5.56,1.71,5.95,1.9
							c0.65,0.32,1.25,0.36,1.67,0.12c0.46-0.26,0.77-0.86,0.86-1.66c0-0.03-0.01-0.06-0.01-0.09l-0.01-0.45V12.7H39.45
							c-0.15,0-13.45-0.16-16.14-0.01c-0.11,0.02-0.22,0.02-0.33,0.02l-19.08,0c-0.99,0-1.79,0.8-1.79,1.79l0.02,17.89l0,16.18
							c0,0-0.01,9.83-0.02,9.83v7.42c0,0.21,0,2.11-0.01,3.35c0.27,0,2.27,0,3,0c1.03,0,2.07,0,3.1,0c1.2,0,2.4,0,3.61,0
							c1.23,0,2.45,0,3.68,0c1.11,0,2.21,0,3.32,0c0.85,0,1.69,0,2.54,0C21.83,69.16,22.3,69.15,22.78,69.16z"/>
						<path class="st3" d="M2.1,136.22v7.55l0.01,0.9l0.01,8.79l0,16.18l0,0.07L2.11,188.1l0,0.73c0,0.99,0.8,1.79,1.79,1.79h19.07
							c0.1,0,16.33,0,16.46,0h19.12v-20.4l0-0.42c0-0.06,0.01-0.1,0.01-0.13c-0.09-0.8-0.4-1.4-0.86-1.66
							c-0.43-0.24-1.02-0.2-1.67,0.12c-0.4,0.19-3.93,1.9-5.95,1.9c-4.11,0-7.44-3.68-7.44-8.2c0-4.52,3.34-8.2,7.44-8.2
							c2.02,0,5.56,1.71,5.95,1.9c0.46,0.23,1.12,0.43,1.67,0.12c0.44-0.25,0.74-0.8,0.84-1.54c0-0.09,0.01-0.26,0.01-0.53v-16.85
							l-0.01-1.04c0,0,0-2.74,0-2.8c0,0-2.67,0-2.82,0c-2.11,0-4.21,0-6.32,0c-2.17,0-4.35,0-6.52,0c-1.14,0-2.28,0-3.41,0
							c-2.16,0-4.46-1.15-4.46-3.59c0-0.64,0.17-1.3,0.49-1.96c0.65-1.33,1.69-3.88,1.69-5.04c0-2.96-2.75-5.81-6.12-5.81
							c-3.38,0-6.12,2.85-6.12,5.81c0,1.16,1.03,3.71,1.69,5.04c0.33,0.66,0.49,1.32,0.49,1.96c0,0.71-0.21,1.41-0.63,1.98
							c-0.43,0.59-1.06,1.01-1.74,1.27c-0.35,0.13-0.71,0.21-1.08,0.27c-0.3,0.05-0.6,0.07-0.9,0.07H2.1
							C2.1,134.1,2.1,136.01,2.1,136.22z"/>
					</g>
				</g>
			</g>
		</g>
	</g>
</g>
<g id="Capa_2">
	<g>
		<g>
			<g>
				<path d="M309.39,150.36c-4.05-3.47-15.09-3.02-16.65,9.07c-1.57,12.09,9.12,15.33,2.71,22.09s9.26,2.63,14.24-5.87
					C315.37,165.93,315.37,155.48,309.39,150.36z"/>
				<path class="st5" d="M281.71,106.65c0,0,16.7,3.97,23.24,12.96c6.54,8.99,0.24,31.26,0.24,31.26"/>
			</g>
			<g>
				<g>
					<path d="M143.55,98.38c0,0,0.03-4.18-5.36-10.14c-5.38-5.96-12.98-3.91-12.98-3.91s1.7,5.48,7.55,12.56
						c5.85,7.08,9.2,6.12,9.2,6.12L143.55,98.38z"/>
				</g>
				<path class="st6" d="M139.91,99.35c0,0,5.4,18.66,11.75,26.43s21.94,14.79,21.94,14.79"/>
			</g>
			<g>
				<g>
					<path d="M210.64,244.39c0,0-3.26-2.63-11.27-2.13s-11.14,7.72-11.14,7.72s5.34,2.09,14.52,1.92s10.52-3.38,10.52-3.38
						L210.64,244.39z"/>
				</g>
				<path class="st6" d="M210.14,196.03c0,0-5.14,17.9-5.14,27.94c0,10.04,5.14,25.3,5.14,25.3"/>
			</g>
			<g>
				<g>
					<path d="M254.11,245.71c0,0-3.26-2.63-11.27-2.13s-11.14,7.72-11.14,7.72s5.34,2.09,14.52,1.92
						c9.18-0.17,10.52-3.38,10.52-3.38L254.11,245.71z"/>
				</g>
				<path class="st6" d="M253.61,197.35c0,0-4.17,18.22-4.17,28.26c0,10.04,4.17,24.98,4.17,24.98"/>
			</g>
			<g>
				<path class="st7" d="M256.04,216.9l-82.3-18.56c-10.05-2.16-16.44-12.06-14.28-22.1l25.79-103.62
					c2.16-10.05,12.06-16.44,22.1-14.28l82.3,18.56c10.05,2.16,16.44,12.06,14.28,22.1l-25.79,103.62
					C275.98,212.66,266.09,219.06,256.04,216.9z"/>
				<g>
					<g>
						<path class="st8" d="M254.61,192.68c0.41,12.66-9.52,23.26-22.18,23.67s-23.26-9.52-23.67-22.18"/>
						<path d="M254.61,192.68c0.85,6-1.15,12.49-5.33,17.22c-2.06,2.4-4.67,4.32-7.54,5.7c-2.88,1.36-6.06,2.1-9.25,2.24
							c-3.19,0.08-6.41-0.46-9.38-1.63c-2.95-1.2-5.69-2.94-7.9-5.2c-4.49-4.45-6.9-10.81-6.44-16.84
							c0.81,5.99,3.72,11.4,8.04,15.14c4.31,3.73,9.96,5.76,15.58,5.54c5.63-0.14,11.12-2.53,15.19-6.54
							C251.65,204.3,254.19,198.71,254.61,192.68z"/>
					</g>
					<g>
						<path class="st8" d="M224.46,210.58l-1.98,5.36c-0.59,1.6-2.39,2.42-4.02,1.81l-0.1-0.04c-1.62-0.6-2.46-2.39-1.87-3.99
							l1.98-5.36"/>
						<path d="M224.46,210.58c-0.23,1.81-0.64,3.55-1.12,5.27c-0.09,0.38-0.29,1.02-0.64,1.45c-0.34,0.46-0.78,0.85-1.28,1.14
							c-1,0.58-2.31,0.64-3.36,0.23c-1.07-0.37-2.02-1.27-2.4-2.36c-0.2-0.54-0.28-1.13-0.23-1.7c0.02-0.55,0.28-1.18,0.46-1.52
							c0.75-1.62,1.58-3.21,2.58-4.73c-0.23,1.81-0.64,3.55-1.12,5.27c-0.14,0.48-0.18,0.71-0.18,1.05c0.01,0.32,0.09,0.63,0.23,0.9
							c0.27,0.56,0.73,0.99,1.35,1.2c0.6,0.24,1.23,0.21,1.81-0.03c0.29-0.12,0.55-0.3,0.77-0.54c0.22-0.26,0.35-0.46,0.55-0.92
							C222.64,213.69,223.46,212.1,224.46,210.58z"/>
					</g>
					<g>
						<path class="st8" d="M233.43,211.84l-0.49,5.69c-0.15,1.7-1.66,2.96-3.39,2.82l-0.11-0.01c-1.73-0.15-3-1.65-2.86-3.35
							l0.49-5.69"/>
						<path d="M233.43,211.84c0.26,1.81,0.32,3.59,0.32,5.38c0.02,0.39-0.01,1.06-0.23,1.57c-0.2,0.54-0.52,1.03-0.93,1.44
							c-0.81,0.82-2.05,1.23-3.18,1.11c-1.13-0.07-2.28-0.69-2.94-1.64c-0.33-0.47-0.57-1.01-0.67-1.58
							c-0.12-0.54-0.04-1.21,0.04-1.59c0.3-1.76,0.67-3.51,1.23-5.24c0.26,1.81,0.33,3.59,0.32,5.38c-0.01,0.5,0.02,0.73,0.11,1.06
							c0.09,0.3,0.26,0.58,0.46,0.81c0.41,0.47,0.97,0.76,1.62,0.8c0.65,0.07,1.24-0.12,1.73-0.51c0.24-0.19,0.45-0.44,0.6-0.72
							c0.15-0.31,0.21-0.53,0.29-1.03C232.49,215.33,232.86,213.57,233.43,211.84z"/>
					</g>
					<g>
						<path class="st8" d="M242.58,210.85l0.61,5.68c0.18,1.7-1.07,3.23-2.79,3.41l-0.11,0.01c-1.72,0.18-3.27-1.04-3.45-2.74
							l-0.61-5.68"/>
						<path d="M242.58,210.85c0.6,1.72,1.01,3.47,1.34,5.22c0.09,0.38,0.19,1.04,0.08,1.59c-0.09,0.56-0.31,1.11-0.64,1.59
							c-0.64,0.96-1.78,1.6-2.91,1.7c-1.12,0.14-2.37-0.24-3.2-1.04c-0.42-0.4-0.75-0.89-0.96-1.42c-0.23-0.51-0.27-1.18-0.26-1.57
							c-0.04-1.78-0.02-3.57,0.21-5.38c0.6,1.72,1.01,3.47,1.34,5.22c0.09,0.49,0.16,0.72,0.31,1.02c0.15,0.28,0.36,0.52,0.61,0.71
							c0.5,0.38,1.1,0.56,1.74,0.48c0.65-0.05,1.19-0.36,1.6-0.83c0.2-0.24,0.36-0.52,0.45-0.82c0.09-0.33,0.11-0.56,0.09-1.07
							C242.33,214.45,242.35,212.66,242.58,210.85z"/>
					</g>
				</g>
				<g>
					<defs>
						<path id="SVGID_00000041269216001737443510000002252764834683286147_" d="M255.4,215.93l-80.68-18.21
							c-10.05-2.16-16.44-12.06-14.28-22.1l25.45-102.02c2.16-10.05,12.06-16.44,22.1-14.28l80.68,18.21
							c10.05,2.16,16.44,12.06,14.28,22.1L277.5,201.65C275.34,211.69,265.45,218.09,255.4,215.93z"/>
					</defs>
					<clipPath id="SVGID_00000033360129143090997950000014429463730467186824_">
						<use xlink:href="#SVGID_00000041269216001737443510000002252764834683286147_"  style="overflow:visible;"/>
					</clipPath>
					<g style="clip-path:url(#SVGID_00000033360129143090997950000014429463730467186824_);">
						<defs>
							<path id="SVGID_00000142154141301611321770000005690248958624055741_" d="M292.9,72.4c-12.12-8.85-27.95-8.93-39.94-1.42
								c-1.37-2.48-3.28-4.72-5.72-6.51c-8.98-6.56-21.58-4.6-28.14,4.38s-4.6,21.58,4.38,28.14c3.86,2.82,8.38,4.05,12.8,3.85
								c-0.09,11.07,4.97,22.03,14.59,29.06c15.88,11.61,38.16,8.14,49.77-7.74S308.78,84.01,292.9,72.4z"/>
						</defs>
						<clipPath id="SVGID_00000177446496722963069210000006037416788761858732_">
							<use xlink:href="#SVGID_00000142154141301611321770000005690248958624055741_"  style="overflow:visible;"/>
						</clipPath>
						<g style="clip-path:url(#SVGID_00000177446496722963069210000006037416788761858732_);">
							<g>
								<path class="st11" d="M319.55,83.74c-4.24,3.45-8.95,6.25-13.59,9.12c-4.8,2.97-9.4,6.24-14.01,9.49
									c-4.82,3.39-9.63,6.8-14.38,10.28c-4.55,3.33-8.9,7.03-13.8,9.83c-2.49,1.42-5.11,2.52-7.67,3.8
									c-2.68,1.33-5.34,2.84-8.33,3.29c-0.95,0.14-0.55,1.59,0.4,1.45c2.55-0.39,4.9-1.54,7.18-2.69
									c2.34-1.18,4.75-2.21,7.08-3.41c5.05-2.61,9.4-6.18,13.96-9.54c4.87-3.6,9.8-7.11,14.75-10.6
									c4.71-3.32,9.39-6.72,14.28-9.78c5.17-3.24,10.47-6.31,15.21-10.17C321.36,84.19,320.3,83.13,319.55,83.74L319.55,83.74z"/>
							</g>
						</g>
						<g style="clip-path:url(#SVGID_00000177446496722963069210000006037416788761858732_);">
							<g>
								<path class="st11" d="M323.92,85.77c-4.24,3.45-8.95,6.25-13.59,9.12c-4.8,2.97-9.4,6.24-14.01,9.49
									c-4.82,3.39-9.63,6.8-14.38,10.28c-4.55,3.33-8.9,7.03-13.8,9.83c-2.49,1.42-5.11,2.52-7.67,3.8
									c-2.68,1.33-5.34,2.84-8.33,3.29c-0.95,0.14-0.55,1.59,0.4,1.45c2.55-0.39,4.9-1.54,7.18-2.69
									c2.34-1.18,4.75-2.21,7.08-3.41c5.05-2.61,9.4-6.18,13.96-9.54c4.87-3.6,9.8-7.11,14.75-10.6
									c4.71-3.32,9.39-6.72,14.28-9.78c5.17-3.24,10.47-6.31,15.21-10.17C325.73,86.22,324.67,85.16,323.92,85.77L323.92,85.77z"
									/>
							</g>
						</g>
						<g style="clip-path:url(#SVGID_00000177446496722963069210000006037416788761858732_);">
							<g>
								<path class="st11" d="M328.29,87.79c-4.24,3.45-8.95,6.25-13.59,9.12c-4.8,2.97-9.4,6.24-14.01,9.49
									c-4.82,3.39-9.63,6.8-14.38,10.28c-4.55,3.33-8.9,7.03-13.8,9.83c-2.49,1.42-5.11,2.52-7.67,3.8
									c-2.68,1.33-5.34,2.84-8.33,3.29c-0.95,0.14-0.55,1.59,0.4,1.45c2.55-0.39,4.9-1.54,7.18-2.69
									c2.34-1.18,4.75-2.21,7.08-3.41c5.05-2.61,9.4-6.18,13.96-9.54c4.87-3.6,9.8-7.11,14.75-10.6
									c4.71-3.32,9.39-6.72,14.28-9.78c5.17-3.24,10.47-6.31,15.21-10.17C330.1,88.24,329.03,87.19,328.29,87.79L328.29,87.79z"/>
							</g>
						</g>
						<g style="clip-path:url(#SVGID_00000177446496722963069210000006037416788761858732_);">
							<g>
								<path class="st11" d="M332.66,89.82c-4.24,3.45-8.95,6.25-13.59,9.12c-4.8,2.97-9.4,6.24-14.01,9.49
									c-4.82,3.39-9.63,6.8-14.38,10.28c-4.55,3.33-8.9,7.03-13.8,9.83c-2.49,1.42-5.11,2.52-7.67,3.8
									c-2.68,1.33-5.34,2.84-8.33,3.29c-0.95,0.14-0.55,1.59,0.4,1.45c2.55-0.39,4.9-1.54,7.18-2.69
									c2.34-1.18,4.75-2.21,7.08-3.41c5.05-2.61,9.4-6.18,13.96-9.54c4.87-3.6,9.8-7.11,14.75-10.6
									c4.71-3.32,9.39-6.72,14.28-9.78c5.17-3.24,10.47-6.31,15.21-10.17C334.47,90.27,333.4,89.22,332.66,89.82L332.66,89.82z"/>
							</g>
						</g>
						<g style="clip-path:url(#SVGID_00000177446496722963069210000006037416788761858732_);">
							<g>
								<path class="st11" d="M337.03,91.85c-4.24,3.45-8.95,6.25-13.59,9.12c-4.8,2.97-9.4,6.24-14.01,9.49
									c-4.82,3.39-9.63,6.8-14.38,10.28c-4.55,3.33-8.9,7.03-13.8,9.83c-2.49,1.42-5.11,2.52-7.67,3.8
									c-2.68,1.33-5.34,2.84-8.33,3.29c-0.95,0.14-0.55,1.59,0.4,1.45c2.55-0.39,4.9-1.54,7.18-2.69
									c2.34-1.18,4.75-2.21,7.08-3.41c5.05-2.61,9.4-6.18,13.96-9.54c4.87-3.6,9.8-7.11,14.75-10.6
									c4.71-3.32,9.39-6.72,14.28-9.78c5.17-3.24,10.47-6.31,15.21-10.17C338.84,92.3,337.77,91.25,337.03,91.85L337.03,91.85z"/>
							</g>
						</g>
						<g style="clip-path:url(#SVGID_00000177446496722963069210000006037416788761858732_);">
							<g>
								<path class="st11" d="M341.4,93.88c-4.24,3.45-8.95,6.25-13.59,9.12c-4.8,2.97-9.4,6.24-14.01,9.49
									c-4.82,3.39-9.63,6.8-14.38,10.28c-4.55,3.33-8.9,7.03-13.8,9.83c-2.49,1.42-5.11,2.52-7.67,3.8
									c-2.68,1.33-5.34,2.84-8.33,3.29c-0.95,0.14-0.55,1.59,0.4,1.45c2.55-0.39,4.9-1.54,7.18-2.69
									c2.34-1.18,4.75-2.21,7.08-3.41c5.05-2.61,9.4-6.18,13.96-9.54c4.87-3.6,9.8-7.11,14.75-10.6
									c4.71-3.32,9.39-6.72,14.28-9.78c5.17-3.24,10.47-6.31,15.21-10.17C343.21,94.33,342.14,93.28,341.4,93.88L341.4,93.88z"/>
							</g>
						</g>
						<g style="clip-path:url(#SVGID_00000177446496722963069210000006037416788761858732_);">
							<g>
								<path class="st11" d="M306.45,77.65c-4.24,3.45-8.95,6.25-13.59,9.12c-4.8,2.97-9.4,6.24-14.01,9.49
									c-4.82,3.39-9.63,6.8-14.38,10.28c-4.55,3.33-8.9,7.03-13.8,9.83c-2.49,1.42-5.11,2.52-7.67,3.8
									c-2.68,1.33-5.34,2.84-8.33,3.29c-0.95,0.14-0.55,1.59,0.4,1.45c2.55-0.39,4.9-1.54,7.18-2.69
									c2.34-1.18,4.75-2.21,7.08-3.41c5.05-2.61,9.4-6.18,13.96-9.54c4.87-3.6,9.8-7.11,14.75-10.6
									c4.71-3.32,9.39-6.72,14.28-9.78c5.17-3.24,10.47-6.31,15.21-10.17C308.26,78.1,307.19,77.04,306.45,77.65L306.45,77.65z"/>
							</g>
						</g>
						<g style="clip-path:url(#SVGID_00000177446496722963069210000006037416788761858732_);">
							<g>
								<path class="st11" d="M310.82,79.68c-4.24,3.45-8.95,6.25-13.59,9.12c-4.8,2.97-9.4,6.24-14.01,9.49
									c-4.82,3.39-9.63,6.8-14.38,10.28c-4.55,3.33-8.9,7.03-13.8,9.83c-2.49,1.42-5.11,2.52-7.67,3.8
									c-2.68,1.33-5.34,2.84-8.33,3.29c-0.95,0.14-0.55,1.59,0.4,1.45c2.55-0.39,4.9-1.54,7.18-2.69
									c2.34-1.18,4.75-2.21,7.08-3.41c5.05-2.61,9.4-6.18,13.96-9.54c4.87-3.6,9.8-7.11,14.75-10.6
									c4.71-3.32,9.39-6.72,14.28-9.78c5.17-3.24,10.47-6.31,15.21-10.17C312.62,80.13,311.56,79.07,310.82,79.68L310.82,79.68z"
									/>
							</g>
						</g>
						<g style="clip-path:url(#SVGID_00000177446496722963069210000006037416788761858732_);">
							<g>
								<path class="st11" d="M315.18,81.71c-4.24,3.45-8.95,6.25-13.59,9.12c-4.8,2.97-9.4,6.24-14.01,9.49
									c-4.82,3.39-9.63,6.8-14.38,10.28c-4.55,3.33-8.9,7.03-13.8,9.83c-2.49,1.42-5.11,2.52-7.67,3.8
									c-2.68,1.33-5.34,2.84-8.33,3.29c-0.95,0.14-0.55,1.59,0.4,1.45c2.55-0.39,4.9-1.54,7.18-2.69
									c2.34-1.18,4.75-2.21,7.08-3.41c5.05-2.61,9.4-6.18,13.96-9.54c4.87-3.6,9.8-7.11,14.75-10.6
									c4.71-3.32,9.39-6.72,14.28-9.78c5.17-3.24,10.47-6.31,15.21-10.17C316.99,82.16,315.93,81.1,315.18,81.71L315.18,81.71z"/>
							</g>
						</g>
						<g style="clip-path:url(#SVGID_00000177446496722963069210000006037416788761858732_);">
							<g>
								<path class="st11" d="M293.34,71.56c-4.24,3.45-8.95,6.25-13.59,9.12c-4.8,2.97-9.4,6.24-14.01,9.49
									c-4.82,3.39-9.63,6.8-14.38,10.28c-4.55,3.33-8.9,7.03-13.8,9.83c-2.49,1.42-5.11,2.52-7.67,3.8
									c-2.68,1.33-5.34,2.84-8.33,3.29c-0.95,0.14-0.55,1.59,0.4,1.45c2.55-0.39,4.9-1.54,7.18-2.69
									c2.34-1.18,4.75-2.21,7.08-3.41c5.05-2.61,9.4-6.18,13.96-9.54c4.87-3.6,9.8-7.11,14.75-10.6
									c4.71-3.32,9.39-6.72,14.28-9.78c5.17-3.24,10.47-6.31,15.21-10.17C295.15,72.01,294.08,70.95,293.34,71.56L293.34,71.56z"
									/>
							</g>
						</g>
						<g style="clip-path:url(#SVGID_00000177446496722963069210000006037416788761858732_);">
							<g>
								<path class="st11" d="M297.71,73.59c-4.24,3.45-8.95,6.25-13.59,9.12c-4.8,2.97-9.4,6.24-14.01,9.49
									c-4.82,3.39-9.63,6.8-14.38,10.28c-4.55,3.33-8.9,7.03-13.8,9.83c-2.49,1.42-5.11,2.52-7.67,3.8
									c-2.68,1.33-5.34,2.84-8.33,3.29c-0.95,0.14-0.55,1.59,0.4,1.45c2.55-0.39,4.9-1.54,7.18-2.69
									c2.34-1.18,4.75-2.21,7.08-3.41c5.05-2.61,9.4-6.18,13.96-9.54c4.87-3.6,9.8-7.11,14.75-10.6
									c4.71-3.32,9.39-6.72,14.28-9.78c5.17-3.24,10.47-6.31,15.21-10.17C299.52,74.04,298.45,72.98,297.71,73.59L297.71,73.59z"
									/>
							</g>
						</g>
						<g style="clip-path:url(#SVGID_00000177446496722963069210000006037416788761858732_);">
							<g>
								<path class="st11" d="M302.08,75.62c-4.24,3.45-8.95,6.25-13.59,9.12c-4.8,2.97-9.4,6.24-14.01,9.49
									c-4.82,3.39-9.63,6.8-14.38,10.28c-4.55,3.33-8.9,7.03-13.8,9.83c-2.49,1.42-5.11,2.52-7.67,3.8
									c-2.68,1.33-5.34,2.84-8.33,3.29c-0.95,0.14-0.55,1.59,0.4,1.45c2.55-0.39,4.9-1.54,7.18-2.69
									c2.34-1.18,4.75-2.21,7.08-3.41c5.05-2.61,9.4-6.18,13.96-9.54c4.87-3.6,9.8-7.11,14.75-10.6
									c4.71-3.32,9.39-6.72,14.28-9.78c5.17-3.24,10.47-6.31,15.21-10.17C303.89,76.07,302.82,75.01,302.08,75.62L302.08,75.62z"
									/>
							</g>
						</g>
						<g style="clip-path:url(#SVGID_00000177446496722963069210000006037416788761858732_);">
							<g>
								<path class="st11" d="M280.23,65.47c-4.24,3.45-8.95,6.25-13.59,9.12c-4.8,2.97-9.4,6.24-14.01,9.49
									c-4.82,3.39-9.63,6.8-14.38,10.28c-4.55,3.33-8.9,7.03-13.8,9.83c-2.49,1.42-5.11,2.52-7.67,3.8
									c-2.68,1.33-5.34,2.84-8.33,3.29c-0.95,0.14-0.55,1.59,0.4,1.45c2.55-0.39,4.9-1.54,7.18-2.69
									c2.34-1.18,4.75-2.21,7.08-3.41c5.05-2.61,9.4-6.18,13.96-9.54c4.87-3.6,9.8-7.11,14.75-10.6
									c4.71-3.32,9.39-6.72,14.28-9.78c5.17-3.24,10.47-6.31,15.21-10.17C282.04,65.92,280.97,64.87,280.23,65.47L280.23,65.47z"
									/>
							</g>
						</g>
						<g style="clip-path:url(#SVGID_00000177446496722963069210000006037416788761858732_);">
							<g>
								<path class="st11" d="M284.6,67.5c-4.24,3.45-8.95,6.25-13.59,9.12c-4.8,2.97-9.4,6.24-14.01,9.49
									c-4.82,3.39-9.63,6.8-14.38,10.28c-4.55,3.33-8.9,7.03-13.8,9.83c-2.49,1.42-5.11,2.52-7.67,3.8
									c-2.68,1.33-5.34,2.84-8.33,3.29c-0.95,0.14-0.55,1.59,0.4,1.45c2.55-0.39,4.9-1.54,7.18-2.69
									c2.34-1.18,4.75-2.21,7.08-3.41c5.05-2.61,9.4-6.18,13.96-9.54c4.87-3.6,9.8-7.11,14.75-10.6
									c4.71-3.32,9.39-6.72,14.28-9.78c5.17-3.24,10.47-6.31,15.21-10.17C286.41,67.95,285.34,66.9,284.6,67.5L284.6,67.5z"/>
							</g>
						</g>
						<g style="clip-path:url(#SVGID_00000177446496722963069210000006037416788761858732_);">
							<g>
								<path class="st11" d="M288.97,69.53c-4.24,3.45-8.95,6.25-13.59,9.12c-4.8,2.97-9.4,6.24-14.01,9.49
									c-4.82,3.39-9.63,6.8-14.38,10.28c-4.55,3.33-8.9,7.03-13.8,9.83c-2.49,1.42-5.11,2.52-7.67,3.8
									c-2.68,1.33-5.34,2.84-8.33,3.29c-0.95,0.14-0.55,1.59,0.4,1.45c2.55-0.39,4.9-1.54,7.18-2.69
									c2.34-1.18,4.75-2.21,7.08-3.41c5.05-2.61,9.4-6.18,13.96-9.54c4.87-3.6,9.8-7.11,14.75-10.6
									c4.71-3.32,9.39-6.72,14.28-9.78c5.17-3.24,10.47-6.31,15.21-10.17C290.78,69.98,289.71,68.93,288.97,69.53L288.97,69.53z"
									/>
							</g>
						</g>
						<g style="clip-path:url(#SVGID_00000177446496722963069210000006037416788761858732_);">
							<g>
								<path class="st11" d="M267.12,59.38c-4.24,3.45-8.95,6.25-13.59,9.12c-4.8,2.97-9.4,6.24-14.01,9.49
									c-4.82,3.39-9.63,6.8-14.38,10.28c-4.55,3.33-8.9,7.03-13.8,9.83c-2.49,1.42-5.11,2.52-7.67,3.8
									c-2.68,1.33-5.34,2.84-8.33,3.29c-0.95,0.14-0.55,1.59,0.4,1.45c2.55-0.39,4.9-1.54,7.18-2.69
									c2.34-1.18,4.75-2.21,7.08-3.41c5.05-2.61,9.4-6.18,13.96-9.54c4.87-3.6,9.8-7.11,14.75-10.6
									c4.71-3.32,9.39-6.72,14.28-9.78c5.17-3.24,10.47-6.31,15.21-10.17C268.93,59.83,267.87,58.78,267.12,59.38L267.12,59.38z"
									/>
							</g>
						</g>
						<g style="clip-path:url(#SVGID_00000177446496722963069210000006037416788761858732_);">
							<g>
								<path class="st11" d="M271.49,61.41c-4.24,3.45-8.95,6.25-13.59,9.12c-4.8,2.97-9.4,6.24-14.01,9.49
									c-4.82,3.39-9.63,6.8-14.38,10.28c-4.55,3.33-8.9,7.03-13.8,9.83c-2.49,1.42-5.11,2.52-7.67,3.8
									c-2.68,1.33-5.34,2.84-8.33,3.29c-0.95,0.14-0.55,1.59,0.4,1.45c2.55-0.39,4.9-1.54,7.18-2.69
									c2.34-1.18,4.75-2.21,7.08-3.41c5.05-2.61,9.4-6.18,13.96-9.54c4.87-3.6,9.8-7.11,14.75-10.6
									c4.71-3.32,9.39-6.72,14.28-9.78c5.17-3.24,10.47-6.31,15.21-10.17C273.3,61.86,272.24,60.81,271.49,61.41L271.49,61.41z"/>
							</g>
						</g>
						<g style="clip-path:url(#SVGID_00000177446496722963069210000006037416788761858732_);">
							<g>
								<path class="st11" d="M275.86,63.44c-4.24,3.45-8.95,6.25-13.59,9.12c-4.8,2.97-9.4,6.24-14.01,9.49
									c-4.82,3.39-9.63,6.8-14.38,10.28c-4.55,3.33-8.9,7.03-13.8,9.83c-2.49,1.42-5.11,2.52-7.67,3.8
									c-2.68,1.33-5.34,2.84-8.33,3.29c-0.95,0.14-0.55,1.59,0.4,1.45c2.55-0.39,4.9-1.54,7.18-2.69
									c2.34-1.18,4.75-2.21,7.08-3.41c5.05-2.61,9.4-6.18,13.96-9.54c4.87-3.6,9.8-7.11,14.75-10.6
									c4.71-3.32,9.39-6.72,14.28-9.78c5.17-3.24,10.47-6.31,15.21-10.17C277.67,63.89,276.6,62.84,275.86,63.44L275.86,63.44z"/>
							</g>
						</g>
						<g style="clip-path:url(#SVGID_00000177446496722963069210000006037416788761858732_);">
							<g>
								<path class="st11" d="M254.02,53.3c-4.24,3.45-8.95,6.25-13.59,9.12c-4.8,2.97-9.4,6.24-14.01,9.49
									c-4.82,3.39-9.63,6.8-14.38,10.28c-4.55,3.33-8.9,7.03-13.8,9.83c-2.49,1.42-5.11,2.52-7.67,3.8
									c-2.68,1.33-5.34,2.84-8.33,3.29c-0.95,0.14-0.55,1.59,0.4,1.45c2.55-0.39,4.9-1.54,7.18-2.69
									c2.34-1.18,4.75-2.21,7.08-3.41c5.05-2.61,9.4-6.18,13.96-9.54c4.87-3.6,9.8-7.11,14.75-10.6
									c4.71-3.32,9.39-6.72,14.28-9.78c5.17-3.24,10.47-6.31,15.21-10.17C255.83,53.75,254.76,52.69,254.02,53.3L254.02,53.3z"/>
							</g>
						</g>
						<g style="clip-path:url(#SVGID_00000177446496722963069210000006037416788761858732_);">
							<g>
								<path class="st11" d="M249.65,51.27c-4.24,3.45-8.95,6.25-13.59,9.12c-4.8,2.97-9.4,6.24-14.01,9.49
									c-4.82,3.39-9.63,6.8-14.38,10.28c-4.55,3.33-8.9,7.03-13.8,9.83c-2.49,1.42-5.11,2.52-7.67,3.8
									c-2.68,1.33-5.34,2.84-8.33,3.29c-0.95,0.14-0.55,1.59,0.4,1.45c2.55-0.39,4.9-1.54,7.18-2.69
									c2.34-1.18,4.75-2.21,7.08-3.41c5.05-2.61,9.4-6.18,13.96-9.54c4.87-3.6,9.8-7.11,14.75-10.6
									c4.71-3.32,9.39-6.72,14.28-9.78c5.17-3.24,10.47-6.31,15.21-10.17C251.46,51.72,250.39,50.66,249.65,51.27L249.65,51.27z"
									/>
							</g>
						</g>
						<g style="clip-path:url(#SVGID_00000177446496722963069210000006037416788761858732_);">
							<g>
								<path class="st11" d="M245.28,49.24c-4.24,3.45-8.95,6.25-13.59,9.12c-4.8,2.97-9.4,6.24-14.01,9.49
									c-4.82,3.39-9.63,6.8-14.38,10.28c-4.55,3.33-8.9,7.03-13.8,9.83c-2.49,1.42-5.11,2.52-7.67,3.8
									c-2.68,1.33-5.34,2.84-8.33,3.29c-0.95,0.14-0.55,1.59,0.4,1.45c2.55-0.39,4.9-1.54,7.18-2.69
									c2.34-1.18,4.75-2.21,7.08-3.41c5.05-2.61,9.4-6.18,13.96-9.54c4.87-3.6,9.8-7.11,14.75-10.6
									c4.71-3.32,9.39-6.72,14.28-9.78c5.17-3.24,10.47-6.31,15.21-10.17C247.09,49.69,246.02,48.63,245.28,49.24L245.28,49.24z"
									/>
							</g>
						</g>
						<g style="clip-path:url(#SVGID_00000177446496722963069210000006037416788761858732_);">
							<g>
								<path class="st11" d="M258.39,55.33c-4.24,3.45-8.95,6.25-13.59,9.12c-4.8,2.97-9.4,6.24-14.01,9.49
									c-4.82,3.39-9.63,6.8-14.38,10.28c-4.55,3.33-8.9,7.03-13.8,9.83c-2.49,1.42-5.11,2.52-7.67,3.8
									c-2.68,1.33-5.34,2.84-8.33,3.29c-0.95,0.14-0.55,1.59,0.4,1.45c2.55-0.39,4.9-1.54,7.18-2.69
									c2.34-1.18,4.75-2.21,7.08-3.41c5.05-2.61,9.4-6.18,13.96-9.54c4.87-3.6,9.8-7.11,14.75-10.6
									c4.71-3.32,9.39-6.72,14.28-9.78c5.17-3.24,10.47-6.31,15.21-10.17C260.19,55.78,259.13,54.72,258.39,55.33L258.39,55.33z"
									/>
							</g>
						</g>
						<g style="clip-path:url(#SVGID_00000177446496722963069210000006037416788761858732_);">
							<g>
								<path class="st11" d="M262.75,57.35c-4.24,3.45-8.95,6.25-13.59,9.12c-4.8,2.97-9.4,6.24-14.01,9.49
									c-4.82,3.39-9.63,6.8-14.38,10.28c-4.55,3.33-8.9,7.03-13.8,9.83c-2.49,1.42-5.11,2.52-7.67,3.8
									c-2.68,1.33-5.34,2.84-8.33,3.29c-0.95,0.14-0.55,1.59,0.4,1.45c2.55-0.39,4.9-1.54,7.18-2.69
									c2.34-1.18,4.75-2.21,7.08-3.41c5.05-2.61,9.4-6.18,13.96-9.54c4.87-3.6,9.8-7.11,14.75-10.6
									c4.71-3.32,9.39-6.72,14.28-9.78c5.17-3.24,10.47-6.31,15.21-10.17C264.56,57.8,263.5,56.75,262.75,57.35L262.75,57.35z"/>
							</g>
						</g>
					</g>
				</g>
				<g>
					<g>
						<defs>
							
								<ellipse id="SVGID_00000128461486652662810800000014699068539903109024_" transform="matrix(0.999 -0.0453 0.0453 0.999 -5.7305 9.9106)" cx="215.63" cy="131.29" rx="23.33" ry="18.19"/>
						</defs>
						<clipPath id="SVGID_00000029730331946575257730000011950326352345548176_">
							<use xlink:href="#SVGID_00000128461486652662810800000014699068539903109024_"  style="overflow:visible;"/>
						</clipPath>
						<g style="clip-path:url(#SVGID_00000029730331946575257730000011950326352345548176_);">
							<g>
								<path class="st11" d="M280.78,121.52c-4.24,3.45-8.95,6.25-13.59,9.12c-4.8,2.97-9.4,6.24-14.01,9.49
									c-4.82,3.39-9.63,6.8-14.38,10.28c-4.55,3.33-8.9,7.03-13.8,9.83c-2.49,1.42-5.11,2.52-7.67,3.8
									c-2.68,1.33-5.34,2.84-8.33,3.29c-0.95,0.14-0.55,1.59,0.4,1.45c2.55-0.39,4.9-1.54,7.18-2.69
									c2.34-1.18,4.75-2.21,7.08-3.41c5.05-2.61,9.4-6.18,13.96-9.54c4.87-3.6,9.8-7.11,14.75-10.6
									c4.71-3.32,9.39-6.72,14.28-9.78c5.17-3.24,10.47-6.31,15.21-10.17C282.59,121.97,281.52,120.91,280.78,121.52
									L280.78,121.52z"/>
							</g>
						</g>
						<g style="clip-path:url(#SVGID_00000029730331946575257730000011950326352345548176_);">
							<g>
								<path class="st11" d="M285.15,123.55c-4.24,3.45-8.95,6.25-13.59,9.12c-4.8,2.97-9.4,6.24-14.01,9.49
									c-4.82,3.39-9.63,6.8-14.38,10.28c-4.55,3.33-8.9,7.03-13.8,9.83c-2.49,1.42-5.11,2.52-7.67,3.8
									c-2.68,1.33-5.34,2.84-8.33,3.29c-0.95,0.14-0.55,1.59,0.4,1.45c2.55-0.39,4.9-1.54,7.18-2.69
									c2.34-1.18,4.75-2.21,7.08-3.41c5.05-2.61,9.4-6.18,13.96-9.54c4.87-3.6,9.8-7.11,14.75-10.6
									c4.71-3.32,9.39-6.72,14.28-9.78c5.17-3.24,10.47-6.31,15.21-10.17C286.96,124,285.89,122.94,285.15,123.55L285.15,123.55z"
									/>
							</g>
						</g>
						<g style="clip-path:url(#SVGID_00000029730331946575257730000011950326352345548176_);">
							<g>
								<path class="st11" d="M289.52,125.58c-4.24,3.45-8.95,6.25-13.59,9.12c-4.8,2.97-9.4,6.24-14.01,9.49
									c-4.82,3.39-9.63,6.8-14.38,10.28c-4.55,3.33-8.9,7.03-13.8,9.83c-2.49,1.42-5.11,2.52-7.67,3.8
									c-2.68,1.33-5.34,2.84-8.33,3.29c-0.95,0.14-0.55,1.59,0.4,1.45c2.55-0.39,4.9-1.54,7.18-2.69
									c2.34-1.18,4.75-2.21,7.08-3.41c5.05-2.61,9.4-6.18,13.96-9.54c4.87-3.6,9.8-7.11,14.75-10.6
									c4.71-3.32,9.39-6.72,14.28-9.78c5.17-3.24,10.47-6.31,15.21-10.17C291.33,126.03,290.26,124.97,289.52,125.58
									L289.52,125.58z"/>
							</g>
						</g>
						<g style="clip-path:url(#SVGID_00000029730331946575257730000011950326352345548176_);">
							<g>
								<path class="st11" d="M293.89,127.61c-4.24,3.45-8.95,6.25-13.59,9.12c-4.8,2.97-9.4,6.24-14.01,9.49
									c-4.82,3.39-9.63,6.8-14.38,10.28c-4.55,3.33-8.9,7.03-13.8,9.83c-2.49,1.42-5.11,2.52-7.67,3.8
									c-2.68,1.33-5.34,2.84-8.33,3.29c-0.95,0.14-0.55,1.59,0.4,1.45c2.55-0.39,4.9-1.54,7.18-2.69
									c2.34-1.18,4.75-2.21,7.08-3.41c5.05-2.61,9.4-6.18,13.96-9.54c4.87-3.6,9.8-7.11,14.75-10.6
									c4.71-3.32,9.39-6.72,14.28-9.78c5.17-3.24,10.47-6.31,15.21-10.17C295.7,128.06,294.63,127,293.89,127.61L293.89,127.61z"
									/>
							</g>
						</g>
						<g style="clip-path:url(#SVGID_00000029730331946575257730000011950326352345548176_);">
							<g>
								<path class="st11" d="M298.26,129.64c-4.24,3.45-8.95,6.25-13.59,9.12c-4.8,2.97-9.4,6.24-14.01,9.49
									c-4.82,3.39-9.63,6.8-14.38,10.28c-4.55,3.33-8.9,7.03-13.8,9.83c-2.49,1.42-5.11,2.52-7.67,3.8
									c-2.68,1.33-5.34,2.84-8.33,3.29c-0.95,0.14-0.55,1.59,0.4,1.45c2.55-0.39,4.9-1.54,7.18-2.69
									c2.34-1.18,4.75-2.21,7.08-3.41c5.05-2.61,9.4-6.18,13.96-9.54c4.87-3.6,9.8-7.11,14.75-10.6
									c4.71-3.32,9.39-6.72,14.28-9.78c5.17-3.24,10.47-6.31,15.21-10.17C300.07,130.09,299,129.03,298.26,129.64L298.26,129.64z"
									/>
							</g>
						</g>
						<g style="clip-path:url(#SVGID_00000029730331946575257730000011950326352345548176_);">
							<g>
								<path class="st11" d="M302.63,131.67c-4.24,3.45-8.95,6.25-13.59,9.12c-4.8,2.97-9.4,6.24-14.01,9.49
									c-4.82,3.39-9.63,6.8-14.38,10.28c-4.55,3.33-8.9,7.03-13.8,9.83c-2.49,1.42-5.11,2.52-7.67,3.8
									c-2.68,1.33-5.34,2.84-8.33,3.29c-0.95,0.14-0.55,1.59,0.4,1.45c2.55-0.39,4.9-1.54,7.18-2.69
									c2.34-1.18,4.75-2.21,7.08-3.41c5.05-2.61,9.4-6.18,13.96-9.54c4.87-3.6,9.8-7.11,14.75-10.6
									c4.71-3.32,9.39-6.72,14.28-9.78c5.17-3.24,10.47-6.31,15.21-10.17C304.44,132.12,303.37,131.06,302.63,131.67
									L302.63,131.67z"/>
							</g>
						</g>
						<g style="clip-path:url(#SVGID_00000029730331946575257730000011950326352345548176_);">
							<g>
								<path class="st11" d="M267.67,115.43c-4.24,3.45-8.95,6.25-13.59,9.12c-4.8,2.97-9.4,6.24-14.01,9.49
									c-4.82,3.39-9.63,6.8-14.38,10.28c-4.55,3.33-8.9,7.03-13.8,9.83c-2.49,1.42-5.11,2.52-7.67,3.8
									c-2.68,1.33-5.34,2.84-8.33,3.29c-0.95,0.14-0.55,1.59,0.4,1.45c2.55-0.39,4.9-1.54,7.18-2.69
									c2.34-1.18,4.75-2.21,7.08-3.41c5.05-2.61,9.4-6.18,13.96-9.54c4.87-3.6,9.8-7.11,14.75-10.6
									c4.71-3.32,9.39-6.72,14.28-9.78c5.17-3.24,10.47-6.31,15.21-10.17C269.48,115.88,268.42,114.83,267.67,115.43
									L267.67,115.43z"/>
							</g>
						</g>
						<g style="clip-path:url(#SVGID_00000029730331946575257730000011950326352345548176_);">
							<g>
								<path class="st11" d="M272.04,117.46c-4.24,3.45-8.95,6.25-13.59,9.12c-4.8,2.97-9.4,6.24-14.01,9.49
									c-4.82,3.39-9.63,6.8-14.38,10.28c-4.55,3.33-8.9,7.03-13.8,9.83c-2.49,1.42-5.11,2.52-7.67,3.8
									c-2.68,1.33-5.34,2.84-8.33,3.29c-0.95,0.14-0.55,1.59,0.4,1.45c2.55-0.39,4.9-1.54,7.18-2.69
									c2.34-1.18,4.75-2.21,7.08-3.41c5.05-2.61,9.4-6.18,13.96-9.54c4.87-3.6,9.8-7.11,14.75-10.6
									c4.71-3.32,9.39-6.72,14.28-9.78c5.17-3.24,10.47-6.31,15.21-10.17C273.85,117.91,272.79,116.86,272.04,117.46
									L272.04,117.46z"/>
							</g>
						</g>
						<g style="clip-path:url(#SVGID_00000029730331946575257730000011950326352345548176_);">
							<g>
								<path class="st11" d="M276.41,119.49c-4.24,3.45-8.95,6.25-13.59,9.12c-4.8,2.97-9.4,6.24-14.01,9.49
									c-4.82,3.39-9.63,6.8-14.38,10.28c-4.55,3.33-8.9,7.03-13.8,9.83c-2.49,1.42-5.11,2.52-7.67,3.8
									c-2.68,1.33-5.34,2.84-8.33,3.29c-0.95,0.14-0.55,1.59,0.4,1.45c2.55-0.39,4.9-1.54,7.18-2.69
									c2.34-1.18,4.75-2.21,7.08-3.41c5.05-2.61,9.4-6.18,13.96-9.54c4.87-3.6,9.8-7.11,14.75-10.6
									c4.71-3.32,9.39-6.72,14.28-9.78c5.17-3.24,10.47-6.31,15.21-10.17C278.22,119.94,277.15,118.89,276.41,119.49
									L276.41,119.49z"/>
							</g>
						</g>
						<g style="clip-path:url(#SVGID_00000029730331946575257730000011950326352345548176_);">
							<g>
								<path class="st11" d="M254.57,109.34c-4.24,3.45-8.95,6.25-13.59,9.12c-4.8,2.97-9.4,6.24-14.01,9.49
									c-4.82,3.39-9.63,6.8-14.38,10.28c-4.55,3.33-8.9,7.03-13.8,9.83c-2.49,1.42-5.11,2.52-7.67,3.8
									c-2.68,1.33-5.34,2.84-8.33,3.29c-0.95,0.14-0.55,1.59,0.4,1.45c2.55-0.39,4.9-1.54,7.18-2.69
									c2.34-1.18,4.75-2.21,7.08-3.41c5.05-2.61,9.4-6.18,13.96-9.54c4.87-3.6,9.8-7.11,14.75-10.6
									c4.71-3.32,9.39-6.72,14.28-9.78c5.17-3.24,10.47-6.31,15.21-10.17C256.38,109.79,255.31,108.74,254.57,109.34
									L254.57,109.34z"/>
							</g>
						</g>
						<g style="clip-path:url(#SVGID_00000029730331946575257730000011950326352345548176_);">
							<g>
								<path class="st11" d="M258.94,111.37c-4.24,3.45-8.95,6.25-13.59,9.12c-4.8,2.97-9.4,6.24-14.01,9.49
									c-4.82,3.39-9.63,6.8-14.38,10.28c-4.55,3.33-8.9,7.03-13.8,9.83c-2.49,1.42-5.11,2.52-7.67,3.8
									c-2.68,1.33-5.34,2.84-8.33,3.29c-0.95,0.14-0.55,1.59,0.4,1.45c2.55-0.39,4.9-1.54,7.18-2.69
									c2.34-1.18,4.75-2.21,7.08-3.41c5.05-2.61,9.4-6.18,13.96-9.54c4.87-3.6,9.8-7.11,14.75-10.6
									c4.71-3.32,9.39-6.72,14.28-9.78c5.17-3.24,10.47-6.31,15.21-10.17C260.75,111.82,259.68,110.77,258.94,111.37
									L258.94,111.37z"/>
							</g>
						</g>
						<g style="clip-path:url(#SVGID_00000029730331946575257730000011950326352345548176_);">
							<g>
								<path class="st11" d="M263.3,113.4c-4.24,3.45-8.95,6.25-13.59,9.12c-4.8,2.97-9.4,6.24-14.01,9.49
									c-4.82,3.39-9.63,6.8-14.38,10.28c-4.55,3.33-8.9,7.03-13.8,9.83c-2.49,1.42-5.11,2.52-7.67,3.8
									c-2.68,1.33-5.34,2.84-8.33,3.29c-0.95,0.14-0.55,1.59,0.4,1.45c2.55-0.39,4.9-1.54,7.18-2.69
									c2.34-1.18,4.75-2.21,7.08-3.41c5.05-2.61,9.4-6.18,13.96-9.54c4.87-3.6,9.8-7.11,14.75-10.6
									c4.71-3.32,9.39-6.72,14.28-9.78c5.17-3.24,10.47-6.31,15.21-10.17C265.11,113.85,264.05,112.8,263.3,113.4L263.3,113.4z"/>
							</g>
						</g>
						<g style="clip-path:url(#SVGID_00000029730331946575257730000011950326352345548176_);">
							<g>
								<path class="st11" d="M241.46,103.26c-4.24,3.45-8.95,6.25-13.59,9.12c-4.8,2.97-9.4,6.24-14.01,9.49
									c-4.82,3.39-9.63,6.8-14.38,10.28c-4.55,3.33-8.9,7.03-13.8,9.83c-2.49,1.42-5.11,2.52-7.67,3.8
									c-2.68,1.33-5.34,2.84-8.33,3.29c-0.95,0.14-0.55,1.59,0.4,1.45c2.55-0.39,4.9-1.54,7.18-2.69
									c2.34-1.18,4.75-2.21,7.08-3.41c5.05-2.61,9.4-6.18,13.96-9.54c4.87-3.6,9.8-7.11,14.75-10.6
									c4.71-3.32,9.39-6.72,14.28-9.78c5.17-3.24,10.47-6.31,15.21-10.17C243.27,103.71,242.2,102.65,241.46,103.26L241.46,103.26
									z"/>
							</g>
						</g>
						<g style="clip-path:url(#SVGID_00000029730331946575257730000011950326352345548176_);">
							<g>
								<path class="st11" d="M245.83,105.29c-4.24,3.45-8.95,6.25-13.59,9.12c-4.8,2.97-9.4,6.24-14.01,9.49
									c-4.82,3.39-9.63,6.8-14.38,10.28c-4.55,3.33-8.9,7.03-13.8,9.83c-2.49,1.42-5.11,2.52-7.67,3.8
									c-2.68,1.33-5.34,2.84-8.33,3.29c-0.95,0.14-0.55,1.59,0.4,1.45c2.55-0.39,4.9-1.54,7.18-2.69
									c2.34-1.18,4.75-2.21,7.08-3.41c5.05-2.61,9.4-6.18,13.96-9.54c4.87-3.6,9.8-7.11,14.75-10.6
									c4.71-3.32,9.39-6.72,14.28-9.78c5.17-3.24,10.47-6.31,15.21-10.17C247.64,105.74,246.57,104.68,245.83,105.29
									L245.83,105.29z"/>
							</g>
						</g>
						<g style="clip-path:url(#SVGID_00000029730331946575257730000011950326352345548176_);">
							<g>
								<path class="st11" d="M250.2,107.31c-4.24,3.45-8.95,6.25-13.59,9.12c-4.8,2.97-9.4,6.24-14.01,9.49
									c-4.82,3.39-9.63,6.8-14.38,10.28c-4.55,3.33-8.9,7.03-13.8,9.83c-2.49,1.42-5.11,2.52-7.67,3.8
									c-2.68,1.33-5.34,2.84-8.33,3.29c-0.95,0.14-0.55,1.59,0.4,1.45c2.55-0.39,4.9-1.54,7.18-2.69
									c2.34-1.18,4.75-2.21,7.08-3.41c5.05-2.61,9.4-6.18,13.96-9.54c4.87-3.6,9.8-7.11,14.75-10.6
									c4.71-3.32,9.39-6.72,14.28-9.78c5.17-3.24,10.47-6.31,15.21-10.17C252.01,107.76,250.94,106.71,250.2,107.31L250.2,107.31z
									"/>
							</g>
						</g>
						<g style="clip-path:url(#SVGID_00000029730331946575257730000011950326352345548176_);">
							<g>
								<path class="st11" d="M228.35,97.17c-4.24,3.45-8.95,6.25-13.59,9.12c-4.8,2.97-9.4,6.24-14.01,9.49
									c-4.82,3.39-9.63,6.8-14.38,10.28c-4.55,3.33-8.9,7.03-13.8,9.83c-2.49,1.42-5.11,2.52-7.67,3.8
									c-2.68,1.33-5.34,2.84-8.33,3.29c-0.95,0.14-0.55,1.59,0.4,1.45c2.55-0.39,4.9-1.54,7.18-2.69
									c2.34-1.18,4.75-2.21,7.08-3.41c5.05-2.61,9.4-6.18,13.96-9.54c4.87-3.6,9.8-7.11,14.75-10.6
									c4.72-3.32,9.39-6.72,14.28-9.78c5.17-3.24,10.47-6.31,15.21-10.17C230.16,97.62,229.09,96.56,228.35,97.17L228.35,97.17z"
									/>
							</g>
						</g>
						<g style="clip-path:url(#SVGID_00000029730331946575257730000011950326352345548176_);">
							<g>
								<path class="st11" d="M232.72,99.2c-4.24,3.45-8.95,6.25-13.59,9.12c-4.8,2.97-9.4,6.24-14.01,9.49
									c-4.82,3.39-9.63,6.8-14.38,10.28c-4.55,3.33-8.9,7.03-13.8,9.83c-2.49,1.42-5.11,2.52-7.67,3.8
									c-2.68,1.33-5.34,2.84-8.33,3.29c-0.95,0.14-0.55,1.59,0.4,1.45c2.55-0.39,4.9-1.54,7.18-2.69
									c2.34-1.18,4.75-2.21,7.08-3.41c5.05-2.61,9.4-6.18,13.96-9.54c4.87-3.6,9.8-7.11,14.75-10.6
									c4.71-3.32,9.39-6.72,14.28-9.78c5.17-3.24,10.47-6.31,15.21-10.17C234.53,99.65,233.46,98.59,232.72,99.2L232.72,99.2z"/>
							</g>
						</g>
						<g style="clip-path:url(#SVGID_00000029730331946575257730000011950326352345548176_);">
							<g>
								<path class="st11" d="M237.09,101.23c-4.24,3.45-8.95,6.25-13.59,9.12c-4.8,2.97-9.4,6.24-14.01,9.49
									c-4.82,3.39-9.63,6.8-14.38,10.28c-4.55,3.33-8.9,7.03-13.8,9.83c-2.49,1.42-5.11,2.52-7.67,3.8
									c-2.68,1.33-5.34,2.84-8.33,3.29c-0.95,0.14-0.55,1.59,0.4,1.45c2.55-0.39,4.9-1.54,7.18-2.69
									c2.34-1.18,4.75-2.21,7.08-3.41c5.05-2.61,9.4-6.18,13.96-9.54c4.87-3.6,9.8-7.11,14.75-10.6
									c4.71-3.32,9.39-6.72,14.28-9.78c5.17-3.24,10.47-6.31,15.21-10.17C238.9,101.68,237.83,100.62,237.09,101.23L237.09,101.23
									z"/>
							</g>
						</g>
						<g style="clip-path:url(#SVGID_00000029730331946575257730000011950326352345548176_);">
							<g>
								<path class="st11" d="M215.24,91.08c-4.24,3.45-8.95,6.25-13.59,9.12c-4.8,2.97-9.4,6.24-14.01,9.49
									c-4.82,3.39-9.63,6.8-14.38,10.28c-4.55,3.33-8.9,7.03-13.8,9.83c-2.49,1.42-5.11,2.52-7.67,3.8
									c-2.68,1.33-5.34,2.84-8.33,3.29c-0.95,0.14-0.55,1.59,0.4,1.45c2.55-0.39,4.9-1.54,7.18-2.69
									c2.34-1.18,4.75-2.21,7.08-3.41c5.05-2.61,9.4-6.18,13.96-9.54c4.87-3.6,9.8-7.11,14.75-10.6
									c4.72-3.32,9.39-6.72,14.28-9.78c5.17-3.24,10.47-6.31,15.21-10.17C217.05,91.53,215.99,90.47,215.24,91.08L215.24,91.08z"
									/>
							</g>
						</g>
						<g style="clip-path:url(#SVGID_00000029730331946575257730000011950326352345548176_);">
							<g>
								<path class="st11" d="M210.87,89.05c-4.24,3.45-8.95,6.25-13.59,9.12c-4.8,2.97-9.4,6.24-14.01,9.49
									c-4.82,3.39-9.63,6.8-14.38,10.28c-4.55,3.33-8.9,7.03-13.8,9.83c-2.49,1.42-5.11,2.52-7.67,3.8
									c-2.68,1.33-5.34,2.84-8.33,3.29c-0.95,0.14-0.55,1.59,0.4,1.45c2.55-0.39,4.9-1.54,7.18-2.69
									c2.34-1.18,4.75-2.21,7.08-3.41c5.05-2.61,9.4-6.18,13.96-9.54c4.87-3.6,9.8-7.11,14.75-10.6
									c4.71-3.32,9.39-6.72,14.28-9.78c5.17-3.24,10.47-6.31,15.21-10.17C212.68,89.5,211.62,88.45,210.87,89.05L210.87,89.05z"/>
							</g>
						</g>
						<g style="clip-path:url(#SVGID_00000029730331946575257730000011950326352345548176_);">
							<g>
								<path class="st11" d="M206.51,87.02c-4.24,3.45-8.95,6.25-13.59,9.12c-4.8,2.97-9.4,6.24-14.01,9.49
									c-4.82,3.39-9.63,6.8-14.38,10.28c-4.55,3.33-8.9,7.03-13.8,9.83c-2.49,1.42-5.11,2.52-7.67,3.8
									c-2.68,1.33-5.34,2.84-8.33,3.29c-0.95,0.14-0.55,1.59,0.4,1.45c2.55-0.39,4.9-1.54,7.18-2.69
									c2.34-1.18,4.75-2.21,7.08-3.41c5.05-2.61,9.4-6.18,13.96-9.54c4.87-3.6,9.8-7.11,14.75-10.6
									c4.71-3.32,9.39-6.72,14.28-9.78c5.17-3.24,10.47-6.31,15.21-10.17C208.31,87.47,207.25,86.42,206.51,87.02L206.51,87.02z"
									/>
							</g>
						</g>
						<g style="clip-path:url(#SVGID_00000029730331946575257730000011950326352345548176_);">
							<g>
								<path class="st11" d="M219.61,93.11c-4.24,3.45-8.95,6.25-13.59,9.12c-4.8,2.97-9.4,6.24-14.01,9.49
									c-4.82,3.39-9.63,6.8-14.38,10.28c-4.55,3.33-8.9,7.03-13.8,9.83c-2.49,1.42-5.11,2.52-7.67,3.8
									c-2.68,1.33-5.34,2.84-8.33,3.29c-0.95,0.14-0.55,1.59,0.4,1.45c2.55-0.39,4.9-1.54,7.18-2.69
									c2.34-1.18,4.75-2.21,7.08-3.41c5.05-2.61,9.4-6.18,13.96-9.54c4.87-3.6,9.8-7.11,14.75-10.6
									c4.71-3.32,9.39-6.72,14.28-9.78c5.17-3.24,10.47-6.31,15.21-10.17C221.42,93.56,220.36,92.5,219.61,93.11L219.61,93.11z"/>
							</g>
						</g>
						<g style="clip-path:url(#SVGID_00000029730331946575257730000011950326352345548176_);">
							<g>
								<path class="st11" d="M223.98,95.14c-4.24,3.45-8.95,6.25-13.59,9.12c-4.8,2.97-9.4,6.24-14.01,9.49
									c-4.82,3.39-9.63,6.8-14.38,10.28c-4.55,3.33-8.9,7.03-13.8,9.83c-2.49,1.42-5.11,2.52-7.67,3.8
									c-2.68,1.33-5.34,2.84-8.33,3.29c-0.95,0.14-0.55,1.59,0.4,1.45c2.55-0.39,4.9-1.54,7.18-2.69
									c2.34-1.18,4.75-2.21,7.08-3.41c5.05-2.61,9.4-6.18,13.96-9.54c4.87-3.6,9.8-7.11,14.75-10.6
									c4.71-3.32,9.39-6.72,14.28-9.78c5.17-3.24,10.47-6.31,15.21-10.17C225.79,95.59,224.72,94.53,223.98,95.14L223.98,95.14z"
									/>
							</g>
						</g>
					</g>
				</g>
			</g>
			<g>
				<g>
					<path class="st7" d="M238.33,50.22c0,0,0.77-7.4,12.58-7.62c11.8-0.21,16.54,3.97,16.54,3.97s-2.57,11.29-15.77,10.74
						C238.48,56.77,238.33,50.22,238.33,50.22z"/>
					<g>
						<path d="M238.33,50.22c1.11-1.25,2.74-1.9,4.29-2.35c1.58-0.44,3.21-0.66,4.83-0.7c1.61-0.05,3.22,0.05,4.82,0.3
							c1.59,0.25,3.19,0.64,4.65,1.41l-9.41,0.29c-1.54,0.04-3.07,0.1-4.6,0.23C241.39,49.56,239.86,49.7,238.33,50.22z"/>
					</g>
				</g>
				<g>
					<path class="st7" d="M185.64,38c0,0,3.6-6.52-5.96-13.44s-15.84-6.19-15.84-6.19s-4.35,10.74,6.8,17.83
						C181.78,43.29,185.64,38,185.64,38z"/>
					<g>
						<path d="M185.64,38c-0.95-1.3-2.13-2.29-3.29-3.29c-1.18-0.98-2.4-1.9-3.64-2.82l-7.56-5.61c1.63,0.2,3.17,0.8,4.62,1.5
							c1.45,0.71,2.83,1.55,4.13,2.51c1.3,0.96,2.52,2.07,3.56,3.34C184.48,34.88,185.44,36.34,185.64,38z"/>
					</g>
				</g>
				<path class="st7" d="M219.92,115.01c0,0,13.87-21.8,16.19-31.61c3.42-14.51,4.57-36.12,4.57-36.12s6.29-3.49,7.53-8.95
					c1.25-5.46-2.94-4.99-5.34-3.13c-2.39,1.86-7.32,2.88-7.32,2.88s-2.91-5.39-17.66-8.93l-4.11-0.91
					c-10.72-2.59-18.13-0.62-18.13-0.62s-3.74-3.37-4.87-6.18s-4.51-5.34-6.19,0.01c-1.68,5.35,1.99,11.53,1.99,11.53
					s-11.45,22.24-15.37,31.53c-3.92,9.29-5.83,34.81-5.83,34.81"/>
				<g>
					<path class="st8" d="M170.3,92.32c0,0-12.3-0.8-13.38,9.24c-1.33,12.34,5.6,24.14,30.31,26.17
						c24.71,2.03,34.51-9.24,36.6-16.49c2.2-7.63-2.88-10.49-8.69-13.14"/>
					<path d="M170.3,92.32c-2.59,0.07-5.17,0.65-7.43,1.75c-1.12,0.57-2.12,1.32-2.96,2.2l-0.55,0.72l-0.27,0.36l-0.21,0.4
						l-0.42,0.8c-0.1,0.28-0.18,0.57-0.28,0.86c-0.22,0.56-0.28,1.17-0.37,1.76c-0.13,0.58-0.08,1.24-0.12,1.86
						c-0.01,0.31-0.03,0.63-0.03,0.94l0.05,0.94c0.04,0.62,0.05,1.25,0.17,1.86c0.33,2.46,1.05,4.85,2.3,6.94
						c1.23,2.1,2.88,3.92,4.78,5.46c0.49,0.36,1.01,0.7,1.51,1.05c0.25,0.17,0.5,0.36,0.76,0.52l0.82,0.44
						c0.55,0.29,1.08,0.6,1.63,0.88l1.72,0.72c4.61,1.9,9.64,2.87,14.7,3.33c5.06,0.5,10.17,0.55,15.14-0.21
						c2.5-0.31,4.92-0.98,7.3-1.76c2.32-0.9,4.6-1.94,6.65-3.34c2.04-1.41,3.87-3.11,5.35-5.09c1.48-1.97,2.61-4.24,2.99-6.66
						c0.2-1.19,0.2-2.42-0.14-3.56c-0.33-1.15-1.02-2.19-1.88-3.09c-0.87-0.9-1.91-1.66-3-2.35c-1.08-0.7-2.22-1.32-3.37-1.93
						c2.41,0.95,4.87,1.93,6.94,3.68c1.03,0.87,1.9,2,2.41,3.32c0.51,1.31,0.62,2.75,0.5,4.12c-0.24,2.75-1.35,5.34-2.84,7.61
						c-1.49,2.28-3.45,4.22-5.6,5.87c-2.17,1.64-4.6,2.87-7.09,3.9c-2.53,0.91-5.12,1.7-7.76,2.1c-5.28,0.89-10.63,0.87-15.9,0.39
						c-5.25-0.54-10.54-1.55-15.51-3.71l-1.84-0.84c-0.6-0.32-1.18-0.68-1.77-1.01l-0.88-0.51c-0.29-0.18-0.56-0.4-0.84-0.6
						c-0.55-0.41-1.11-0.8-1.65-1.22c-2.1-1.77-3.9-3.94-5.17-6.38c-1.3-2.44-2.02-5.15-2.2-7.85c-0.09-0.67-0.07-1.35-0.06-2.02
						l0.01-1.01c0.02-0.34,0.06-0.67,0.09-1c0.08-0.67,0.07-1.32,0.26-2.01c0.15-0.68,0.25-1.37,0.57-2
						c0.14-0.32,0.26-0.65,0.41-0.96l0.56-0.89l0.28-0.44l0.35-0.39c0.23-0.26,0.46-0.52,0.7-0.77c1.03-0.92,2.2-1.65,3.45-2.14
						C165.04,92.36,167.71,92.08,170.3,92.32z"/>
				</g>
				<g>
					<path d="M174.42,108.85c-1.33-0.98-2.6-1.97-3.9-2.68c-0.65-0.32-1.32-0.6-1.8-0.55c-0.45,0.02-0.72,0.26-1.05,0.79
						c-0.32,0.56-0.47,1.1-0.38,1.58c0.07,0.49,0.46,1.01,0.98,1.49c1.08,0.94,2.53,1.66,4.01,2.38c-1.66,0.06-3.34-0.23-4.91-1.14
						c-0.77-0.45-1.55-1.18-1.89-2.27c-0.17-0.53-0.17-1.11-0.08-1.63c0.1-0.53,0.31-0.98,0.53-1.41c0.26-0.44,0.6-0.87,1.09-1.22
						c0.49-0.35,1.14-0.51,1.71-0.49c1.14,0.1,1.97,0.6,2.66,1.14C172.76,105.96,173.74,107.33,174.42,108.85z"/>
				</g>
				<g>
					<path d="M202.78,113.52c1.6-0.42,3.17-0.78,4.53-1.35c0.66-0.3,1.29-0.65,1.55-1.06c0.27-0.36,0.25-0.72,0.05-1.31
						c-0.24-0.6-0.56-1.06-0.99-1.29c-0.43-0.26-1.08-0.28-1.78-0.18c-1.41,0.25-2.89,0.93-4.37,1.62c1-1.33,2.28-2.45,3.97-3.1
						c0.84-0.32,1.9-0.46,2.95-0.05c0.52,0.2,0.97,0.56,1.32,0.97c0.35,0.41,0.57,0.86,0.76,1.3c0.18,0.47,0.31,1.01,0.26,1.61
						c-0.04,0.6-0.32,1.21-0.69,1.64c-0.79,0.83-1.7,1.16-2.56,1.35C206.07,114.04,204.4,113.94,202.78,113.52z"/>
				</g>
				<path d="M181.67,66.31L181.67,66.31c-1.49-0.44-2.34-2-1.91-3.49l1.36-4.63c0.44-1.49,2-2.34,3.49-1.91v0
					c1.49,0.44,2.34,2,1.91,3.49l-1.36,4.63C184.73,65.89,183.16,66.75,181.67,66.31z"/>
				<path d="M196.36,70.61L196.36,70.61c-1.49-0.44-2.34-2-1.91-3.49l1.36-4.63c0.44-1.49,2-2.34,3.49-1.91h0
					c1.49,0.44,2.34,2,1.91,3.49l-1.36,4.63C199.42,70.2,197.85,71.05,196.36,70.61z"/>
			</g>
			<g>
				<g>
					<path d="M187.15,195.65c0,0-3.71-1.93-11.47,0.16c-7.75,2.09-9.38,9.78-9.38,9.78s5.65,0.98,14.62-1.01s9.63-5.41,9.63-5.41
						L187.15,195.65z"/>
				</g>
				<path class="st6" d="M199.78,150.86c0,0,4.64,17.56,2.6,27.4c-3.12,15.05-15.61,19.14-15.61,19.14"/>
			</g>
			<g>
				<line x1="68.88" y1="54.33" x2="134.38" y2="92.31"/>
				<polygon points="68.88,54.33 135.13,91.01 133.63,93.6 				"/>
			</g>
		</g>
	</g>
</g>
</svg>
