<?xml version="1.0" encoding="utf-8"?>
<!-- Generator: Adobe Illustrator 25.4.1, SVG Export Plug-In . SVG Version: 6.00 Build 0)  -->
<svg version="1.1" xmlns="http://www.w3.org/2000/svg" xmlns:xlink="http://www.w3.org/1999/xlink" x="0px" y="0px"
	 viewBox="0 0 300 300" style="enable-background:new 0 0 300 300;" xml:space="preserve">
<style type="text/css">
	.st0{fill:#108788;}
</style>
<g id="Capa_1">
	<g>
		<path class="st0" d="M-271.82,134.5c9.5-0.05,18.99-1.61,26.32-4.67c0.15-2.3,0.42-4.57,0.89-6.77
			c-15.47,1.89-32.68,0.42-44.77-4.65c-6.17-2.59-10.16-5.78-12.01-9.13c-2.01,1.13-3.78,2.32-5,3.57
			c-1.85,1.93-2.79,3.96-2.81,5.99c0,0.03,0.02,0.05,0.02,0.06c0,0.58,0.23,1.14,0.37,1.72c0.11,0.43,0.11,0.87,0.3,1.29
			c0.27,0.59,0.77,1.16,1.21,1.73c0.29,0.4,0.45,0.79,0.83,1.18v-0.01c0.55,0.58,1.35,1.13,2.08,1.68c0.06,0.05,0.11,0.09,0.18,0.14
			c-0.03-0.02-0.05-0.04-0.07-0.06c0.43,0.32,0.73,0.66,1.22,0.97c1.37,0.87,2.94,1.7,4.75,2.45c3.32,1.39,7.16,2.42,11.22,3.16
			C-282.24,134.05-277.05,134.53-271.82,134.5"/>
		<path class="st0" d="M-293.96,150.75c1.53,2.74,4.7,5.33,9.73,7.44c5.47,2.3,12.24,3.71,19.34,4.26
			c4.73,0.36,9.61,0.33,14.36-0.07c4.73-0.42,9.35-1.21,13.52-2.39v-0.01c-2.45-3.47-4.44-7.29-5.89-11.38
			C-257.68,153.72-277.9,154.45-293.96,150.75"/>
		<path class="st0" d="M-283.55,100.75c5.47,2.3,12.24,3.71,19.34,4.25c4.72,0.37,9.6,0.34,14.36-0.06
			c4.73-0.42,9.35-1.21,13.52-2.39c0.97-0.28,1.82-0.65,2.74-0.96c3.9-4.35,8.59-7.97,13.86-10.64c0.16-0.58,0.41-1.15,0.42-1.73
			c0.02-2.03-0.87-4.06-2.68-5.96c-1.82-1.9-4.55-3.68-8.19-5.2c-1.82-0.77-3.78-1.43-5.86-2c-4.15-1.13-8.75-1.88-13.48-2.24
			c-2.36-0.18-4.77-0.27-7.18-0.26c-4.81,0.03-9.63,0.43-14.15,1.23c-4.54,0.8-8.78,1.97-12.46,3.54
			C-298.05,84.58-298.12,94.65-283.55,100.75"/>
		<path class="st0" d="M-198.64,92.89c-22.07,0-40.01,17.94-40.01,40.01s17.94,40.01,40.01,40.01c22.07,0,40.01-17.94,40.01-40.01
			S-176.57,92.89-198.64,92.89 M-201.5,126.27c0.86,0.89,2.24,1.74,4.16,2.56c1.91,0.82,3.73,1.66,5.42,2.53
			c1.7,0.88,3.16,1.87,4.4,2.98c1.23,1.12,2.2,2.41,2.9,3.89c0.7,1.48,1.05,3.26,1.05,5.33c0,3.52-1.12,6.39-3.35,8.61
			c-2.22,2.22-5.27,3.52-9.12,3.89v6.2h-4.91v-6.24c-4.48-0.47-7.93-2-10.32-4.61c-2.4-2.6-3.59-6.03-3.59-10.29h10.39
			c0,2.34,0.53,4.13,1.57,5.35c1.03,1.23,2.51,1.84,4.43,1.84c1.39,0,2.49-0.42,3.29-1.25c0.8-0.84,1.2-1.98,1.2-3.44
			c0-1.62-0.4-2.91-1.2-3.83c-0.8-0.92-2.21-1.8-4.23-2.62c-2.01-0.82-3.88-1.65-5.58-2.5c-1.71-0.85-3.17-1.82-4.41-2.92
			c-1.24-1.12-2.19-2.4-2.84-3.86c-0.66-1.47-0.99-3.23-0.99-5.31c0-3.47,1.17-6.34,3.52-8.59c2.35-2.25,5.47-3.56,9.38-3.93v-6.51
			h4.9v6.63c3.77,0.55,6.72,2.1,8.88,4.64c2.15,2.55,3.22,5.77,3.22,9.67h-10.43c0-2.13-0.41-3.78-1.24-4.93
			c-0.82-1.15-1.99-1.73-3.52-1.73c-1.36,0-2.41,0.43-3.16,1.28c-0.75,0.86-1.13,2.03-1.13,3.53
			C-202.8,124.17-202.36,125.38-201.5,126.27"/>
		<path class="st0" d="M-242.35,5.01c-79.95,0-145,65.04-145,144.99s65.04,145,145,145s145-65.05,145-145S-162.4,5.01-242.35,5.01
			 M-161.92,215.48c-42.65,6.45-69.6,32.85-69.86,33.12c-1.03,1.02-2.36,1.53-3.71,1.53s-2.69-0.52-3.73-1.55
			c-2.04-2.06-2.04-5.38,0.02-7.43c1.19-1.18,29.69-29.1,75.7-36.07c2.88-0.41,5.55,1.54,5.99,4.41
			C-157.07,212.36-159.05,215.04-161.92,215.48 M-303.88,227.43c-0.73,0.33-1.49,0.5-2.24,0.5c-1.97,0-3.86-1.12-4.75-3.02
			c-1.24-2.63-0.11-5.76,2.52-6.98c3.18-1.5,78.8-36.57,163.63-31.61c2.9,0.17,5.1,2.65,4.94,5.54c-0.17,2.91-2.7,5.12-5.54,4.95
			C-227.55,191.99-303.13,227.07-303.88,227.43 M-183.62,177.42c-4.71,1.6-9.76,2.5-15.01,2.5c-5.39,0-10.55-0.95-15.37-2.63
			c-6.35,0.18-12.65,0.47-18.86,0.88c-9.72,2.67-21.24,3.63-32.24,2.92c-47.58,5.54-83.8,14.91-84.45,15.08
			c-0.45,0.12-0.9,0.18-1.35,0.18c-2.32,0-4.45-1.56-5.07-3.92c-0.74-2.8,0.94-5.67,3.75-6.41c2.15-0.56,25.45-6.59,58.73-11.79
			c-6.5-3.44-9.8-7.64-9.83-11.86l-0.13-14.47c-0.22-0.08-0.47-0.15-0.68-0.23c-8.84-3.7-13.27-8.58-13.3-13.5l-0.12-15.13
			c0,0.3,0.06,0.61,0.1,0.91c-0.63-5.31,3.83-10.75,13.47-14.84c0.42-0.18,0.91-0.3,1.34-0.47l-0.13-14.83c0,0.3,0.07,0.6,0.11,0.9
			c-0.64-5.31,3.83-10.74,13.48-14.84c17.96-7.65,47.07-7.79,64.89-0.33c7.99,3.35,12.34,7.67,13.14,12.1
			c3.99-1.11,8.18-1.74,12.52-1.74c25.93,0,47.02,21.09,47.02,47.02c0,13.89-6.1,26.37-15.72,34.98
			c10.64,0.89,21.16,2.24,31.39,4.19c2.85,0.54,4.73,3.3,4.18,6.14c-0.54,2.85-3.32,4.69-6.14,4.18
			C-152.62,179.59-168.06,178.05-183.62,177.42"/>
	</g>
	<g>
		<path class="st0" d="M-242.34,5.01c-79.95,0-145,65.04-145,145c0,79.94,65.05,144.99,145,144.99c79.94,0,145-65.04,145-144.99
			C-97.35,70.05-162.4,5.01-242.34,5.01 M-245.8,95.18v0.11c0,11.1-8.76,20.19-20.8,20.19c-12.05,0-20.7-8.98-20.7-20.08v-0.11
			c0-11.1,8.76-20.19,20.8-20.19C-254.45,75.11-245.8,84.09-245.8,95.18 M-327.35,95.29c0-11.1,8.37-20.19,20.36-20.19
			c5.84,0,9.81,1.57,13.04,3.97c0.89,0.66,1.68,1.89,1.68,3.4c0,2.34-1.9,4.18-4.24,4.18c-1.17,0-1.95-0.44-2.56-0.84
			c-2.41-1.78-4.91-2.78-7.97-2.78c-6.58,0-11.33,5.46-11.33,12.15v0.11c0,6.69,4.63,12.27,11.33,12.27c3.62,0,6.02-1.13,8.48-3.07
			c0.66-0.55,1.56-0.94,2.56-0.94c2.17,0,4.02,1.78,4.02,3.96c0,1.34-0.67,2.4-1.47,3.06c-3.5,3.07-7.63,4.91-13.88,4.91
			c-11.49,0-20.02-8.87-20.02-20.08V95.29z M-293.09,154.65c0-11.1,8.37-20.19,20.34-20.19c5.86,0,9.81,1.57,13.05,3.97
			c0.89,0.66,1.66,1.89,1.66,3.4c0,2.34-1.89,4.18-4.23,4.18c-1.17,0-1.96-0.44-2.56-0.84c-2.4-1.78-4.9-2.78-7.97-2.78
			c-6.58,0-11.31,5.46-11.31,12.15v0.11c0,6.69,4.62,12.27,11.31,12.27c3.63,0,6.02-1.13,8.48-3.07c0.66-0.55,1.56-0.94,2.56-0.94
			c2.17,0,4.01,1.78,4.01,3.96c0,1.34-0.67,2.4-1.46,3.06c-3.51,3.07-7.64,4.91-13.89,4.91c-11.48,0-20-8.87-20-20.08V154.65z
			 M-269.04,198.55c0-2.4,1.9-4.29,4.29-4.29h0.89c2.07,0,3.29,1,4.46,2.5l16.56,21.75v-20.13c0-2.33,1.89-4.23,4.24-4.23
			c2.34,0,4.23,1.9,4.23,4.23v31.06c0,2.4-1.89,4.3-4.29,4.3h-0.28c-2.08,0-3.3-1.01-4.47-2.52l-17.16-22.52v20.91
			c0,2.34-1.9,4.23-4.24,4.23c-2.33,0-4.23-1.89-4.23-4.23V198.55z M-241.61,158.49v11.71c0,2.4-1.89,4.3-4.29,4.3
			c-2.41,0-4.3-1.9-4.3-4.3v-31.11c0-2.4,1.89-4.3,4.3-4.3c2.4,0,4.29,1.9,4.29,4.3v11.49h15.83v-11.49c0-2.4,1.9-4.3,4.29-4.3
			c2.4,0,4.29,1.9,4.29,4.3v31.11c0,2.4-1.89,4.3-4.29,4.3c-2.39,0-4.29-1.9-4.29-4.3v-11.71H-241.61z M-231.84,94.47
			c-1.56,0-2.66,0.67-4.04,2.17c-0.36,0.39-1.01,0.78-1.85,0.78c-1.39,0-2.5-1.11-2.5-2.49c0-0.61,0.25-1.25,0.64-1.71
			c1.99-2.32,4.35-3.66,8.11-3.66c5.16,0,8.57,3.03,8.57,7.69v0.06c0,4.16-2.13,6.23-6.54,9.64l-4.05,3.13h8.66
			c1.33,0,2.4,1.06,2.4,2.38c0,1.32-1.07,2.34-2.4,2.34h-13.5c-1.72,0-2.96-0.96-2.96-2.59c0-1.07,0.5-1.99,1.42-2.73l7.08-5.8
			c3.1-2.52,4.31-3.91,4.31-5.97C-228.49,95.61-229.88,94.47-231.84,94.47 M-218.68,213.17c-1.56,0-2.66,0.67-4.04,2.17
			c-0.36,0.39-1,0.78-1.86,0.78c-1.38,0-2.48-1.11-2.48-2.49c0-0.61,0.25-1.25,0.64-1.71c1.98-2.32,4.35-3.66,8.1-3.66
			c5.17,0,8.57,3.03,8.57,7.68v0.07c0,4.16-2.13,6.23-6.54,9.64l-4.05,3.13h8.68c1.31,0,2.38,1.06,2.38,2.38s-1.07,2.34-2.38,2.34
			h-13.52c-1.72,0-2.95-0.96-2.95-2.59c0-1.07,0.5-1.99,1.42-2.74l7.09-5.79c3.09-2.53,4.29-3.91,4.29-5.98
			C-215.34,214.31-216.72,213.17-218.68,213.17 M-211.23,166.26c0-1.13,0.46-2.02,1.27-2.98l10.81-12.55
			c1.03-1.22,1.82-1.85,3.41-1.85c1.46,0,2.63,1.13,2.63,2.59v12.88h1.32c1.25,0,2.23,1,2.23,2.23c0,1.25-0.99,2.21-2.23,2.21h-1.32
			v2.98c0,1.46-1.17,2.59-2.63,2.59c-1.46,0-2.6-1.13-2.6-2.59v-2.98h-10.24C-210.03,168.8-211.23,167.73-211.23,166.26
			 M-204.53,214c0-11.1,8.76-20.19,20.8-20.19c12.05,0,20.69,8.98,20.69,20.08V214c0,11.1-8.76,20.19-20.79,20.19
			c-12.06,0-20.7-8.98-20.7-20.08V214z"/>
		<path class="st0" d="M-183.73,226.26c6.92,0,11.73-5.47,11.73-12.15v-0.12c0-6.69-4.91-12.26-11.82-12.26
			c-6.92,0-11.73,5.46-11.73,12.15v0.11C-195.55,220.68-190.64,226.26-183.73,226.26"/>
		<polygon class="st0" points="-198.34,156.6 -204.95,164.35 -198.34,164.35 		"/>
		<path class="st0" d="M-278.31,95.19v0.11c0,6.69,4.9,12.26,11.82,12.26c6.91,0,11.71-5.46,11.71-12.15V95.3
			c0-6.7-4.91-12.27-11.81-12.27C-273.51,83.03-278.31,88.5-278.31,95.19"/>
	</g>
	<g>
		<path class="st0" d="M132.37,118.16l-1.37,0.86l-1.37-0.86c-1.92-1.2-3.98-1.81-5.82-1.81c-1.5,0-2.85,0.42-3.87,1.25
			c-2.05,1.72-1.99,4.91-1.96,6.45c0.03,2.27,0.7,4.57,1.75,6.56h22.49c1.05-1.99,1.73-4.29,1.77-6.56
			c0.03-1.54,0.09-4.74-1.97-6.45C139.82,115.76,135.84,115.99,132.37,118.16"/>
		<path class="st0" d="M152.49,144.89c-4.21,0-7.61,3.4-7.61,7.61v56.97c0,4.2,3.4,7.6,7.61,7.6c4.21,0,7.6-3.4,7.6-7.6V152.5
			C160.1,148.29,156.7,144.89,152.49,144.89"/>
		<path class="st0" d="M190.3,144.92c-4.19-0.39-7.9,2.68-8.29,6.86l-9.51,56.97c-0.39,4.19,2.68,7.9,6.86,8.28
			c0.24,0.03,0.49,0.04,0.72,0.04c3.88,0,7.21-2.95,7.57-6.9l9.5-56.97C197.55,149.03,194.49,145.32,190.3,144.92"/>
		<path class="st0" d="M114.47,144.92c-4.18,0.4-7.25,4.11-6.86,8.29l9.51,56.97c0.37,3.95,3.68,6.9,7.56,6.9
			c0.25,0,0.48-0.01,0.72-0.04c4.19-0.39,7.26-4.1,6.86-8.28l-9.5-56.97C122.35,147.6,118.66,144.53,114.47,144.92"/>
		<path class="st0" d="M192.52,124.48c-1.34,0.37-2.8,0.56-4.31,0.56c-4.1,0-8.52-1.48-11.45-5.18c-4.81-6.04-2.08-13.64-1.96-13.96
			c0.54-1.47,1.42-3.1,2.85-4.67c-1.64,0.04-3.37,0.16-5.23,0.54c-9.4,1.97-15.53,8.25-21.8,22.41c-1.02,2.28-1.43,4.41-1.39,6.41
			h57.82c0.27-2.68,0.26-9.06-3.75-15.55C200.78,119.79,196.96,123.27,192.52,124.48"/>
		<path class="st0" d="M150.88,71.34h13.44h8.11c1.08,0,1.55-0.38,1.83-1.45c0.2-0.79,0.1-1.49-0.28-1.97
			c-0.37-0.48-0.98-0.73-1.77-0.73c-2.65,0-5.28,0-7.91,0c-4.55,0-9.1,0-13.65,0.01c-0.3,0-0.64,0.07-0.85,0.2
			c-0.73,0.42-1.06,1.59-0.76,2.67C149.31,70.98,149.83,71.34,150.88,71.34"/>
		<path class="st0" d="M128.04,109.63c0,0,2.04-4.57-3.47-6.59C124.57,103.04,122.68,107.54,128.04,109.63"/>
		<path class="st0" d="M170.24,75.79L170.24,75.79c-5.79,0.04-11.52,0.03-17.05-0.01h-0.03c-0.63,0-0.76,0.21-0.87,0.48l-0.18,0.47
			c-0.58,1.47-1.17,2.99-1.69,4.51c-0.25,0.76-0.43,1.53-0.62,2.35c-0.03,0.1-0.06,0.19-0.07,0.3h23.78v-0.01
			c-0.1-0.51-0.2-1-0.37-1.46c-0.72-2.09-1.46-4.17-2.23-6.24C170.83,75.96,170.74,75.79,170.24,75.79"/>
		<path class="st0" d="M191.16,119.51c4.43-1.2,7.43-5.56,8.76-9.24c1.25-3.46,1.32-6.91,0.18-8.56c-0.13-0.18-0.28-0.35-0.44-0.51
			c-1.59-0.57-3.72-1.11-6.19-1.11c-1.01,0-2.09,0.09-3.21,0.31c-5.62,1.11-9.28,3.63-10.62,7.28c-0.02,0.06-1.85,5.2,1.15,8.99
			C183.34,119.88,187.97,120.38,191.16,119.51"/>
		<path class="st0" d="M150,5.01C70.06,5.01,5,70.05,5,150c0,79.94,65.05,145,145,145c79.95,0,145-65.05,145-145
			C295,70.05,229.95,5.01,150,5.01 M203.99,223.23c-0.8,8.55-7.98,15.09-16.57,15.09h-69.86c-8.59,0-15.77-6.54-16.56-15.09
			l-12.86-92.62h26.04c-0.8-2.12-1.3-4.34-1.34-6.46c-0.04-1.97-0.15-7.21,3.82-10.51c1.85-1.53,4.18-2.33,6.71-2.42
			c-1.18-1.03-1.92-2.14-2.32-3.05c-1.35-3.18-0.28-6.07-0.05-6.62l1.42-3.4l3.48,1.27c3.51,1.28,5.06,3.45,5.73,5.04
			c0.29,0.69,0.42,1.36,0.52,2c0.75-0.88,1.61-1.73,2.77-2.51c0.87-0.6,2.07-0.38,2.68,0.51c0.61,0.89,0.38,2.09-0.52,2.68
			c-2.3,1.58-3.34,3.46-3.83,5.06c3.09-1.07,6.23-1.25,8.89-0.32c0.02-2.37-0.01-4.71,0.03-7.08c0.05-3.37,0.52-6.74,0.93-9.31
			c0.72-4.51,1.6-9.12,2.6-13.73c0.37-1.65,0.9-3.22,1.46-4.88c0.18-0.58,0.4-1.17,0.57-1.76c-1.89-1.07-3.01-2.86-3.23-5.21
			c-0.19-1.95,0.43-3.86,1.71-5.25c1.16-1.26,2.76-1.97,4.52-1.97h0.04c5.33,0.04,10.65,0.03,15.99,0.02l5.81-0.01h0.01
			c3.12,0,5.69,2.25,6.13,5.36c0.42,3.09-0.6,5.3-3.3,7.09c1.13,2.44,1.98,5.19,2.56,8.17c0.86,4.53,1.59,8.87,2.22,12.79
			c1.63,0.09,3.09,0.32,4.44,0.59c1.39-0.53,2.88-1.01,4.62-1.36c4.09-0.8,7.69-0.3,10.44,0.47l3.3-3.05c0,0-1.25-3.85,0.91-5.49
			c0.7-0.54,1.63-0.83,2.57-0.83c1.97,0,3.97,1.29,3.94,4.39c0,0,5.03,1.13,3.94,5.63c-0.53,2.21-2.04,2.92-3.5,2.92
			c-1.5,0-2.96-0.76-3.23-1.39l-2.6,2.28c1.08,2.44,1.25,5.54,0.48,8.96c6.62,8.22,7.02,17.07,6.69,21.38h4.65L203.99,223.23z
			 M92.58,105.47l0.84,1.11l-1.25,0.61c-1.81,0.89-3.5,1.3-5.06,1.39c-6.74,0.4-11.06-5.16-11.12-5.22l-0.85-1.12l1.27-0.61
			C76.51,101.59,86.15,97.02,92.58,105.47 M79.46,84.95l0.18-1.37l1.32,0.45c0.1,0.04,10.14,3.62,8.71,14.14l-0.18,1.38l-1.33-0.45
			C78.12,95.65,79.44,85.06,79.46,84.95 M100.76,114.95l-1.12,0.85l-0.61-1.26c-4.65-9.54,3.75-16.09,3.85-16.16l1.11-0.84
			l0.61,1.25C104.65,98.87,109.21,108.52,100.76,114.95 M108.71,107.82l1.11-0.84l0.61,1.25c0.05,0.09,4.61,9.73-3.85,16.16
			l-1.11,0.84l-0.61-1.25C100.22,114.45,108.62,107.9,108.71,107.82 M94.93,105.49l-1.11,0.85l-0.61-1.26
			c-4.67-9.54,3.75-16.1,3.83-16.16l1.12-0.84l0.61,1.25C98.81,89.42,103.39,99.06,94.93,105.49 M82.24,111.09
			c0.09-0.06,9.73-4.61,16.16,3.84l0.84,1.12l-1.25,0.61c-1.8,0.88-3.49,1.29-5.05,1.38c-6.74,0.4-11.07-5.16-11.12-5.22l-0.84-1.12
			L82.24,111.09z M88.07,120.55c0.1-0.05,9.73-4.61,16.16,3.84l0.84,1.12l-1.25,0.61c-1.79,0.88-3.49,1.29-5.05,1.38
			c-6.73,0.4-11.06-5.15-11.12-5.22l-0.83-1.12L88.07,120.55z"/>
	</g>
</g>
<g id="Layer_1">
</g>
<g id="Icons">
</g>
<g id="Modo_de_aislamiento">
</g>
</svg>
