<?xml version="1.0" encoding="utf-8"?>
<!-- Generator: Adobe Illustrator 25.4.1, SVG Export Plug-In . SVG Version: 6.00 Build 0)  -->
<svg version="1.1" xmlns="http://www.w3.org/2000/svg" xmlns:xlink="http://www.w3.org/1999/xlink" x="0px" y="0px"
	 viewBox="0 0 388.55 255.45" style="enable-background:new 0 0 388.55 255.45;" xml:space="preserve">
<style type="text/css">
	.st0{fill:#8E9192;}
	.st1{fill:#909090;}
	.st2{fill:#6A6A6A;}
	.st3{fill:#B2B2B2;}
	.st4{fill:none;stroke:#000000;stroke-width:3.4683;stroke-miterlimit:10;}
	.st5{fill:#FFFFFF;stroke:#000000;stroke-width:2.3122;stroke-miterlimit:10;}
	.st6{fill:#FFFFFF;}
	.st7{clip-path:url(#SVGID_00000010302117591698909680000007667771696265659268_);}
	.st8{clip-path:url(#SVGID_00000137838080977051962250000018405589478522339713_);}
	.st9{fill:#2B2E31;}
	.st10{clip-path:url(#SVGID_00000031925439272204140450000006468036088667333278_);}
	.st11{fill:none;stroke:#000000;stroke-width:3.4683;stroke-linecap:round;stroke-linejoin:round;stroke-miterlimit:10;}
	.st12{fill:none;stroke:#000000;stroke-width:2;stroke-miterlimit:10;}
	.st13{fill:#5D6162;}
</style>
<g id="Capa_1">
</g>
<g id="Capa_2">
	<g id="Layer_1_00000035521218713959729680000013186572791904727429_">
		<path class="st0" d="M184.13,168.41l7.86-2.01l-3.44-13.48l-8.5,2.17c-1.93-3.44-4.46-6.48-7.42-8.98l4.14-6.98l-11.96-7.1
			l-4.48,7.54c-3.68-1.04-7.59-1.44-11.6-1.11l-2.01-7.86l-13.48,3.44l2.17,8.5c-3.44,1.93-6.48,4.46-8.98,7.42l-6.98-4.14
			l-7.1,11.96l7.54,4.48c-1.04,3.68-1.44,7.59-1.11,11.6l-7.86,2.01l3.44,13.48l8.5-2.17c1.93,3.44,4.46,6.48,7.42,8.98l-4.14,6.98
			l11.96,7.1l4.48-7.54c3.68,1.04,7.59,1.44,11.6,1.11l2.01,7.86l13.48-3.44l-2.17-8.5c3.44-1.93,6.48-4.46,8.98-7.42l6.98,4.14
			l7.1-11.96l-7.54-4.48C184.06,176.33,184.46,172.41,184.13,168.41z M154.75,194.37c-12.83,1.82-24.71-7.1-26.53-19.93
			c-1.82-12.83,7.1-24.71,19.93-26.53c12.83-1.82,24.71,7.1,26.53,19.93C176.51,180.67,167.58,192.55,154.75,194.37z"/>
		<path class="st0" d="M225.61,212.35l5.1-1.3l-2.23-8.75l-5.51,1.41c-1.25-2.23-2.89-4.2-4.81-5.83l2.69-4.53l-7.76-4.61l-2.9,4.89
			c-2.39-0.67-4.93-0.94-7.52-0.72l-1.3-5.1l-8.75,2.23l1.41,5.51c-2.23,1.25-4.2,2.89-5.83,4.81l-4.53-2.69l-4.61,7.76l4.89,2.9
			c-0.67,2.39-0.94,4.93-0.72,7.52l-5.1,1.3l2.23,8.75l5.51-1.41c1.25,2.23,2.89,4.2,4.81,5.83l-2.69,4.53l7.76,4.61l2.9-4.89
			c2.39,0.67,4.93,0.94,7.52,0.72l1.3,5.1l8.75-2.23l-1.41-5.51c2.23-1.25,4.2-2.89,5.83-4.81l4.53,2.69l4.61-7.76l-4.89-2.9
			C225.57,217.49,225.83,214.95,225.61,212.35z M206.56,229.19c-8.32,1.18-16.03-4.61-17.21-12.93
			c-1.18-8.32,4.61-16.03,12.93-17.21c8.32-1.18,16.03,4.61,17.21,12.93C220.67,220.3,214.88,228.01,206.56,229.19z"/>
	</g>
	<g id="Capa_34_00000114048733719862728180000006103897515104454025_">
		<g>
			<path class="st1" d="M89.79,17.13c-4.99,0-7.43,1.15-8.07,2.56c-0.64,1.41-1.28,3.33-1.28,3.33v7.04l-0.38,133.68l0.77,79.64
				h17.93c0,0-1.02-84.51-0.51-105.51c0.51-21-0.26-114.47-0.26-114.47s-0.03-3.2-3.01-5.19C93.83,17.45,89.79,17.13,89.79,17.13z"
				/>
			<path class="st2" d="M80.17,128.43l-0.04,13.16l0.06,0.38c0,0,3.33-2.75,9.09-2.75s8.9,2.37,8.9,2.37
				c0.02-1.39,0.03-5.71,0.06-6.78c0.04-1.69,0.07-3.85,0.1-6.4L80.17,128.43z"/>
			<path class="st3" d="M9.38,31.08c0,0,24.84-2.05,43.28-2.56c18.44-0.51,37.9,2.05,50.19,2.82c12.29,0.77,23.82-1.02,34.32-1.79
				c10.5-0.77,27.4-1.54,29.96-0.26s2.24,2.11,2.62,4.03c0.38,1.92,2.37,33.29,2.3,36.56s-0.51,15.11-0.45,18.25
				s1.73,28.75,1.73,31.05s0.58,7.17,0.45,8.51c-0.13,1.34-0.13,3.01-2.24,3.59c-2.11,0.58-5.06,0.26-5.31,0.26
				s-20.87,0.51-27.72,0.19c-6.85-0.32-44.82-0.51-53.91-0.38c-9.09,0.13-31.31,1.73-36.88,1.54s-19.72-0.83-27.47-1.02
				s-13.19,0.06-14.08-1.22c-0.9-1.28-1.15-3.14-1.02-4.1c0.13-0.96-0.26-21,0.45-23.37s1.6-8.58,1.02-12.8
				c-0.58-4.23-0.45-11.52-0.51-18.25S6.37,42.8,6.56,40.24c0.19-2.56-0.19-6.4,0.64-7.62C8.04,31.4,9.38,31.08,9.38,31.08z"/>
			<g>
				<path class="st1" d="M173.8,126.77c0.01,0.38,0.01,0.7-0.01,0.92c-0.13,1.34-0.13,3.01-2.24,3.59
					c-2.11,0.58-5.06,0.26-5.31,0.26s-20.87,0.51-27.72,0.19c-6.85-0.32-44.82-0.51-53.91-0.38c-9.09,0.13-31.31,1.73-36.88,1.54
					s-19.72-0.83-27.47-1.02s-13.19,0.06-14.08-1.22c-0.67-0.95-0.98-2.22-1.04-3.2c2.08,0.65,6.94,0.5,13.36,0.66
					c7.88,0.2,22.28,0.85,27.95,1.04c5.67,0.2,28.27-1.43,37.52-1.56c9.25-0.13,47.88,0.07,54.85,0.39
					c6.97,0.33,27.95-0.2,28.21-0.2c0.26,0,3.26,0.33,5.41-0.26C173.05,127.34,173.48,127.08,173.8,126.77z"/>
				<path class="st1" d="M173.8,126.77c0.01,0.38,0.01,0.7-0.01,0.92c-0.13,1.34-0.13,3.01-2.24,3.59
					c-2.11,0.58-5.06,0.26-5.31,0.26s-20.87,0.51-27.72,0.19c-6.85-0.32-44.82-0.51-53.91-0.38c-9.09,0.13-31.31,1.73-36.88,1.54
					s-19.72-0.83-27.47-1.02s-13.19,0.06-14.08-1.22c-0.67-0.95-0.98-2.22-1.04-3.2c2.08,0.65,6.94,0.5,13.36,0.66
					c7.88,0.2,22.28,0.85,27.95,1.04c5.67,0.2,28.27-1.43,37.52-1.56c9.25-0.13,47.88,0.07,54.85,0.39
					c6.97,0.33,27.95-0.2,28.21-0.2c0.26,0,3.26,0.33,5.41-0.26C173.05,127.34,173.48,127.08,173.8,126.77z"/>
			</g>
			<path class="st2" d="M100.29,252.28c0,0,12.93-10.37,16.26-13c3.33-2.62,4.16-10.5,4.03-11.59c-0.13-1.09-0.13-1.09-0.13-1.09
				s-0.58,6.02-7.87,9.6c-7.3,3.59-10.31,6.4-10.31,6.4s4.55-10.18,4.1-17.86s-3.14-10.18-3.14-10.18s-0.51,10.69-1.66,15.3
				c-1.15,4.61-3.33,6.34-3.33,6.34s-2.05-14.28,0.83-18.5c2.88-4.23,4.99-7.23,4.99-7.23s-5.37,2.41-9.35,8.77
				c-2.56,4.1-2.82,11.2-2.82,11.2s-1.02-8-2.75-12.74c-1.73-4.74-2.56-5.95-2.56-5.95s0.96,8.96,0,14.85
				c-0.96,5.89-1.79,6.34-1.79,6.34s-3.84-7.36-7.49-11.59c-3.65-4.23-8.13-7.11-8.13-7.11s3.78,11.2,6.66,14.47
				c2.88,3.27,4.67,7.94,4.67,7.94s-9.03-5.96-11.27-7.17c-5.31-2.88-13.19-3.65-13.19-3.65s14.28,6.98,19.53,14.08
				c3.19,4.32,3.97,5.83,3.97,5.83s-8.9-6.72-13.83-8.9c-4.93-2.18-10.63-2.75-10.63-2.75s17.48,8.45,19.27,10.69
				c1.79,2.24,4.61,7.62,4.61,7.62L100.29,252.28z"/>
			<path class="st3" d="M81.18,252.25c0,0-5.76-4.1-8.96-5.25c-3.2-1.15-8.51-2.69-8.51-2.69s4.42-0.32,9.6,0.7
				c5.19,1.02,11.52,3.14,11.52,3.14s-7.81-9.67-10.05-12.16c-2.24-2.5-6.72-5.76-6.72-5.76s8.39,3.84,13.12,8.07
				c4.74,4.23,4.67,4.23,5.76,5.76s1.34,2.37,1.34,2.37s2.05-3.2,2.56-7.43c0.51-4.23,0.26-8.64,0.26-8.64s2.88,3.78,3.14,6.59
				c0.26,2.82-0.51,5.95-0.51,5.95s2.82-2.94,7.94-4.93c5.12-1.98,9.6-5.31,9.92-5.7c0.32-0.38,1.28-1.79,1.28-1.79
				s-1.66,5.44-6.79,9.22c-5.12,3.78-8.77,6.47-9.73,7.23c-0.96,0.77-1.73,1.6-1.73,1.6s5.95-3.59,13-4.99s12.55-4.16,12.55-4.16
				s-5.63,4.61-9.73,6.53s-5.51,2.69-8.39,3.78c-2.88,1.09-4.99,2.82-4.99,2.82l-12.55,0.32L81.18,252.25z"/>
		</g>
	</g>
	<g>
		<g>
			<g>
				<g>
					<g>
						<path d="M195,180.32c0,0-3.73-3.08-13-2.59c-9.27,0.49-12.97,8.8-12.97,8.8s6.15,2.47,16.77,2.38s12.2-3.79,12.2-3.79
							L195,180.32z"/>
					</g>
					<path class="st4" d="M194.56,182.88c0,0,22.4-1.64,32.71-6.97c10.32-5.33,21.98-21.28,21.98-21.28"/>
				</g>
				<g>
					<g>
						<path d="M231.33,242.65c0,0-3.76-3.04-13.03-2.46s-12.88,8.93-12.88,8.93s6.18,2.41,16.79,2.22
							c10.62-0.19,12.16-3.91,12.16-3.91L231.33,242.65z"/>
					</g>
					<path class="st4" d="M229.95,245.8"/>
					<path class="st4" d="M241.42,184.76"/>
					<path class="st4" d="M248.73,190.5c0,0-14.09,13.04-18,21.65c-3.91,8.61-5.74,34.17-5.74,34.17"/>
				</g>
				<g>
					<g>
						<path d="M276.37,242.87c0,0-3.76-3.04-13.03-2.46s-12.88,8.93-12.88,8.93s6.18,2.41,16.79,2.22
							c10.62-0.19,12.16-3.91,12.16-3.91L276.37,242.87z"/>
					</g>
					<path class="st4" d="M276.38,245.54c0,0-15.91-17.22-17.48-20.87c-1.57-3.65-2.09-6.52,3.65-12.26
						c5.74-5.74,15.13-16.7,15.13-16.7"/>
				</g>
				<g>
					<path class="st5" d="M278.7,209.01l-86.41-45.25c-10.58-5.41-14.77-18.37-9.37-28.95l59.68-108.06
						c5.41-10.58,18.37-14.77,28.95-9.37l86.41,45.25c10.58,5.41,14.77,18.37,9.37,28.95l-59.68,108.06
						C302.24,210.22,289.28,214.41,278.7,209.01z"/>
					<g>
						<g>
							<path class="st6" d="M284.32,181.53c-3.31,14.26-17.56,23.14-31.82,19.83c-14.26-3.31-23.14-17.56-19.83-31.82"/>
							<path d="M284.32,181.53c-0.42,3.47-1.68,6.87-3.57,9.92c-1.92,3.03-4.48,5.7-7.52,7.73c-3.01,2.07-6.51,3.43-10.12,4.12
								c-3.63,0.66-7.4,0.54-11-0.25c-3.59-0.87-7.02-2.43-9.99-4.61c-2.94-2.22-5.48-4.98-7.27-8.16
								c-1.83-3.16-2.96-6.69-3.34-10.25c-0.36-3.57,0.01-7.18,1.17-10.48c-0.87,6.93,0.76,13.84,4.47,19.3
								c3.71,5.46,9.41,9.4,15.75,10.83c6.33,1.52,13.18,0.48,18.91-2.78C277.55,193.63,282.06,188.14,284.32,181.53z"/>
						</g>
						<g>
							<path class="st6" d="M245.31,192.54l-3.81,5.39c-1.14,1.61-3.39,1.99-5.03,0.83l-0.11-0.07c-1.63-1.16-2.04-3.4-0.89-5.01
								l3.81-5.39"/>
							<path d="M245.31,192.54c-0.79,1.95-1.78,3.78-2.82,5.55c-0.21,0.4-0.63,1.05-1.14,1.44c-0.51,0.43-1.12,0.73-1.77,0.89
								c-1.29,0.34-2.77,0.03-3.82-0.75c-1.09-0.73-1.87-2.02-1.98-3.35c-0.06-0.67,0.01-1.35,0.25-1.97
								c0.12-0.31,0.26-0.61,0.44-0.88c0.2-0.29,0.37-0.49,0.53-0.67c1.32-1.58,2.71-3.11,4.29-4.51c-0.79,1.96-1.77,3.78-2.82,5.55
								c-0.3,0.5-0.41,0.74-0.51,1.13c-0.07,0.36-0.08,0.72-0.02,1.08c0.14,0.71,0.52,1.33,1.14,1.74c0.6,0.45,1.31,0.61,2.03,0.5
								c0.36-0.05,0.7-0.18,1.01-0.37c0.33-0.22,0.53-0.4,0.9-0.85C242.34,195.47,243.73,193.94,245.31,192.54z"/>
						</g>
						<g>
							<path class="st6" d="M254.95,196.62l-2.24,6.21c-0.67,1.86-2.74,2.82-4.62,2.14l-0.12-0.04c-1.88-0.68-2.87-2.74-2.19-4.6
								l2.24-6.21"/>
							<path d="M254.95,196.62c-0.25,2.09-0.71,4.11-1.25,6.1c-0.1,0.44-0.33,1.18-0.72,1.69c-0.38,0.55-0.89,1-1.47,1.33
								c-1.16,0.67-2.66,0.76-3.88,0.29c-1.24-0.42-2.34-1.45-2.8-2.71c-0.24-0.63-0.34-1.3-0.29-1.96
								c0.03-0.33,0.09-0.66,0.19-0.97c0.12-0.33,0.23-0.57,0.34-0.79c0.86-1.87,1.79-3.72,2.94-5.49c-0.24,2.1-0.71,4.11-1.24,6.1
								c-0.16,0.56-0.2,0.83-0.19,1.22c0.02,0.37,0.11,0.72,0.27,1.04c0.32,0.65,0.85,1.14,1.56,1.38c0.7,0.27,1.42,0.24,2.09-0.06
								c0.33-0.15,0.62-0.36,0.88-0.63c0.26-0.3,0.4-0.53,0.64-1.06C252.87,200.23,253.8,198.39,254.95,196.62z"/>
						</g>
						<g>
							<path class="st6" d="M265.47,198.23l-1.01,6.53c-0.3,1.95-2.15,3.29-4.13,2.98l-0.13-0.02c-1.98-0.31-3.34-2.14-3.03-4.09
								l1.01-6.53"/>
							<path d="M265.47,198.23c0.16,2.1,0.09,4.17-0.06,6.23c-0.01,0.45-0.1,1.22-0.38,1.8c-0.27,0.61-0.68,1.15-1.19,1.58
								c-1.01,0.88-2.47,1.26-3.76,1.03c-1.3-0.17-2.58-0.98-3.27-2.12c-0.35-0.57-0.59-1.21-0.66-1.87c-0.03-0.33-0.03-0.66,0-0.99
								c0.05-0.35,0.12-0.6,0.18-0.84c0.48-2,1.05-4,1.84-5.95c0.16,2.1,0.1,4.17-0.05,6.23c-0.05,0.58-0.04,0.85,0.05,1.23
								c0.09,0.35,0.25,0.69,0.47,0.97c0.44,0.58,1.06,0.95,1.8,1.05c0.74,0.13,1.44-0.04,2.04-0.46c0.29-0.21,0.54-0.48,0.74-0.79
								c0.2-0.34,0.29-0.6,0.42-1.16C264.12,202.18,264.68,200.19,265.47,198.23z"/>
						</g>
					</g>
					<g>
						<defs>
							<path id="SVGID_1_" d="M278.28,207.73l-84.7-44.37c-10.58-5.41-14.77-18.37-9.37-28.95l58.83-106.38
								c5.41-10.58,18.37-14.77,28.95-9.37l84.7,44.37c10.58,5.41,14.77,18.37,9.37,28.95l-58.83,106.38
								C301.81,208.94,288.86,213.14,278.28,207.73z"/>
						</defs>
						<clipPath id="SVGID_00000075868269652522816910000006166410576268487857_">
							<use xlink:href="#SVGID_1_"  style="overflow:visible;"/>
						</clipPath>
						<g style="clip-path:url(#SVGID_00000075868269652522816910000006166410576268487857_);">
							<defs>
								<path id="SVGID_00000171695431304018327990000011895902595787654786_" d="M372.21,80.64c-10.9-13.5-28.56-18.3-44.19-13.48
									c-0.79-3.18-2.25-6.25-4.45-8.97c-8.08-10.01-22.74-11.57-32.74-3.5c-10.01,8.08-11.57,22.74-3.5,32.74
									c3.47,4.3,8.15,7.02,13.16,8.11c-3.39,12.34-1.01,26.08,7.64,36.81c14.28,17.69,40.2,20.46,57.9,6.18
									C383.72,124.26,386.49,98.34,372.21,80.64z"/>
							</defs>
							<clipPath id="SVGID_00000110450866974759219260000013486516916095810449_">
								<use xlink:href="#SVGID_00000171695431304018327990000011895902595787654786_"  style="overflow:visible;"/>
							</clipPath>
							<g style="clip-path:url(#SVGID_00000110450866974759219260000013486516916095810449_);">
								<g>
									<path class="st9" d="M398.6,101.25c-5.79,2.61-11.93,4.33-17.99,6.17c-6.26,1.9-12.38,4.18-18.51,6.44
										c-6.29,2.31-12.56,4.65-18.8,7.08c-6.06,2.36-12.03,5.2-18.32,6.89c-3.31,0.89-6.68,1.35-10.03,2.03
										c-3.35,0.68-6.73,1.56-10.18,1.17c-1.11-0.13-1.1,1.61,0,1.73c2.87,0.33,5.75-0.22,8.55-0.8c2.99-0.62,6.02-1.07,9-1.72
										c6.51-1.41,12.53-4.14,18.7-6.57c6.38-2.51,12.81-4.93,19.24-7.3c6.32-2.33,12.63-4.76,19.07-6.75
										c6.78-2.09,13.66-3.95,20.15-6.87C400.49,102.29,399.61,100.79,398.6,101.25L398.6,101.25z"/>
								</g>
							</g>
							<g style="clip-path:url(#SVGID_00000110450866974759219260000013486516916095810449_);">
								<g>
									<path class="st9" d="M402.88,104.82c-5.79,2.61-11.93,4.33-17.99,6.17c-6.26,1.9-12.38,4.18-18.51,6.44
										c-6.29,2.31-12.56,4.65-18.8,7.08c-6.06,2.36-12.03,5.2-18.32,6.89c-3.31,0.89-6.68,1.35-10.03,2.03
										c-3.35,0.68-6.73,1.56-10.18,1.17c-1.11-0.13-1.1,1.61,0,1.73c2.87,0.33,5.75-0.22,8.55-0.8c2.99-0.62,6.02-1.07,9-1.72
										c6.51-1.41,12.53-4.14,18.7-6.57c6.38-2.51,12.81-4.93,19.24-7.3c6.33-2.33,12.63-4.76,19.07-6.75
										c6.78-2.09,13.66-3.95,20.15-6.87C404.77,105.86,403.89,104.36,402.88,104.82L402.88,104.82z"/>
								</g>
							</g>
							<g style="clip-path:url(#SVGID_00000110450866974759219260000013486516916095810449_);">
								<g>
									<path class="st9" d="M407.15,108.38c-5.79,2.61-11.93,4.33-17.99,6.17c-6.26,1.9-12.38,4.18-18.51,6.44
										c-6.29,2.31-12.56,4.65-18.8,7.08c-6.06,2.36-12.03,5.2-18.32,6.89c-3.31,0.89-6.68,1.35-10.03,2.03
										c-3.35,0.68-6.74,1.56-10.18,1.17c-1.11-0.13-1.1,1.61,0,1.73c2.87,0.33,5.75-0.22,8.55-0.8c2.99-0.62,6.02-1.07,9-1.72
										c6.51-1.41,12.53-4.14,18.7-6.57c6.38-2.51,12.81-4.93,19.24-7.3c6.33-2.33,12.63-4.76,19.07-6.75
										c6.78-2.09,13.66-3.95,20.15-6.87C409.04,109.42,408.16,107.93,407.15,108.38L407.15,108.38z"/>
								</g>
							</g>
							<g style="clip-path:url(#SVGID_00000110450866974759219260000013486516916095810449_);">
								<g>
									<path class="st9" d="M411.43,111.95c-5.79,2.61-11.93,4.33-17.99,6.17c-6.26,1.9-12.38,4.18-18.51,6.44
										c-6.29,2.31-12.56,4.65-18.8,7.08c-6.06,2.36-12.03,5.2-18.32,6.89c-3.31,0.89-6.68,1.35-10.03,2.03
										c-3.35,0.68-6.74,1.56-10.18,1.17c-1.11-0.13-1.1,1.61,0,1.73c2.87,0.33,5.75-0.22,8.55-0.8c2.99-0.62,6.02-1.07,9-1.72
										c6.51-1.41,12.53-4.14,18.7-6.57c6.38-2.51,12.81-4.93,19.24-7.3c6.33-2.33,12.63-4.76,19.07-6.75
										c6.78-2.09,13.66-3.95,20.15-6.87C413.32,112.99,412.44,111.5,411.43,111.95L411.43,111.95z"/>
								</g>
							</g>
							<g style="clip-path:url(#SVGID_00000110450866974759219260000013486516916095810449_);">
								<g>
									<path class="st9" d="M415.71,115.52c-5.79,2.61-11.93,4.33-17.99,6.17c-6.26,1.9-12.38,4.18-18.51,6.44
										c-6.29,2.31-12.56,4.65-18.8,7.08c-6.06,2.36-12.03,5.2-18.32,6.89c-3.31,0.89-6.68,1.35-10.03,2.03
										c-3.35,0.68-6.74,1.56-10.18,1.17c-1.11-0.13-1.1,1.61,0,1.73c2.87,0.33,5.75-0.22,8.55-0.8c2.99-0.62,6.02-1.07,9-1.72
										c6.51-1.41,12.53-4.14,18.7-6.57c6.38-2.51,12.81-4.93,19.24-7.3c6.33-2.33,12.63-4.76,19.07-6.75
										c6.78-2.09,13.66-3.95,20.15-6.87C417.6,116.56,416.72,115.07,415.71,115.52L415.71,115.52z"/>
								</g>
							</g>
							<g style="clip-path:url(#SVGID_00000110450866974759219260000013486516916095810449_);">
								<g>
									<path class="st9" d="M419.98,119.09c-5.79,2.61-11.93,4.33-17.99,6.17c-6.26,1.9-12.38,4.18-18.51,6.44
										c-6.29,2.31-12.56,4.65-18.8,7.08c-6.06,2.36-12.03,5.2-18.32,6.89c-3.31,0.89-6.68,1.35-10.03,2.03
										c-3.35,0.68-6.73,1.56-10.18,1.17c-1.11-0.13-1.1,1.61,0,1.73c2.87,0.33,5.75-0.22,8.55-0.8c2.99-0.62,6.02-1.07,9-1.72
										c6.51-1.41,12.53-4.14,18.7-6.57c6.38-2.51,12.81-4.93,19.24-7.3c6.33-2.33,12.63-4.76,19.07-6.75
										c6.78-2.09,13.66-3.95,20.15-6.87C421.87,120.13,420.99,118.63,419.98,119.09L419.98,119.09z"/>
								</g>
							</g>
							<g style="clip-path:url(#SVGID_00000110450866974759219260000013486516916095810449_);">
								<g>
									<path class="st9" d="M385.77,90.54c-5.79,2.61-11.93,4.33-17.99,6.17c-6.26,1.9-12.38,4.18-18.51,6.44
										c-6.29,2.31-12.56,4.65-18.8,7.08c-6.06,2.36-12.03,5.2-18.32,6.89c-3.31,0.89-6.68,1.35-10.03,2.03
										c-3.35,0.68-6.74,1.56-10.18,1.17c-1.11-0.13-1.1,1.61,0,1.73c2.87,0.33,5.75-0.22,8.55-0.8c2.99-0.62,6.02-1.07,9-1.72
										c6.51-1.41,12.53-4.14,18.7-6.57c6.38-2.51,12.81-4.93,19.24-7.3c6.33-2.33,12.63-4.76,19.07-6.75
										c6.78-2.09,13.66-3.95,20.15-6.87C387.66,91.58,386.78,90.09,385.77,90.54L385.77,90.54z"/>
								</g>
							</g>
							<g style="clip-path:url(#SVGID_00000110450866974759219260000013486516916095810449_);">
								<g>
									<path class="st9" d="M390.05,94.11c-5.79,2.61-11.93,4.33-17.99,6.17c-6.26,1.9-12.38,4.18-18.51,6.44
										c-6.29,2.31-12.56,4.65-18.8,7.08c-6.06,2.36-12.03,5.2-18.32,6.89c-3.31,0.89-6.68,1.35-10.03,2.03
										c-3.35,0.68-6.73,1.56-10.18,1.17c-1.11-0.13-1.1,1.61,0,1.73c2.87,0.33,5.75-0.22,8.55-0.8c2.99-0.62,6.02-1.07,9-1.72
										c6.51-1.41,12.53-4.14,18.7-6.57c6.38-2.51,12.81-4.93,19.24-7.3c6.33-2.33,12.63-4.76,19.07-6.75
										c6.78-2.09,13.66-3.95,20.15-6.87C391.94,95.15,391.06,93.65,390.05,94.11L390.05,94.11z"/>
								</g>
							</g>
							<g style="clip-path:url(#SVGID_00000110450866974759219260000013486516916095810449_);">
								<g>
									<path class="st9" d="M394.33,97.68c-5.79,2.61-11.93,4.33-17.99,6.17c-6.26,1.9-12.38,4.18-18.51,6.44
										c-6.29,2.31-12.56,4.65-18.8,7.08c-6.06,2.36-12.03,5.2-18.32,6.89c-3.31,0.89-6.68,1.35-10.03,2.03
										c-3.35,0.68-6.73,1.56-10.18,1.17c-1.11-0.13-1.1,1.61,0,1.73c2.87,0.33,5.75-0.22,8.55-0.8c2.99-0.62,6.02-1.07,9-1.72
										c6.51-1.41,12.53-4.14,18.7-6.57c6.38-2.51,12.81-4.93,19.24-7.3c6.33-2.33,12.63-4.76,19.07-6.75
										c6.78-2.09,13.66-3.95,20.15-6.87C396.22,98.72,395.34,97.22,394.33,97.68L394.33,97.68z"/>
								</g>
							</g>
							<g style="clip-path:url(#SVGID_00000110450866974759219260000013486516916095810449_);">
								<g>
									<path class="st9" d="M372.95,79.84c-5.79,2.61-11.93,4.33-17.99,6.17c-6.26,1.9-12.38,4.18-18.51,6.44
										c-6.29,2.31-12.56,4.65-18.8,7.08c-6.06,2.36-12.03,5.2-18.32,6.89c-3.31,0.89-6.68,1.35-10.03,2.03
										c-3.35,0.68-6.73,1.56-10.18,1.17c-1.11-0.13-1.1,1.61,0,1.73c2.87,0.33,5.75-0.22,8.55-0.8c2.99-0.62,6.02-1.07,9-1.72
										c6.51-1.41,12.53-4.14,18.7-6.57c6.38-2.51,12.81-4.93,19.24-7.3c6.33-2.33,12.63-4.76,19.07-6.75
										c6.78-2.09,13.66-3.95,20.15-6.87C374.84,80.87,373.96,79.38,372.95,79.84L372.95,79.84z"/>
								</g>
							</g>
							<g style="clip-path:url(#SVGID_00000110450866974759219260000013486516916095810449_);">
								<g>
									<path class="st9" d="M377.22,83.4c-5.79,2.61-11.93,4.33-17.99,6.17c-6.26,1.9-12.38,4.18-18.51,6.44
										c-6.29,2.31-12.56,4.65-18.8,7.08c-6.06,2.36-12.03,5.2-18.32,6.89c-3.31,0.89-6.68,1.35-10.03,2.03
										c-3.35,0.68-6.73,1.56-10.18,1.17c-1.11-0.13-1.1,1.61,0,1.73c2.87,0.33,5.75-0.22,8.55-0.8c2.99-0.62,6.02-1.07,9-1.72
										c6.51-1.41,12.53-4.14,18.7-6.57c6.38-2.51,12.81-4.93,19.24-7.3c6.33-2.33,12.63-4.76,19.07-6.75
										c6.78-2.09,13.66-3.95,20.15-6.87C379.11,84.44,378.23,82.95,377.22,83.4L377.22,83.4z"/>
								</g>
							</g>
							<g style="clip-path:url(#SVGID_00000110450866974759219260000013486516916095810449_);">
								<g>
									<path class="st9" d="M381.5,86.97c-5.79,2.61-11.93,4.33-17.99,6.17c-6.26,1.9-12.38,4.18-18.51,6.44
										c-6.29,2.31-12.56,4.65-18.8,7.08c-6.06,2.36-12.03,5.2-18.32,6.89c-3.31,0.89-6.68,1.35-10.03,2.03
										c-3.35,0.68-6.74,1.56-10.18,1.17c-1.11-0.13-1.1,1.61,0,1.73c2.87,0.33,5.75-0.22,8.55-0.8c2.99-0.62,6.02-1.07,9-1.72
										c6.51-1.41,12.53-4.14,18.7-6.57c6.38-2.51,12.81-4.93,19.24-7.3c6.33-2.33,12.63-4.76,19.07-6.75
										c6.78-2.09,13.66-3.95,20.15-6.87C383.39,88.01,382.51,86.52,381.5,86.97L381.5,86.97z"/>
								</g>
							</g>
							<g style="clip-path:url(#SVGID_00000110450866974759219260000013486516916095810449_);">
								<g>
									<path class="st9" d="M360.12,69.13c-5.79,2.61-11.93,4.33-17.99,6.17c-6.26,1.9-12.38,4.18-18.51,6.44
										c-6.29,2.31-12.56,4.65-18.8,7.08c-6.06,2.36-12.03,5.2-18.32,6.89c-3.31,0.89-6.68,1.35-10.03,2.03
										c-3.35,0.68-6.74,1.56-10.18,1.17c-1.11-0.13-1.1,1.61,0,1.73c2.87,0.33,5.75-0.22,8.55-0.8c2.99-0.62,6.02-1.07,9-1.72
										c6.51-1.41,12.53-4.14,18.7-6.57c6.38-2.51,12.81-4.93,19.24-7.3c6.33-2.33,12.63-4.76,19.07-6.75
										c6.78-2.09,13.66-3.95,20.15-6.87C362.01,70.17,361.13,68.67,360.12,69.13L360.12,69.13z"/>
								</g>
							</g>
							<g style="clip-path:url(#SVGID_00000110450866974759219260000013486516916095810449_);">
								<g>
									<path class="st9" d="M364.39,72.7c-5.79,2.61-11.93,4.33-17.99,6.17c-6.26,1.9-12.38,4.18-18.51,6.44
										c-6.29,2.31-12.56,4.65-18.8,7.08c-6.06,2.36-12.03,5.2-18.32,6.89c-3.31,0.89-6.68,1.35-10.03,2.03
										c-3.35,0.68-6.73,1.56-10.18,1.17c-1.11-0.13-1.1,1.61,0,1.73c2.87,0.33,5.75-0.22,8.55-0.8c2.99-0.62,6.02-1.07,9-1.72
										c6.51-1.41,12.53-4.14,18.7-6.57c6.38-2.51,12.81-4.93,19.24-7.3c6.33-2.33,12.63-4.76,19.07-6.75
										c6.78-2.09,13.66-3.95,20.15-6.87C366.28,73.74,365.4,72.24,364.39,72.7L364.39,72.7z"/>
								</g>
							</g>
							<g style="clip-path:url(#SVGID_00000110450866974759219260000013486516916095810449_);">
								<g>
									<path class="st9" d="M368.67,76.27c-5.79,2.61-11.93,4.33-17.99,6.17c-6.26,1.9-12.38,4.18-18.51,6.44
										c-6.29,2.31-12.56,4.65-18.8,7.08c-6.06,2.36-12.03,5.2-18.32,6.89c-3.31,0.89-6.68,1.35-10.03,2.03
										c-3.35,0.68-6.73,1.56-10.18,1.17c-1.11-0.13-1.1,1.61,0,1.73c2.87,0.33,5.75-0.22,8.55-0.8c2.99-0.62,6.02-1.07,9-1.72
										c6.51-1.41,12.53-4.14,18.7-6.57c6.38-2.51,12.81-4.93,19.24-7.3c6.33-2.33,12.63-4.76,19.07-6.75
										c6.78-2.09,13.66-3.95,20.15-6.87C370.56,77.31,369.68,75.81,368.67,76.27L368.67,76.27z"/>
								</g>
							</g>
							<g style="clip-path:url(#SVGID_00000110450866974759219260000013486516916095810449_);">
								<g>
									<path class="st9" d="M347.29,58.42c-5.79,2.61-11.93,4.33-17.99,6.17c-6.26,1.9-12.38,4.18-18.51,6.44
										c-6.29,2.31-12.56,4.65-18.8,7.08c-6.06,2.36-12.03,5.2-18.32,6.89c-3.31,0.89-6.68,1.35-10.03,2.03
										c-3.35,0.68-6.73,1.56-10.18,1.17c-1.11-0.13-1.1,1.61,0,1.73c2.87,0.33,5.75-0.22,8.55-0.8c2.99-0.62,6.02-1.07,9-1.72
										c6.51-1.41,12.53-4.14,18.7-6.57c6.38-2.51,12.81-4.93,19.24-7.3c6.33-2.33,12.63-4.76,19.07-6.75
										c6.78-2.09,13.66-3.95,20.15-6.87C349.18,59.46,348.3,57.97,347.29,58.42L347.29,58.42z"/>
								</g>
							</g>
							<g style="clip-path:url(#SVGID_00000110450866974759219260000013486516916095810449_);">
								<g>
									<path class="st9" d="M351.56,61.99c-5.79,2.61-11.93,4.33-17.99,6.17c-6.26,1.9-12.38,4.18-18.51,6.44
										c-6.29,2.31-12.56,4.65-18.8,7.08c-6.06,2.36-12.03,5.2-18.32,6.89c-3.31,0.89-6.68,1.35-10.03,2.03
										c-3.35,0.68-6.73,1.56-10.18,1.17c-1.11-0.13-1.1,1.61,0,1.73c2.87,0.33,5.75-0.22,8.55-0.8c2.99-0.62,6.02-1.07,9-1.72
										c6.51-1.41,12.53-4.14,18.7-6.57c6.38-2.51,12.81-4.93,19.24-7.3c6.33-2.33,12.63-4.76,19.07-6.75
										c6.78-2.09,13.66-3.95,20.15-6.87C353.46,63.03,352.58,61.54,351.56,61.99L351.56,61.99z"/>
								</g>
							</g>
							<g style="clip-path:url(#SVGID_00000110450866974759219260000013486516916095810449_);">
								<g>
									<path class="st9" d="M355.84,65.56c-5.79,2.61-11.93,4.33-17.99,6.17c-6.26,1.9-12.38,4.18-18.51,6.44
										c-6.29,2.31-12.56,4.65-18.8,7.08c-6.06,2.36-12.03,5.2-18.32,6.89c-3.31,0.89-6.68,1.35-10.03,2.03
										c-3.35,0.68-6.74,1.56-10.18,1.17c-1.11-0.13-1.1,1.61,0,1.73c2.87,0.33,5.75-0.22,8.55-0.8c2.99-0.62,6.02-1.07,9-1.72
										c6.51-1.41,12.53-4.14,18.7-6.57c6.38-2.51,12.81-4.93,19.24-7.3c6.33-2.33,12.63-4.76,19.07-6.75
										c6.78-2.09,13.66-3.95,20.15-6.87C357.73,66.6,356.85,65.11,355.84,65.56L355.84,65.56z"/>
								</g>
							</g>
							<g style="clip-path:url(#SVGID_00000110450866974759219260000013486516916095810449_);">
								<g>
									<path class="st9" d="M334.46,47.72c-5.79,2.61-11.93,4.33-17.99,6.17c-6.26,1.9-12.38,4.18-18.51,6.44
										c-6.29,2.31-12.56,4.65-18.8,7.08c-6.06,2.36-12.03,5.2-18.32,6.89c-3.31,0.89-6.68,1.35-10.03,2.03
										c-3.35,0.68-6.74,1.56-10.18,1.17c-1.11-0.13-1.1,1.61,0,1.73c2.87,0.33,5.75-0.22,8.55-0.8c2.99-0.62,6.02-1.07,9-1.72
										c6.51-1.41,12.53-4.14,18.7-6.57c6.38-2.51,12.81-4.93,19.24-7.3c6.33-2.33,12.63-4.76,19.07-6.75
										c6.78-2.09,13.66-3.95,20.15-6.87C336.35,48.76,335.47,47.26,334.46,47.72L334.46,47.72z"/>
								</g>
							</g>
							<g style="clip-path:url(#SVGID_00000110450866974759219260000013486516916095810449_);">
								<g>
									<path class="st9" d="M330.18,44.15c-5.79,2.61-11.93,4.33-17.99,6.17c-6.26,1.9-12.38,4.18-18.51,6.44
										c-6.29,2.31-12.56,4.65-18.8,7.08c-6.06,2.36-12.03,5.2-18.32,6.89c-3.31,0.89-6.68,1.35-10.03,2.03
										c-3.35,0.68-6.73,1.56-10.18,1.17c-1.11-0.13-1.1,1.61,0,1.73c2.87,0.33,5.75-0.22,8.55-0.8c2.99-0.62,6.02-1.07,9-1.72
										c6.51-1.41,12.53-4.14,18.7-6.57c6.38-2.51,12.81-4.93,19.24-7.3c6.33-2.33,12.63-4.76,19.07-6.75
										c6.78-2.09,13.66-3.95,20.15-6.87C332.08,45.19,331.19,43.69,330.18,44.15L330.18,44.15z"/>
								</g>
							</g>
							<g style="clip-path:url(#SVGID_00000110450866974759219260000013486516916095810449_);">
								<g>
									<path class="st9" d="M325.91,40.58c-5.79,2.61-11.93,4.33-17.99,6.17c-6.26,1.9-12.38,4.18-18.51,6.44
										c-6.29,2.31-12.56,4.65-18.8,7.08c-6.06,2.36-12.03,5.2-18.32,6.89c-3.31,0.89-6.68,1.35-10.03,2.03
										c-3.35,0.68-6.74,1.56-10.18,1.17c-1.11-0.13-1.1,1.61,0,1.73c2.87,0.33,5.75-0.22,8.55-0.8c2.99-0.62,6.02-1.07,9-1.72
										c6.51-1.41,12.53-4.14,18.7-6.57c6.38-2.51,12.81-4.93,19.24-7.3c6.33-2.33,12.63-4.76,19.07-6.75
										c6.78-2.09,13.66-3.95,20.15-6.87C327.8,41.62,326.92,40.13,325.91,40.58L325.91,40.58z"/>
								</g>
							</g>
							<g style="clip-path:url(#SVGID_00000110450866974759219260000013486516916095810449_);">
								<g>
									<path class="st9" d="M338.74,51.29c-5.79,2.61-11.93,4.33-17.99,6.17c-6.26,1.9-12.38,4.18-18.51,6.44
										c-6.29,2.31-12.56,4.65-18.8,7.08c-6.06,2.36-12.03,5.2-18.32,6.89c-3.31,0.89-6.68,1.35-10.03,2.03
										c-3.35,0.68-6.74,1.56-10.18,1.17c-1.11-0.13-1.1,1.61,0,1.73c2.87,0.33,5.75-0.22,8.55-0.8c2.99-0.62,6.02-1.07,9-1.72
										c6.51-1.41,12.53-4.14,18.7-6.57c6.38-2.51,12.81-4.93,19.24-7.3c6.33-2.33,12.63-4.76,19.07-6.75
										c6.78-2.09,13.66-3.95,20.15-6.87C340.63,52.33,339.75,50.83,338.74,51.29L338.74,51.29z"/>
								</g>
							</g>
							<g style="clip-path:url(#SVGID_00000110450866974759219260000013486516916095810449_);">
								<g>
									<path class="st9" d="M343.01,54.86c-5.79,2.61-11.93,4.33-17.99,6.17c-6.26,1.9-12.38,4.18-18.51,6.44
										c-6.29,2.31-12.56,4.65-18.8,7.08c-6.06,2.36-12.03,5.2-18.32,6.89c-3.31,0.89-6.68,1.35-10.03,2.03
										c-3.35,0.68-6.73,1.56-10.18,1.17c-1.11-0.13-1.1,1.61,0,1.73c2.87,0.33,5.75-0.22,8.55-0.8c2.99-0.62,6.02-1.07,9-1.72
										c6.51-1.41,12.53-4.14,18.7-6.57c6.38-2.51,12.81-4.93,19.24-7.3c6.33-2.33,12.63-4.76,19.07-6.75
										c6.78-2.09,13.66-3.95,20.15-6.87C344.9,55.89,344.02,54.4,343.01,54.86L343.01,54.86z"/>
								</g>
							</g>
						</g>
					</g>
					<g>
						<g>
							<defs>
								
									<ellipse id="SVGID_00000041281314280528044730000000867968424540457100_" transform="matrix(0.2136 -0.9769 0.9769 0.2136 95.5475 357.6946)" cx="269.96" cy="119.5" rx="21.03" ry="26.97"/>
							</defs>
							<clipPath id="SVGID_00000023998877730817720820000006828361592029197199_">
								<use xlink:href="#SVGID_00000041281314280528044730000000867968424540457100_"  style="overflow:visible;"/>
							</clipPath>
							<g style="clip-path:url(#SVGID_00000023998877730817720820000006828361592029197199_);">
								<g>
									<path class="st9" d="M345.64,127.99c-5.79,2.61-11.93,4.33-17.99,6.17c-6.26,1.9-12.38,4.18-18.51,6.44
										c-6.29,2.31-12.56,4.65-18.8,7.08c-6.06,2.36-12.03,5.2-18.32,6.89c-3.31,0.89-6.68,1.35-10.03,2.03
										c-3.35,0.68-6.73,1.56-10.18,1.17c-1.11-0.13-1.1,1.61,0,1.73c2.87,0.33,5.75-0.22,8.55-0.8c2.99-0.62,6.02-1.07,9-1.72
										c6.51-1.41,12.53-4.14,18.7-6.57c6.38-2.51,12.81-4.93,19.24-7.3c6.33-2.33,12.63-4.76,19.07-6.75
										c6.78-2.09,13.66-3.95,20.15-6.87C347.54,129.03,346.65,127.53,345.64,127.99L345.64,127.99z"/>
								</g>
							</g>
							<g style="clip-path:url(#SVGID_00000023998877730817720820000006828361592029197199_);">
								<g>
									<path class="st9" d="M349.92,131.56c-5.79,2.61-11.93,4.33-17.99,6.17c-6.26,1.9-12.38,4.18-18.51,6.44
										c-6.29,2.31-12.56,4.65-18.8,7.08c-6.06,2.36-12.03,5.2-18.32,6.89c-3.31,0.89-6.68,1.35-10.03,2.03
										c-3.35,0.68-6.74,1.56-10.18,1.17c-1.11-0.13-1.1,1.61,0,1.73c2.87,0.33,5.75-0.22,8.55-0.8c2.99-0.62,6.02-1.07,9-1.72
										c6.51-1.41,12.53-4.14,18.7-6.57c6.38-2.51,12.81-4.93,19.24-7.3c6.33-2.33,12.63-4.76,19.07-6.75
										c6.78-2.09,13.66-3.95,20.15-6.87C351.81,132.6,350.93,131.1,349.92,131.56L349.92,131.56z"/>
								</g>
							</g>
							<g style="clip-path:url(#SVGID_00000023998877730817720820000006828361592029197199_);">
								<g>
									<path class="st9" d="M354.2,135.13c-5.79,2.61-11.93,4.33-17.99,6.17c-6.26,1.9-12.38,4.18-18.51,6.44
										c-6.29,2.31-12.56,4.65-18.8,7.08c-6.06,2.36-12.03,5.2-18.32,6.89c-3.31,0.89-6.68,1.35-10.03,2.03
										c-3.35,0.68-6.74,1.56-10.18,1.17c-1.11-0.13-1.1,1.61,0,1.73c2.87,0.33,5.75-0.22,8.55-0.8c2.99-0.62,6.02-1.07,9-1.72
										c6.51-1.41,12.53-4.14,18.7-6.57c6.38-2.51,12.81-4.93,19.24-7.3c6.33-2.33,12.63-4.76,19.07-6.75
										c6.78-2.09,13.66-3.95,20.15-6.87C356.09,136.17,355.21,134.67,354.2,135.13L354.2,135.13z"/>
								</g>
							</g>
							<g style="clip-path:url(#SVGID_00000023998877730817720820000006828361592029197199_);">
								<g>
									<path class="st9" d="M358.47,138.7c-5.79,2.61-11.93,4.33-17.99,6.17c-6.26,1.9-12.38,4.18-18.51,6.44
										c-6.29,2.31-12.56,4.65-18.8,7.08c-6.06,2.36-12.03,5.2-18.32,6.89c-3.31,0.89-6.68,1.35-10.03,2.03
										c-3.35,0.68-6.73,1.56-10.18,1.17c-1.11-0.13-1.1,1.61,0,1.73c2.87,0.33,5.75-0.22,8.55-0.8c2.99-0.62,6.02-1.07,9-1.72
										c6.51-1.41,12.53-4.14,18.7-6.57c6.38-2.51,12.81-4.93,19.24-7.3c6.33-2.33,12.63-4.76,19.07-6.75
										c6.78-2.09,13.66-3.95,20.15-6.87C360.36,139.74,359.48,138.24,358.47,138.7L358.47,138.7z"/>
								</g>
							</g>
							<g style="clip-path:url(#SVGID_00000023998877730817720820000006828361592029197199_);">
								<g>
									<path class="st9" d="M362.75,142.26c-5.79,2.61-11.93,4.33-17.99,6.17c-6.26,1.9-12.38,4.18-18.51,6.44
										c-6.29,2.31-12.56,4.65-18.8,7.08c-6.06,2.36-12.03,5.2-18.32,6.89c-3.31,0.89-6.68,1.35-10.03,2.03
										c-3.35,0.68-6.73,1.56-10.18,1.17c-1.11-0.13-1.1,1.61,0,1.73c2.87,0.33,5.75-0.22,8.55-0.8c2.99-0.62,6.02-1.07,9-1.72
										c6.51-1.41,12.53-4.14,18.7-6.57c6.38-2.51,12.81-4.93,19.24-7.3c6.33-2.33,12.63-4.76,19.07-6.75
										c6.78-2.09,13.66-3.95,20.15-6.87C364.64,143.3,363.76,141.81,362.75,142.26L362.75,142.26z"/>
								</g>
							</g>
							<g style="clip-path:url(#SVGID_00000023998877730817720820000006828361592029197199_);">
								<g>
									<path class="st9" d="M367.02,145.83c-5.79,2.61-11.93,4.33-17.99,6.17c-6.26,1.9-12.38,4.18-18.51,6.44
										c-6.29,2.31-12.56,4.65-18.8,7.08c-6.06,2.36-12.03,5.2-18.32,6.89c-3.31,0.89-6.68,1.35-10.03,2.03
										c-3.35,0.68-6.73,1.56-10.18,1.17c-1.11-0.13-1.1,1.61,0,1.73c2.87,0.33,5.75-0.22,8.55-0.8c2.99-0.62,6.02-1.07,9-1.72
										c6.51-1.41,12.53-4.14,18.7-6.57c6.38-2.51,12.81-4.93,19.24-7.3c6.32-2.33,12.63-4.76,19.07-6.75
										c6.78-2.09,13.66-3.95,20.15-6.87C368.92,146.87,368.03,145.38,367.02,145.83L367.02,145.83z"/>
								</g>
							</g>
							<g style="clip-path:url(#SVGID_00000023998877730817720820000006828361592029197199_);">
								<g>
									<path class="st9" d="M332.82,117.28c-5.79,2.61-11.93,4.33-17.99,6.17c-6.26,1.9-12.38,4.18-18.51,6.44
										c-6.29,2.31-12.56,4.65-18.8,7.08c-6.06,2.36-12.03,5.2-18.32,6.89c-3.31,0.89-6.68,1.35-10.03,2.03
										c-3.35,0.68-6.74,1.56-10.18,1.17c-1.11-0.13-1.1,1.61,0,1.73c2.87,0.33,5.75-0.22,8.55-0.8c2.99-0.62,6.02-1.07,9-1.72
										c6.51-1.41,12.53-4.14,18.7-6.57c6.38-2.51,12.81-4.93,19.24-7.3c6.33-2.33,12.63-4.76,19.07-6.75
										c6.78-2.09,13.66-3.95,20.15-6.87C334.71,118.32,333.83,116.83,332.82,117.28L332.82,117.28z"/>
								</g>
							</g>
							<g style="clip-path:url(#SVGID_00000023998877730817720820000006828361592029197199_);">
								<g>
									<path class="st9" d="M337.09,120.85c-5.79,2.61-11.93,4.33-17.99,6.17c-6.26,1.9-12.38,4.18-18.51,6.44
										c-6.29,2.31-12.56,4.65-18.8,7.08c-6.06,2.36-12.03,5.2-18.32,6.89c-3.31,0.89-6.68,1.35-10.03,2.03
										c-3.35,0.68-6.74,1.56-10.18,1.17c-1.11-0.13-1.1,1.61,0,1.73c2.87,0.33,5.75-0.22,8.55-0.8c2.99-0.62,6.02-1.07,9-1.72
										c6.51-1.41,12.53-4.14,18.7-6.57c6.38-2.51,12.81-4.93,19.24-7.3c6.33-2.33,12.63-4.76,19.07-6.75
										c6.78-2.09,13.66-3.95,20.15-6.87C338.98,121.89,338.1,120.4,337.09,120.85L337.09,120.85z"/>
								</g>
							</g>
							<g style="clip-path:url(#SVGID_00000023998877730817720820000006828361592029197199_);">
								<g>
									<path class="st9" d="M341.37,124.42c-5.79,2.61-11.93,4.33-17.99,6.17c-6.26,1.9-12.38,4.18-18.51,6.44
										c-6.29,2.31-12.56,4.65-18.8,7.08c-6.06,2.36-12.03,5.2-18.32,6.89c-3.31,0.89-6.68,1.35-10.03,2.03
										c-3.35,0.68-6.73,1.56-10.18,1.17c-1.11-0.13-1.1,1.61,0,1.73c2.87,0.33,5.75-0.22,8.55-0.8c2.99-0.62,6.02-1.07,9-1.72
										c6.51-1.41,12.53-4.14,18.7-6.57c6.38-2.51,12.81-4.93,19.24-7.3c6.33-2.33,12.63-4.76,19.07-6.75
										c6.78-2.09,13.66-3.95,20.15-6.87C343.26,125.46,342.38,123.97,341.37,124.42L341.37,124.42z"/>
								</g>
							</g>
							<g style="clip-path:url(#SVGID_00000023998877730817720820000006828361592029197199_);">
								<g>
									<path class="st9" d="M319.99,106.58c-5.79,2.61-11.93,4.33-17.99,6.17c-6.26,1.9-12.38,4.18-18.51,6.44
										c-6.29,2.31-12.56,4.65-18.8,7.08c-6.06,2.36-12.03,5.2-18.32,6.89c-3.31,0.89-6.68,1.35-10.03,2.03
										c-3.35,0.68-6.74,1.56-10.18,1.17c-1.11-0.13-1.1,1.61,0,1.73c2.87,0.33,5.75-0.22,8.55-0.8c2.99-0.62,6.02-1.07,9-1.72
										c6.51-1.41,12.53-4.14,18.7-6.57c6.38-2.51,12.81-4.93,19.24-7.3c6.33-2.33,12.63-4.76,19.07-6.75
										c6.78-2.09,13.66-3.95,20.15-6.87C321.88,107.62,321,106.12,319.99,106.58L319.99,106.58z"/>
								</g>
							</g>
							<g style="clip-path:url(#SVGID_00000023998877730817720820000006828361592029197199_);">
								<g>
									<path class="st9" d="M324.26,110.15c-5.79,2.61-11.93,4.33-17.99,6.17c-6.26,1.9-12.38,4.18-18.51,6.44
										c-6.29,2.31-12.56,4.65-18.8,7.08c-6.06,2.36-12.03,5.2-18.32,6.89c-3.31,0.89-6.68,1.35-10.03,2.03
										c-3.35,0.68-6.74,1.56-10.18,1.17c-1.11-0.13-1.1,1.61,0,1.73c2.87,0.33,5.75-0.22,8.55-0.8c2.99-0.62,6.02-1.07,9-1.72
										c6.51-1.41,12.53-4.14,18.7-6.57c6.38-2.51,12.81-4.93,19.24-7.3c6.33-2.33,12.63-4.76,19.07-6.75
										c6.78-2.09,13.66-3.95,20.15-6.87C326.15,111.19,325.27,109.69,324.26,110.15L324.26,110.15z"/>
								</g>
							</g>
							<g style="clip-path:url(#SVGID_00000023998877730817720820000006828361592029197199_);">
								<g>
									<path class="st9" d="M328.54,113.72c-5.79,2.61-11.93,4.33-17.99,6.17c-6.26,1.9-12.38,4.18-18.51,6.44
										c-6.29,2.31-12.56,4.65-18.8,7.08c-6.06,2.36-12.03,5.2-18.32,6.89c-3.31,0.89-6.68,1.35-10.03,2.03
										c-3.35,0.68-6.74,1.56-10.18,1.17c-1.11-0.13-1.1,1.61,0,1.73c2.87,0.33,5.75-0.22,8.55-0.8c2.99-0.62,6.02-1.07,9-1.72
										c6.51-1.41,12.53-4.14,18.7-6.57c6.38-2.51,12.81-4.93,19.24-7.3c6.33-2.33,12.63-4.76,19.07-6.75
										c6.78-2.09,13.66-3.95,20.15-6.87C330.43,114.75,329.55,113.26,328.54,113.72L328.54,113.72z"/>
								</g>
							</g>
							<g style="clip-path:url(#SVGID_00000023998877730817720820000006828361592029197199_);">
								<g>
									<path class="st9" d="M307.16,95.87c-5.79,2.61-11.93,4.33-17.99,6.17c-6.26,1.9-12.38,4.18-18.51,6.44
										c-6.29,2.31-12.56,4.65-18.8,7.08c-6.06,2.36-12.03,5.2-18.32,6.89c-3.31,0.89-6.68,1.35-10.03,2.03
										c-3.35,0.68-6.74,1.56-10.18,1.17c-1.11-0.13-1.1,1.61,0,1.73c2.87,0.33,5.75-0.22,8.55-0.8c2.99-0.62,6.02-1.07,9-1.72
										c6.51-1.41,12.53-4.14,18.7-6.57c6.38-2.51,12.81-4.93,19.24-7.3c6.33-2.33,12.63-4.76,19.07-6.75
										c6.78-2.09,13.66-3.95,20.15-6.87C309.05,96.91,308.17,95.42,307.16,95.87L307.16,95.87z"/>
								</g>
							</g>
							<g style="clip-path:url(#SVGID_00000023998877730817720820000006828361592029197199_);">
								<g>
									<path class="st9" d="M311.44,99.44c-5.79,2.61-11.93,4.33-17.99,6.17c-6.26,1.9-12.38,4.18-18.51,6.44
										c-6.29,2.31-12.56,4.65-18.8,7.08c-6.06,2.36-12.03,5.2-18.32,6.89c-3.31,0.89-6.68,1.35-10.03,2.03
										c-3.35,0.68-6.74,1.56-10.18,1.17c-1.11-0.13-1.1,1.61,0,1.73c2.87,0.33,5.75-0.22,8.55-0.8c2.99-0.62,6.02-1.07,9-1.72
										c6.51-1.41,12.53-4.14,18.7-6.57c6.38-2.51,12.81-4.93,19.24-7.3c6.33-2.33,12.63-4.76,19.07-6.75
										c6.78-2.09,13.66-3.95,20.15-6.87C313.33,100.48,312.45,98.99,311.44,99.44L311.44,99.44z"/>
								</g>
							</g>
							<g style="clip-path:url(#SVGID_00000023998877730817720820000006828361592029197199_);">
								<g>
									<path class="st9" d="M315.71,103.01c-5.79,2.61-11.93,4.33-17.99,6.17c-6.26,1.9-12.38,4.18-18.51,6.44
										c-6.29,2.31-12.56,4.65-18.8,7.08c-6.06,2.36-12.03,5.2-18.32,6.89c-3.31,0.89-6.68,1.35-10.03,2.03
										c-3.35,0.68-6.74,1.56-10.18,1.17c-1.11-0.13-1.1,1.61,0,1.73c2.87,0.33,5.75-0.22,8.55-0.8c2.99-0.62,6.02-1.07,9-1.72
										c6.51-1.41,12.53-4.14,18.7-6.57c6.38-2.51,12.81-4.93,19.24-7.3c6.33-2.33,12.63-4.76,19.07-6.75
										c6.78-2.09,13.66-3.95,20.15-6.87C317.6,104.05,316.72,102.55,315.71,103.01L315.71,103.01z"/>
								</g>
							</g>
							<g style="clip-path:url(#SVGID_00000023998877730817720820000006828361592029197199_);">
								<g>
									<path class="st9" d="M294.33,85.17c-5.79,2.61-11.93,4.33-17.99,6.17c-6.26,1.9-12.38,4.18-18.51,6.44
										c-6.29,2.31-12.56,4.65-18.8,7.08c-6.06,2.36-12.03,5.2-18.32,6.89c-3.31,0.89-6.68,1.35-10.03,2.03
										c-3.35,0.68-6.74,1.56-10.18,1.17c-1.11-0.13-1.1,1.61,0,1.73c2.87,0.33,5.75-0.22,8.55-0.8c2.99-0.62,6.02-1.07,9-1.72
										c6.51-1.41,12.53-4.14,18.7-6.57c6.38-2.51,12.81-4.93,19.24-7.3c6.33-2.33,12.63-4.76,19.07-6.75
										c6.78-2.09,13.66-3.95,20.15-6.87C296.22,86.21,295.34,84.71,294.33,85.17L294.33,85.17z"/>
								</g>
							</g>
							<g style="clip-path:url(#SVGID_00000023998877730817720820000006828361592029197199_);">
								<g>
									<path class="st9" d="M298.61,88.74c-5.79,2.61-11.93,4.33-17.99,6.17c-6.26,1.9-12.38,4.18-18.51,6.44
										c-6.29,2.31-12.56,4.65-18.8,7.08c-6.06,2.36-12.03,5.2-18.32,6.89c-3.31,0.89-6.68,1.35-10.03,2.03
										c-3.35,0.68-6.73,1.56-10.18,1.17c-1.11-0.13-1.1,1.61,0,1.73c2.87,0.33,5.75-0.22,8.55-0.8c2.99-0.62,6.02-1.07,9-1.72
										c6.51-1.41,12.53-4.14,18.7-6.57c6.38-2.51,12.81-4.93,19.24-7.3c6.33-2.33,12.63-4.76,19.07-6.75
										c6.78-2.09,13.66-3.95,20.15-6.87C300.5,89.77,299.62,88.28,298.61,88.74L298.61,88.74z"/>
								</g>
							</g>
							<g style="clip-path:url(#SVGID_00000023998877730817720820000006828361592029197199_);">
								<g>
									<path class="st9" d="M302.88,92.3c-5.79,2.61-11.93,4.33-17.99,6.17c-6.26,1.9-12.38,4.18-18.51,6.44
										c-6.29,2.31-12.56,4.65-18.8,7.08c-6.06,2.36-12.03,5.2-18.32,6.89c-3.31,0.89-6.68,1.35-10.03,2.03
										c-3.35,0.68-6.74,1.56-10.18,1.17c-1.11-0.13-1.1,1.61,0,1.73c2.87,0.33,5.75-0.22,8.55-0.8c2.99-0.62,6.02-1.07,9-1.72
										c6.51-1.41,12.53-4.14,18.7-6.57c6.38-2.51,12.81-4.93,19.24-7.3c6.33-2.33,12.63-4.76,19.07-6.75
										c6.78-2.09,13.66-3.95,20.15-6.87C304.77,93.34,303.89,91.85,302.88,92.3L302.88,92.3z"/>
								</g>
							</g>
							<g style="clip-path:url(#SVGID_00000023998877730817720820000006828361592029197199_);">
								<g>
									<path class="st9" d="M281.5,74.46c-5.79,2.61-11.93,4.33-17.99,6.17c-6.26,1.9-12.38,4.18-18.51,6.44
										c-6.29,2.31-12.56,4.65-18.8,7.08c-6.06,2.36-12.03,5.2-18.32,6.89c-3.31,0.89-6.68,1.35-10.03,2.03
										c-3.35,0.68-6.74,1.56-10.18,1.17c-1.11-0.13-1.1,1.61,0,1.73c2.87,0.33,5.75-0.22,8.55-0.8c2.99-0.62,6.02-1.07,9-1.72
										c6.51-1.41,12.53-4.14,18.7-6.57c6.38-2.51,12.81-4.93,19.24-7.3c6.33-2.33,12.63-4.76,19.07-6.75
										c6.78-2.09,13.66-3.95,20.15-6.87C283.39,75.5,282.51,74.01,281.5,74.46L281.5,74.46z"/>
								</g>
							</g>
							<g style="clip-path:url(#SVGID_00000023998877730817720820000006828361592029197199_);">
								<g>
									<path class="st9" d="M277.23,70.89c-5.79,2.61-11.93,4.33-17.99,6.17c-6.26,1.9-12.38,4.18-18.51,6.44
										c-6.29,2.31-12.56,4.65-18.8,7.08c-6.06,2.36-12.03,5.2-18.32,6.89c-3.31,0.89-6.68,1.35-10.03,2.03
										c-3.35,0.68-6.74,1.56-10.18,1.17c-1.11-0.13-1.1,1.61,0,1.73c2.87,0.33,5.75-0.22,8.55-0.8c2.99-0.62,6.02-1.07,9-1.72
										c6.51-1.41,12.53-4.14,18.7-6.57c6.38-2.51,12.81-4.93,19.24-7.3c6.33-2.33,12.63-4.76,19.07-6.75
										c6.78-2.09,13.66-3.95,20.15-6.87C279.12,71.93,278.24,70.44,277.23,70.89L277.23,70.89z"/>
								</g>
							</g>
							<g style="clip-path:url(#SVGID_00000023998877730817720820000006828361592029197199_);">
								<g>
									<path class="st9" d="M272.95,67.32c-5.79,2.61-11.93,4.33-17.99,6.17c-6.26,1.9-12.38,4.18-18.51,6.44
										c-6.29,2.31-12.56,4.65-18.8,7.08c-6.06,2.36-12.03,5.2-18.32,6.89c-3.31,0.89-6.68,1.35-10.03,2.03
										c-3.35,0.68-6.73,1.56-10.18,1.17c-1.11-0.13-1.1,1.61,0,1.73c2.87,0.33,5.75-0.22,8.55-0.8c2.99-0.62,6.02-1.07,9-1.72
										c6.51-1.41,12.53-4.14,18.7-6.57c6.38-2.51,12.81-4.93,19.24-7.3c6.33-2.33,12.63-4.76,19.07-6.75
										c6.78-2.09,13.66-3.95,20.15-6.87C274.84,68.36,273.96,66.87,272.95,67.32L272.95,67.32z"/>
								</g>
							</g>
							<g style="clip-path:url(#SVGID_00000023998877730817720820000006828361592029197199_);">
								<g>
									<path class="st9" d="M285.78,78.03c-5.79,2.61-11.93,4.33-17.99,6.17c-6.26,1.9-12.38,4.18-18.51,6.44
										c-6.29,2.31-12.56,4.65-18.8,7.08c-6.06,2.36-12.03,5.2-18.32,6.89c-3.31,0.89-6.68,1.35-10.03,2.03
										c-3.35,0.68-6.73,1.56-10.18,1.17c-1.11-0.13-1.1,1.61,0,1.73c2.87,0.33,5.75-0.22,8.55-0.8c2.99-0.62,6.02-1.07,9-1.72
										c6.51-1.41,12.53-4.14,18.7-6.57c6.38-2.51,12.81-4.93,19.24-7.3c6.33-2.33,12.63-4.76,19.07-6.75
										c6.78-2.09,13.66-3.95,20.15-6.87C287.67,79.07,286.79,77.57,285.78,78.03L285.78,78.03z"/>
								</g>
							</g>
							<g style="clip-path:url(#SVGID_00000023998877730817720820000006828361592029197199_);">
								<g>
									<path class="st9" d="M290.06,81.6c-5.79,2.61-11.93,4.33-17.99,6.17c-6.26,1.9-12.38,4.18-18.51,6.44
										c-6.29,2.31-12.56,4.65-18.8,7.08c-6.06,2.36-12.03,5.2-18.32,6.89c-3.31,0.89-6.68,1.35-10.03,2.03
										c-3.35,0.68-6.74,1.56-10.18,1.17c-1.11-0.13-1.1,1.61,0,1.73c2.87,0.33,5.75-0.22,8.55-0.8c2.99-0.62,6.02-1.07,9-1.72
										c6.51-1.41,12.53-4.14,18.7-6.57c6.38-2.51,12.81-4.93,19.24-7.3c6.33-2.33,12.63-4.76,19.07-6.75
										c6.78-2.09,13.66-3.95,20.15-6.87C291.95,82.64,291.07,81.14,290.06,81.6L290.06,81.6z"/>
								</g>
							</g>
						</g>
					</g>
				</g>
				<g>
					<g>
						<path class="st5" d="M222.26,26.08c0,0-2.7-8.17,9.63-14.01s19.31-3.68,19.31-3.68s2.66,13.12-11.51,18.82
							S222.26,26.08,222.26,26.08z"/>
						<g>
							<path d="M222.26,26.08c0.24-0.93,0.81-1.74,1.39-2.49c0.61-0.74,1.29-1.42,2.02-2.02c1.45-1.23,3.07-2.22,4.76-3.04
								c1.68-0.81,3.41-1.49,5.22-1.98c1.79-0.49,3.67-0.85,5.57-0.72l-9.78,4.78c-1.61,0.77-3.18,1.58-4.74,2.43
								C225.16,23.93,223.62,24.8,222.26,26.08z"/>
						</g>
					</g>
					<g>
						<path class="st5" d="M160.93,38.26c0,0,0.69-8.58-12.68-11.32s-19.64,1.01-19.64,1.01s0.53,13.38,15.64,15.55
							C159.37,45.67,160.93,38.26,160.93,38.26z"/>
						<g>
							<path d="M160.93,38.26c-1.62-0.92-3.33-1.4-5.03-1.9c-1.71-0.46-3.43-0.87-5.18-1.24l-10.63-2.32
								c1.81-0.57,3.72-0.67,5.58-0.62c1.87,0.04,3.72,0.29,5.54,0.68c1.83,0.4,3.64,0.97,5.34,1.82c0.85,0.41,1.67,0.91,2.44,1.49
								C159.73,36.76,160.47,37.41,160.93,38.26z"/>
						</g>
					</g>
					<path class="st5" d="M233.67,103.1c0,0,4.25-29.57,2.02-41.01c-3.3-16.92-12.37-40.24-12.37-40.24s4.97-6.66,3.68-13.01
						c-1.28-6.35-5.47-3.86-7.11-0.76c-1.64,3.09-6.35,6.51-6.35,6.51s-5.63-4.29-22.85-1.01l-4.76,0.99
						c-12.53,2.36-19.4,7.97-19.4,7.97s-5.54-1.77-8.07-4.2s-7.29-3.48-6.52,2.95c0.77,6.43,7.58,11.2,7.58,11.2
						s-1.49,28.88-1.21,40.53c0.29,11.65,10.41,39.45,10.41,39.45"/>
					<g>
						<path class="st6" d="M170.59,102.79c0,0-13.34,5.01-9.71,16.1c4.47,13.64,17.38,22.77,44.38,13.16S237.24,105.9,236,97.27
							c-1.31-9.09-8.02-9.68-15.41-9.72"/>
						<path d="M170.59,102.79c-2.7,1.31-5.14,3.14-7,5.37c-0.91,1.14-1.6,2.4-2.08,3.72l-0.24,1.02l-0.12,0.51l-0.03,0.52
							l-0.06,1.04c0.02,0.35,0.08,0.69,0.11,1.04c0.03,0.69,0.26,1.36,0.45,2.03c0.14,0.67,0.5,1.35,0.76,2.02
							c0.14,0.33,0.27,0.67,0.42,1l0.5,0.96c0.34,0.64,0.65,1.29,1.07,1.87c1.51,2.43,3.41,4.61,5.73,6.22
							c2.3,1.62,4.9,2.76,7.63,3.48c0.69,0.15,1.4,0.26,2.09,0.39c0.35,0.06,0.69,0.14,1.05,0.18l1.07,0.08
							c0.71,0.05,1.42,0.12,2.14,0.15l2.16-0.05c5.76-0.19,11.52-1.56,17.07-3.48c5.57-1.87,10.98-4.26,15.86-7.43
							c0.6-0.4,1.24-0.76,1.82-1.2l1.73-1.31l0.87-0.65l0.81-0.72l1.62-1.44c2.01-2.05,3.93-4.23,5.42-6.68
							c1.48-2.45,2.6-5.12,3.22-7.91c0.62-2.78,0.74-5.71-0.02-8.44c-0.36-1.35-0.94-2.64-1.84-3.69c-0.9-1.05-2.11-1.82-3.45-2.37
							c-1.34-0.54-2.8-0.84-4.27-1.05c-1.47-0.22-2.97-0.34-4.47-0.44c2.99-0.14,6.04-0.28,9.06,0.58c1.49,0.43,2.96,1.2,4.11,2.35
							c1.17,1.14,1.96,2.6,2.49,4.1c1.05,3.01,1.11,6.27,0.63,9.36c-0.49,3.11-1.62,6.09-3.11,8.85c-1.5,2.76-3.48,5.21-5.62,7.48
							l-1.7,1.6l-0.85,0.8l-0.91,0.73l-1.82,1.45c-0.61,0.48-1.27,0.88-1.9,1.33c-5.14,3.46-10.79,5.97-16.56,7.97
							c-5.79,1.93-11.85,3.38-18.1,3.47l-2.34-0.01c-0.78-0.06-1.57-0.15-2.35-0.22l-1.17-0.12c-0.39-0.05-0.78-0.15-1.16-0.23
							c-0.77-0.17-1.55-0.32-2.32-0.5c-3.06-0.87-5.98-2.3-8.49-4.26c-2.53-1.95-4.58-4.47-6.05-7.22c-0.42-0.67-0.71-1.39-1.03-2.1
							l-0.47-1.07c-0.14-0.36-0.26-0.73-0.38-1.1c-0.23-0.75-0.55-1.43-0.68-2.24c-0.16-0.79-0.38-1.56-0.36-2.38
							c-0.01-0.4-0.04-0.81-0.03-1.21l0.16-1.2l0.08-0.6l0.18-0.58c0.12-0.38,0.23-0.77,0.37-1.14c0.65-1.46,1.53-2.79,2.62-3.9
							C165.07,105.34,167.75,103.77,170.59,102.79z"/>
					</g>
					<g>
						<path d="M182.79,118.25c-1.87-0.4-3.68-0.85-5.38-0.97c-0.84-0.04-1.67,0.01-2.16,0.28c-0.24,0.12-0.38,0.27-0.5,0.48
							c-0.12,0.21-0.19,0.51-0.23,0.85c-0.07,0.74,0.03,1.39,0.35,1.84c0.32,0.47,0.96,0.86,1.74,1.11c1.59,0.48,3.46,0.55,5.36,0.6
							c-1.72,0.85-3.63,1.34-5.71,1.13c-1.02-0.12-2.21-0.49-3.07-1.49c-0.43-0.48-0.71-1.09-0.85-1.69
							c-0.15-0.6-0.14-1.18-0.11-1.74c0.06-0.58,0.21-1.2,0.57-1.8c0.35-0.6,0.96-1.08,1.57-1.33c1.25-0.46,2.36-0.31,3.34-0.06
							C179.67,116,181.35,116.98,182.79,118.25z"/>
					</g>
					<g>
						<path d="M214.9,109.68c1.48-1.2,2.97-2.33,4.14-3.58c0.55-0.63,1.04-1.31,1.13-1.85c0.06-0.27,0.03-0.47-0.06-0.69
							c-0.09-0.22-0.28-0.46-0.51-0.71c-0.54-0.52-1.1-0.85-1.66-0.88c-0.57-0.05-1.27,0.21-1.96,0.66
							c-1.37,0.94-2.6,2.35-3.84,3.79c0.42-1.87,1.24-3.67,2.71-5.16c0.73-0.72,1.77-1.41,3.09-1.46c0.64-0.03,1.29,0.14,1.85,0.4
							c0.56,0.26,1,0.63,1.42,1.01c0.41,0.42,0.8,0.92,1.05,1.57c0.24,0.65,0.24,1.43,0.05,2.05c-0.43,1.26-1.24,2.03-2.05,2.64
							C218.62,108.67,216.8,109.36,214.9,109.68z"/>
					</g>
					<path d="M172.85,91.58L172.85,91.58c-1.77,0.32-3.46-0.85-3.78-2.62l-1-5.49c-0.32-1.77,0.85-3.46,2.62-3.78l0,0
						c1.77-0.32,3.46,0.85,3.78,2.62l1,5.49C175.79,89.57,174.62,91.26,172.85,91.58z"/>
					<path d="M190.26,88.41L190.26,88.41c-1.77,0.32-3.46-0.85-3.78-2.62l-1-5.49c-0.32-1.77,0.85-3.46,2.62-3.78v0
						c1.77-0.32,3.46,0.85,3.78,2.62l1,5.49C193.2,86.4,192.03,88.09,190.26,88.41z"/>
				</g>
				<g>
					<g>
						<path d="M194.92,175.86c0,0-2.54-4.12-11.47-6.65s-15.12,4.14-15.12,4.14s5.02,4.33,15.1,7.67
							c10.08,3.34,12.77,0.35,12.77,0.35L194.92,175.86z"/>
					</g>
					<path class="st4" d="M189.51,177.2"/>
					<path class="st4" d="M196.55,140.87"/>
					<path class="st11" d="M192.89,179.45l-1.3-2.24c-0.74,0.5,6.73,6.18,20.59-7.98c4.78-4.88,13.2-26.2,13.2-26.2"/>
				</g>
				<g>
					<path d="M371.45,173.04c-3.31-5.21-15.66-8.44-21.48,4.4c-5.82,12.84,4.9,20.03-4.46,25.34c-9.36,5.3,9.35,6.04,17.73-1.68
						C372.81,192.28,376.34,180.72,371.45,173.04z"/>
				</g>
				<path class="st12" d="M368.21,89.41c0,0,24.26,16.43,10.96,46.17s-12.91,41.87-12.91,41.87"/>
			</g>
		</g>
		<circle cx="194.67" cy="152.33" r="7.24"/>
		<rect x="172.3" y="150.64" transform="matrix(0.9247 0.3807 -0.3807 0.9247 89.7432 -51.0346)" width="3.13" height="101.35"/>
		<path class="st13" d="M177.44,250.24c-2.37-10.31-11.59-18-22.62-18s-20.25,7.69-22.62,18H177.44z"/>
	</g>
	<g>
		<path d="M66.33,53.95c0,4.57-3.45,7.42-8.94,7.42h-3.51v5.26H48.2V46.51h9.2C62.88,46.51,66.33,49.35,66.33,53.95z M60.58,53.95
			c0-1.87-1.18-2.96-3.54-2.96h-3.16v5.89h3.16C59.41,56.89,60.58,55.79,60.58,53.95z"/>
		<path d="M81.58,62.72h-8.51l-1.58,3.91h-5.81l8.88-20.12h5.61l8.91,20.12h-5.92L81.58,62.72z M79.91,58.53l-2.59-6.44l-2.59,6.44
			H79.91z"/>
		<path d="M89.29,64.82l1.87-4.2c1.78,1.18,4.31,1.98,6.64,1.98c2.36,0,3.28-0.66,3.28-1.64c0-3.19-11.44-0.86-11.44-8.34
			c0-3.59,2.93-6.53,8.91-6.53c2.62,0,5.32,0.6,7.3,1.75l-1.75,4.23c-1.93-1.03-3.82-1.55-5.58-1.55c-2.39,0-3.25,0.81-3.25,1.81
			c0,3.08,11.41,0.78,11.41,8.19c0,3.51-2.93,6.5-8.91,6.5C94.46,67.03,91.18,66.14,89.29,64.82z"/>
		<path d="M108.26,56.57c0-6.04,4.74-10.46,11.18-10.46s11.18,4.43,11.18,10.46c0,6.04-4.74,10.46-11.18,10.46
			S108.26,62.61,108.26,56.57z M124.88,56.57c0-3.48-2.39-5.75-5.43-5.75s-5.43,2.27-5.43,5.75s2.39,5.75,5.43,5.75
			S124.88,60.05,124.88,56.57z"/>
		<path d="M102.72,100.96c0,6.1-5.6,10.02-13.84,10.02s-13.84-3.92-13.84-10.02c0-3.28,1.68-5.78,4.55-7.42
			c-2.14-1.5-3.42-3.69-3.42-6.42c0-5.65,5.19-9.29,12.7-9.29s12.7,3.64,12.7,9.29c0,2.73-1.27,4.92-3.42,6.42
			C101.03,95.18,102.72,97.69,102.72,100.96z M93.66,100.69c0-2.46-1.91-3.96-4.78-3.96c-2.87,0-4.78,1.5-4.78,3.96
			s1.91,3.96,4.78,3.96C91.75,104.65,93.66,103.15,93.66,100.69z M85.1,87.53c0,2.09,1.5,3.32,3.78,3.32c2.28,0,3.82-1.23,3.82-3.32
			c0-2.14-1.59-3.37-3.82-3.37C86.65,84.16,85.1,85.39,85.1,87.53z"/>
	</g>
</g>
</svg>
