<?xml version="1.0" encoding="utf-8"?>
<!-- Generator: Adobe Illustrator 25.4.1, SVG Export Plug-In . SVG Version: 6.00 Build 0)  -->
<svg version="1.1" xmlns="http://www.w3.org/2000/svg" xmlns:xlink="http://www.w3.org/1999/xlink" x="0px" y="0px"
	 viewBox="0 0 285.1 255.45" style="enable-background:new 0 0 285.1 255.45;" xml:space="preserve">
<style type="text/css">
	.st0{fill:#FFFFFF;stroke:#414042;stroke-width:2.0912;stroke-miterlimit:10;}
	.st1{fill:#0E1216;}
	.st2{fill:none;stroke:#000000;stroke-width:2;stroke-miterlimit:10;}
	.st3{fill:none;stroke:#000000;stroke-width:3;stroke-miterlimit:10;}
	.st4{fill:#FFFFFF;stroke:#000000;stroke-width:2;stroke-miterlimit:10;}
	.st5{fill:#FFFFFF;}
	.st6{clip-path:url(#SVGID_00000155845605423490356880000002239481981654412703_);}
	.st7{clip-path:url(#SVGID_00000067212384731389294120000011022766642661524143_);}
	.st8{fill:#2B2E31;}
	.st9{clip-path:url(#SVGID_00000002373000206300807310000007583519154488503973_);}
	.st10{fill:none;stroke:#000000;stroke-width:3;stroke-linecap:round;stroke-miterlimit:10;}
</style>
<g id="Capa_1">
</g>
<g id="Capa_2">
	<g>
		<path class="st0" d="M100.62,174.31H21.09c-6.78,0-12.27-5.5-12.27-12.27V29.28c0-6.78,5.5-12.27,12.27-12.27h79.54
			c6.78,0,12.27,5.5,12.27,12.27v132.76C112.9,168.82,107.4,174.31,100.62,174.31z"/>
		<g>
			<path class="st1" d="M24.68,41.61c-0.2-0.37-0.4-0.53-0.57-0.79c-0.18-0.23-0.35-0.4-0.56-0.48c-0.41-0.18-1.04,0.21-1.3,0.5
				c-0.1,0.09-0.11,0.12-0.14,0.2c-0.03,0.11-0.04,0.21-0.07,0.32l-0.94-1.54c-0.04-0.05-0.18-0.11-0.21-0.13
				c-1.77-0.6-2.14,0.68-2.15,1.39c-0.01,0.11,0,0.13,0.04,0.19l2.37,3.88c0.13,0.21,0.26,0.41,0.39,0.62c0,0.04,0,0.07-0.01,0.11
				c-0.07,1.79-0.04,3.57,0.05,5.35c0.05,0.89,0.11,1.78,0.21,2.68c0.02,0.22,0.04,0.45,0.08,0.67l0.12,0.88l0.21,1.28
				c0.05,0.2,0.05,0.46,0.13,0.61l0.6,0.01l2.16,0.04l1.32,0c0.88,0,1.77-0.02,2.67-0.06c0.9-0.05,1.81-0.11,2.74-0.27
				c0.93-0.16,1.9-0.38,2.88-0.86c0.98-0.45,1.92-1.33,2.46-2.33c0.54-1,0.75-2,0.91-2.94c0.27-1.89,0.27-3.65,0.3-5.41l0.06-5.6
				c0.38-0.42,0.75-0.84,1.13-1.25l1.04-1.09l0.91-0.93c0,0,1.25-1.43,2.52-2.79c1.27-1.36,2.56-2.66,2.42-2.58
				c2.09-2.23,3.25-4-0.92-1.2c-1.25,0.8-2.68,1.89-3.79,2.79c-1.11,0.9-1.91,1.6-1.91,1.6c-0.6,0.61-1.21,1.21-1.79,1.84
				c-0.68,0.72-1.35,1.45-2.01,2.18l-0.28-0.07c-0.46-0.09-0.92-0.19-1.38-0.26c0,0-0.51-0.05-1.26-0.09
				c-0.76-0.03-1.76-0.02-2.73,0.05c-1.96,0.14-3.8,0.52-3.63,0.53C25.21,39,24,39.48,23.8,39.78c-0.21,0.32,0.59,0.42,3.04,0.38
				c1.45,0.02,3.17,0.1,4.51,0.26c1.34,0.16,2.29,0.38,2.29,0.38c0.11,0.02,0.22,0.04,0.34,0.06c-1.69,2.01-3.32,4.08-4.85,6.22
				c-0.34,0.47-0.68,0.95-1.01,1.44l-0.65,0.95c-0.01,0.01-0.03,0.05-0.03,0.04l-0.17-0.22c-1.05-1.35-2.01-2.79-2.95-4.26
				c0.07-1.15,0.19-2.3,0.43-3.25C24.74,41.74,24.7,41.63,24.68,41.61z M24.4,50.04c0.2,0.27,0.39,0.53,0.6,0.8l0.33,0.42l0.61,0.73
				c0.41,0.49,0.82,0.97,1.23,1.45l0.31,0.36l0.16,0.18c0.03,0.02,0.05,0.09,0.08,0.06l0.06-0.1l0.52-0.78l1.78-2.65
				c0.71-1.05,1.44-2.08,2.2-3.1c1.09-1.47,2.24-2.9,3.41-4.31l-0.02,1.86c-0.02,1.76-0.03,3.52-0.22,5.16
				c-0.1,0.81-0.26,1.58-0.53,2.17c-0.27,0.61-0.63,1.02-1.18,1.34c-1.11,0.66-2.86,0.85-4.52,0.96c-0.85,0.04-1.71,0.07-2.58,0.07
				l-1.92-0.01c-0.09,0-0.08,0-0.08,0l-0.04-0.28c-0.03-0.21-0.06-0.42-0.08-0.63c-0.09-0.85-0.16-1.71-0.2-2.58
				c-0.02-0.43-0.03-0.86-0.04-1.3C24.31,49.92,24.35,49.98,24.4,50.04z"/>
			<path class="st1" d="M19.99,64.9c-0.07,0.09-0.07,0.11-0.08,0.18c-0.07,1.54-0.09,3.08-0.07,4.62c0.02,1.8,0.08,3.59,0.18,5.38
				l0.18,3.02l0.09,1.33l0.02,0.33l0.01,0.17c0.05,0,0.11,0,0.16,0.01l0.66,0.01l2.17,0.05c1.77,0.04,3.54,0.1,5.36,0.08
				c0.91-0.01,1.83-0.04,2.79-0.15c0.95-0.12,1.96-0.29,2.99-0.76c1.02-0.47,2.03-1.38,2.51-2.44c0.51-1.04,0.69-2.07,0.79-3.05
				c0.19-1.96,0.02-3.78-0.15-5.59c-0.09-0.9-0.2-1.8-0.32-2.69l-0.31-2.17l-0.08-0.58c0.01-0.07-0.05-0.06-0.11-0.06l-0.17-0.01
				l-0.33-0.02l-1.32-0.07l-1.32-0.05l-0.67-0.01l-1.34,0c0,0-1.96,0.12-3.86,0.39c-1.9,0.25-3.72,0.62-3.56,0.63
				c-1.08,0.25-2,0.54-2.52,0.8C20.94,63.91,20.3,64.45,19.99,64.9z M24.31,64.96c1.46,0.03,3.21,0.04,4.6,0.09
				c1.38,0.05,2.4,0.11,2.4,0.11l1.3,0l0.65,0.01l0.79,0.02l0.45,0.02c0-0.02,0.01,0.05,0.02,0.1l0.02,0.16l0.14,1.04l0.16,1.32
				c0.19,1.76,0.33,3.52,0.24,5.17c-0.05,0.82-0.18,1.6-0.43,2.22c-0.27,0.61-0.59,1.04-1.13,1.34c-1.1,0.62-2.9,0.73-4.61,0.77
				c-1.75,0.02-3.54-0.03-5.34-0.07l-0.67-0.02c0,0,0,0,0,0l-0.13-2.21c-0.09-1.79-0.16-3.57-0.18-5.35
				c-0.01-1.5,0.01-2.99,0.07-4.47c-0.01-0.06-0.08-0.19-0.1-0.22c-0.01-0.02-0.02-0.03-0.04-0.04
				C22.97,64.96,23.55,64.97,24.31,64.96z"/>
			<path class="st1" d="M19.51,100.15l-0.11,2.33c0,0.11-0.03,0.25,0,0.34l0.34,0.09l0.68,0.18l1.24,0.33
				c0.92,0.24,1.85,0.47,2.79,0.67c1.88,0.39,3.78,0.76,5.83,0.79c1.02,0.02,2.08-0.05,3.2-0.38c1.1-0.3,2.26-1.06,2.98-2.09
				c0.73-1.03,1.04-2.15,1.22-3.18c0.18-1.04,0.21-2.04,0.23-3.02c0.02-1.96-0.12-3.85-0.24-5.73l-0.19-2.97l-0.09-1.35l-0.04-0.68
				l-0.01-0.17c-0.04-0.02-0.11-0.01-0.17-0.02l-0.35-0.02l-1.4-0.06l-0.65-0.02l-0.36-0.01l-1.22,0L32.5,85.2
				c-0.45,0.01-0.9,0.04-1.35,0.07c0,0-1.97,0.24-3.85,0.66c-1.88,0.4-3.68,0.96-3.51,0.95c-1.49,0.5-2.65,1.12-2.82,1.44
				c-0.17,0.35,0.63,0.35,3.06,0.06c1.45-0.12,3.18-0.26,4.56-0.31c1.37-0.05,2.39-0.05,2.39-0.05c0.43-0.04,0.86-0.05,1.29-0.08
				l0.65-0.02l0.32-0.01l0.48,0l0.69,0l0.35,0.01c0,0,0.01-0.01,0.01,0.04l0.14,2.12c0.12,1.9,0.25,3.8,0.27,5.64
				c0,0.92-0.03,1.82-0.14,2.67c-0.11,0.84-0.32,1.63-0.66,2.21c-0.33,0.59-0.8,0.94-1.46,1.2c-0.66,0.25-1.48,0.34-2.34,0.35
				c-1.72,0.01-3.55-0.31-5.36-0.69c-0.91-0.19-1.82-0.41-2.72-0.65l-0.26-0.07l0,0l0,0l0.01-0.39l0.13-5.73
				c0.05-1.49,0.14-2.95,0.36-4.36c0-0.06-0.06-0.19-0.08-0.22c-0.46-0.76-0.96-1.03-1.42-1.01c-0.45,0.02-0.87,0.34-1.11,0.63
				c-0.08,0.08-0.08,0.11-0.09,0.18c-0.25,1.59-0.34,3.15-0.39,4.7L19.51,100.15z"/>
			<path class="st1" d="M50.17,45.59c-0.76,0.08-1.53,0.21-2.29,0.32c-0.06,0.02-0.18,0.12-0.2,0.14c-1.25,1.38-0.2,2.23,0.44,2.53
				c0.09,0.05,0.12,0.05,0.18,0.04c0.73-0.1,1.46-0.23,2.2-0.31l2.22-0.23c7.21-0.63,14.53-0.62,21.84-0.55l10.99,0.17l8.64,0.1
				c0,0,1.92-0.12,3.8-0.24c1.88-0.14,3.72-0.29,3.56-0.33c3.08-0.41,5.02-1.07,0.07-1.52c-2.92-0.36-7.06-0.65-7.06-0.65l-8.4-0.09
				L74.96,44.8c-7.47-0.07-14.97-0.1-22.5,0.55L50.17,45.59z"/>
			<path class="st1" d="M93.08,66.9C90.16,66.51,86,66.23,86,66.23l-2.53,0c-9.22-0.02-18.45-0.19-27.69-0.39l-4.53-0.1
				c-0.06,0.01-0.19,0.09-0.22,0.11c-1.46,1.15-0.61,2.16-0.02,2.57c0.09,0.07,0.11,0.07,0.18,0.07l4.54,0.1l15.46,0.28l7.74,0.08
				l6.71,0.02c0,0,1.92-0.12,3.8-0.25c1.88-0.13,3.71-0.28,3.55-0.31C96.07,68.05,98.03,67.42,93.08,66.9z"/>
			<path class="st1" d="M100.8,92c-2.9-0.51-7.05-0.92-7.05-0.92L75.34,90.5c-6.94-0.19-13.89-0.34-20.84-0.37l-4.55,0
				c-0.06,0.01-0.19,0.09-0.21,0.11c-1.43,1.18-0.56,2.18,0.04,2.57c0.09,0.07,0.11,0.07,0.18,0.07l4.53,0
				c6.81,0.03,13.61,0.17,20.43,0.35l18.39,0.57c0,0,7.67-0.21,7.36-0.28C103.73,93.28,105.73,92.73,100.8,92z"/>
			<path class="st1" d="M78,53.62c-2.89-0.5-7.02-1.02-7.02-1.02l-2.53-0.13c-4.51-0.22-9.08-0.34-13.68,0.08
				c-1.54,0.16-3.09,0.34-4.62,0.65c-0.06,0.02-0.17,0.12-0.2,0.15c-1.21,1.44-0.1,2.24,0.53,2.51c0.1,0.05,0.12,0.04,0.18,0.03
				c1.43-0.29,2.89-0.47,4.36-0.62c4.37-0.4,8.82-0.29,13.29-0.07l2.16,0.11c0,0,1.92-0.02,3.8-0.04c1.89-0.03,3.74-0.1,3.58-0.14
				C80.97,54.88,82.92,54.3,78,53.62z"/>
			<path class="st1" d="M93.84,98.15c-2.89-0.59-7.04-1.09-7.04-1.09l-6.82-0.32c-2.72-0.11-5.44-0.2-8.16-0.25
				c-5.45-0.12-10.91-0.08-16.37,0.16c-1.52,0.08-3.04,0.15-4.56,0.27c-0.06,0.02-0.18,0.1-0.21,0.13c-1.35,1.28-0.4,2.21,0.22,2.56
				c0.09,0.06,0.11,0.06,0.18,0.05c1.5-0.11,2.99-0.19,4.49-0.27c5.29-0.24,10.6-0.28,15.91-0.17c2.66,0.04,5.31,0.14,7.97,0.24
				l6.84,0.31c0,0,1.91-0.02,3.79-0.04c1.88-0.02,3.72-0.04,3.56-0.08C96.73,99.51,98.75,99.02,93.84,98.15z"/>
			<path class="st1" d="M88.61,73.85c-2.89-0.54-7.02-1.06-7.02-1.06l-2.53-0.14C71.88,72.3,64.61,72,57.31,73.11
				c-0.77,0.1-1.53,0.26-2.3,0.42c-0.77,0.14-1.53,0.34-2.29,0.55c-0.06,0.03-0.16,0.14-0.19,0.17c-1.09,1.52,0.08,2.23,0.73,2.46
				c0.1,0.04,0.12,0.04,0.18,0.02c0.7-0.2,1.4-0.38,2.12-0.51c0.72-0.15,1.43-0.3,2.16-0.4c6.91-1.06,14.05-0.79,21.18-0.44
				l2.16,0.12c0,0,1.92-0.01,3.8-0.03c1.88-0.02,3.73-0.07,3.57-0.11C91.55,75.15,93.52,74.61,88.61,73.85z"/>
		</g>
		<path class="st1" d="M48.47,125.14c-0.57,0.47-0.22,0.86,0.01,1.01c0.03,0.03,0.04,0.03,0.07,0.03l1.79,0.01
			c0.87,0.01,1.73,0.03,2.6,0.04c0.1,0.07,0.18,0.12,0.23,0.12c0.05,0,0.06-0.04,0.03-0.12c0.96,0.02,1.93,0.03,2.89,0.05
			c0.41,0.32,0.66,0.43,0.43,0.01c0.61,0.01,1.22,0.03,1.83,0.05l0.02,0.84c0.07,2.1,0.18,4.2,0.29,6.3l0.06,1.27
			c-6.88-0.15-13.8-0.35-20.71,0.21l-1.8,0.16c-0.02,0.01-0.07,0.04-0.08,0.05c-0.19,0.19-0.26,0.35-0.26,0.5l-0.27,0.08l0.12,1.4
			c0.05,0.7,0.09,1.39,0.12,2.09l0.03,0.85c0,0,0.06,0.75,0.1,1.48c0.04,0.74,0.05,1.46,0.06,1.39c0.03,0.6,0.08,1.11,0.17,1.22
			c0.09,0.11,0.25-0.17,0.42-1.15c0.12-0.58,0.21-1.29,0.25-1.85c0.05-0.56,0.07-0.98,0.07-0.98l-0.03-1.01
			c-0.03-0.71-0.07-1.42-0.12-2.13l-0.07-0.87c0.01-0.01,0.01-0.02,0.02-0.03l1.35-0.12c6.84-0.56,13.73-0.36,20.63-0.21
			c0.01,0,0.03,0,0.04,0l0.17,3.49c0,0,0.08,0.75,0.15,1.49c0.08,0.74,0.15,1.46,0.16,1.4c0.16,1.21,0.42,1.99,0.6,0.02
			c0.13-1.16,0.17-2.82,0.17-2.82l-0.13-2.69l-0.05-0.87c3.08,0.06,6.16,0.11,9.24,0.06l2.6-0.07l2.6-0.12l1.76-0.13
			c0,0,0.76-0.1,1.49-0.21c0.74-0.13,1.46-0.26,1.39-0.26c1.2-0.26,1.94-0.58-0.03-0.6c-0.58-0.02-1.28-0.01-1.83-0.01
			c-0.56,0-0.97,0-0.97,0l-1.27,0.1c-1.74,0.11-3.49,0.18-5.23,0.22c-3.26,0.07-6.53,0.02-9.81-0.04l-0.06-1.25
			c-0.11-2.13-0.22-4.26-0.29-6.39l-0.02-0.77c0.36,0.01,0.72,0.02,1.08,0.03l3.6,0.12c0.08,0.05,0.13,0.06,0.14,0l5.2,0.17
			c0,0,3.03-0.08,2.91-0.11c1.22-0.09,2.01-0.31,0.06-0.6c-1.15-0.2-2.79-0.37-2.79-0.37l-3.07-0.1c-0.05-0.15-0.16-0.39-0.35-0.75
			c-0.43-0.85-1.13-2-1.13-2l-1.37-1.96l-1.7-2.47c-1.13-1.65-2.23-3.32-3.28-5.01c-0.13-0.21-0.25-0.42-0.38-0.64
			c0.64-0.03,1.27-0.06,1.9-0.09l0.74,1.18c1.03,1.6,2.09,3.17,3.14,4.74l1.58,2.36l0.78,1.18l0.51,0.79c0,0,0.36,0.5,0.72,0.99
			c0.35,0.49,0.69,0.97,0.68,0.93c0.6,0.79,1.09,1.25,0.43-0.23c-0.37-0.88-1.02-2.07-1.02-2.07l-0.48-0.75l-0.79-1.21l-1.61-2.4
			c-1.08-1.6-2.15-3.19-3.19-4.8l-0.47-0.75c0.66-0.03,1.32-0.05,1.98-0.08c0.1,0.12,0.2,0.24,0.29,0.36
			c1.35,1.69,2.63,3.44,3.86,5.23l0.39,0.58c0,0,0.37,0.49,0.74,0.97c0.37,0.48,0.72,0.96,0.7,0.91c0.11,0.14,0.21,0.26,0.31,0.37
			c0.02,0.22,0.05,0.47,0.07,0.72c0.07,0.74,0.12,1.46,0.13,1.4c0.12,1.2,0.34,2.01,0.6,0.04c0.17-1.16,0.21-2.83,0.21-2.83
			l-0.05-1.01c-0.1-1.93-0.22-3.85-0.22-5.76c0-0.44,0.01-0.88,0.03-1.32c1.56-0.12,2.45-0.39-0.2-0.84
			c-1.66-0.32-4.06-0.45-4.06-0.45l-1.45,0.03c-4.28,0.11-8.53,0.43-12.77,0.55c-0.86,0.02-1.71,0.04-2.57,0.04
			c-0.04,0.01-0.11,0.05-0.12,0.06c-0.31,0.26-0.43,0.5-0.44,0.71c0,0-0.01,0.01-0.01,0.01l-0.02,0.03l-0.01,0.01
			c-0.01,0.02-0.03,0.03-0.04,0.05l-0.03,0.03c-0.04,0.04-0.07,0.07-0.09,0.1c-0.03,0.03-0.04,0.05-0.04,0.07l-0.04,0.24
			c-0.02,0.09-0.03,0.17-0.03,0.25l-0.04,0.47c-0.03,0.31-0.04,0.61-0.05,0.92c-0.09,2.11,0.03,4.21,0.1,6.28l0.03,0.86
			c0,0,0.07,0.75,0.12,1.49c0.06,0.74,0.09,1.46,0.1,1.4c0.02,0.25,0.04,0.48,0.07,0.68l-0.18,0
			C48.53,125.11,48.48,125.14,48.47,125.14z M68.02,112.25c0.44-0.03,0.87-0.05,1.22-0.06c-0.01,0.42-0.02,0.83-0.02,1.24
			c0,0.42,0.01,0.83,0.02,1.25c-0.01-0.03-0.02-0.05-0.02-0.05s-0.45-0.62-0.9-1.24c-0.33-0.45-0.63-0.9-0.77-1.12
			C67.7,112.27,67.86,112.26,68.02,112.25z M64.65,112.42l1.23-0.02c0,0,0.38-0.03,0.9-0.06c-0.01,0.01-0.02,0.01-0.02,0.02
			c-0.02,0.03-0.03,0.07-0.04,0.1c-0.01,0.03-0.02,0.04-0.03,0.06c-0.01,0.02-0.01,0.03-0.01,0.03c0.02,0.08,0.45,0.73,0.9,1.35
			c0.45,0.62,0.9,1.23,0.9,1.23s0.67,0.65,0.66,0.61c0.04,0.03,0.09,0.06,0.13,0.09c0.05,1.15,0.11,2.29,0.17,3.42l0.03,0.59
			c-0.39-0.78-0.86-1.6-0.86-1.6l-0.46-0.68c-1.2-1.75-2.46-3.46-3.78-5.13C64.46,112.43,64.56,112.42,64.65,112.42z M52.59,125.14
			c-0.22-0.36-0.42-0.71-0.59-0.98c-0.25-0.4-0.42-0.67-0.42-0.67l-0.5-0.66c-0.17-0.22-0.35-0.44-0.54-0.66
			c-0.32-0.37-0.66-0.73-1.03-1.08l-0.01-0.46c-0.02-0.47-0.03-0.93-0.05-1.4c1.2,1.72,2.63,3.19,4.04,4.67l0.49,0.5
			c0,0,0.41,0.37,0.84,0.76C54.07,125.16,53.33,125.15,52.59,125.14z M57.37,112.74c0.21,0.35,0.42,0.7,0.63,1.05
			c1.04,1.69,2.13,3.33,3.25,4.96l1.68,2.44l1.4,2c0,0,1.54,1.94,1.5,1.84c0.17,0.19,0.33,0.37,0.46,0.49l-2.53-0.09
			c-0.46-0.8-1.09-1.75-1.09-1.75l-1.51-1.99c-0.64-0.85-1.27-1.71-1.89-2.58c-1.22-1.74-2.39-3.52-3.28-5.41
			c-0.13-0.29-0.26-0.58-0.37-0.88C56.2,112.8,56.78,112.77,57.37,112.74z M54.68,112.87c0.15,0.41,0.33,0.81,0.5,1.21
			c0.92,1.94,2.09,3.72,3.3,5.45c0.61,0.86,1.23,1.72,1.87,2.56l1.54,2.03c0,0,0.65,0.75,1.11,1.28l-1.83-0.06
			c-0.07-0.14-0.17-0.32-0.31-0.55c-0.48-0.82-1.25-1.93-1.25-1.93l-1.51-1.91c-0.63-0.81-1.26-1.62-1.86-2.44
			c-1.21-1.64-2.36-3.33-3.33-5.11c-0.08-0.15-0.16-0.31-0.24-0.46C53.34,112.92,54.01,112.9,54.68,112.87z M51.69,112.98
			c0.14,0.29,0.29,0.57,0.44,0.85c0.98,1.8,2.13,3.5,3.33,5.13c0.6,0.82,1.22,1.62,1.84,2.42l1.54,1.95c0,0,1.66,1.84,1.61,1.74
			c0.09,0.09,0.17,0.17,0.26,0.25c-0.45-0.01-0.89-0.02-1.34-0.04c0-0.01-0.01-0.02-0.01-0.02c-0.28-0.32-0.52-0.34-0.71-0.25
			c-0.04-0.07-0.09-0.15-0.14-0.23c-0.49-0.82-1.28-1.91-1.28-1.91l-1.54-1.84c-0.64-0.77-1.28-1.53-1.91-2.31
			c-1.26-1.55-2.47-3.12-3.55-4.78c-0.2-0.31-0.39-0.62-0.57-0.94C50.35,113.01,51.02,113,51.69,112.98z M49.39,114.45
			c0-0.06,0.01-0.11,0.01-0.17c0.03,0.05,0.06,0.1,0.1,0.16c1.08,1.68,2.3,3.25,3.54,4.78c0.62,0.77,1.25,1.53,1.89,2.28l1.56,1.86
			c0,0,0.42,0.45,0.84,0.89c0.41,0.44,0.82,0.87,0.79,0.83c0.06,0.06,0.13,0.13,0.19,0.18c-0.85-0.02-1.71-0.05-2.56-0.07
			c-0.51-0.66-1.06-1.31-1.06-1.31l-0.57-0.58c-1.42-1.48-2.85-2.97-3.99-4.61c-0.13-0.2-0.25-0.39-0.37-0.59l-0.15-0.3l-0.08-0.15
			l-0.05-0.15c-0.01-0.02-0.04-0.04-0.05-0.04c-0.01-0.01-0.03-0.01-0.04-0.02C49.36,116.44,49.35,115.44,49.39,114.45z
			 M49.26,124.48c0.12-0.69,0.19-1.55,0.23-2.14c0.13,0.14,0.25,0.27,0.38,0.42c0.18,0.2,0.35,0.41,0.52,0.63l0.42,0.55
			c0,0,0.4,0.47,0.79,0.93c0.08,0.09,0.15,0.18,0.23,0.27c-0.49-0.01-0.98-0.02-1.48-0.02l-1.2-0.01
			C49.18,124.94,49.22,124.73,49.26,124.48z"/>
		<path class="st1" d="M27.01,158.15c0.05,0.37,0.14,0.47,0.29,0.08c0.55,0.01,1.11,0,1.66-0.01c2.04-0.05,4.08-0.21,6.1-0.4
			l3.02-0.28l1.51-0.13l1.11-0.08c0,0,0.75-0.09,1.48-0.18c0.73-0.09,1.45-0.15,1.39-0.16c1.2-0.15,1.99-0.39,0.02-0.6
			c-1.16-0.14-2.83-0.14-2.83-0.14l-1,0.07c-2.3,0.18-4.59,0.42-6.87,0.6c-0.07-0.14-0.17-0.32-0.32-0.56
			c-0.48-0.82-1.24-1.93-1.24-1.93l-0.5-0.64c-0.45-0.58-0.9-1.17-1.33-1.76c-0.29-0.39-0.57-0.78-0.85-1.18
			c-0.01-0.01-0.06-0.03-0.07-0.04c-0.06-0.02-0.12-0.03-0.18-0.03c0.06-0.88,0.1-1.77,0.14-2.65c0.06,0.16,0.13,0.31,0.2,0.46
			c0.1,0.24,0.23,0.45,0.35,0.68c0.86,1.52,1.97,2.83,3.08,4.11l0.46,0.53c0,0,0.43,0.44,0.86,0.87c0.43,0.43,0.83,0.85,0.8,0.81
			c0.69,0.69,1.25,1.1,0.4-0.29c-0.5-0.82-1.33-1.89-1.33-1.89l-0.54-0.61c-1.1-1.26-2.17-2.54-2.97-3.96
			c-0.11-0.21-0.23-0.41-0.32-0.62c-0.1-0.21-0.2-0.42-0.27-0.64c-0.01-0.02-0.05-0.04-0.06-0.05c-0.33-0.19-0.54-0.11-0.65,0.03
			c0.01-0.2,0.02-0.41,0.02-0.61c0.01-0.48,0.02-0.97,0.02-1.45c0.18,0.03,0.35,0.05,0.53,0.07c0,0,0,0.01,0,0.01
			c0.23,0.45,0.48,0.88,0.73,1.3c1.43,2.33,3.15,4.42,4.87,6.47l0.45,0.54c0,0,1.7,1.8,1.65,1.71c0.71,0.7,1.27,1.07,0.4-0.29
			c-0.5-0.81-1.3-1.9-1.3-1.9l-0.52-0.62c-1.72-2.05-3.41-4.12-4.79-6.37c-0.15-0.24-0.29-0.49-0.43-0.74
			c0.04,0,0.08,0.01,0.12,0.01c0.85,0.07,1.7,0.1,2.55,0.11c-0.1,0.08-0.15,0.21-0.17,0.31c-0.01,0.03-0.01,0.04,0,0.06
			c0.08,0.24,0.19,0.48,0.29,0.71c0.1,0.23,0.22,0.46,0.33,0.68c0.97,1.83,2.22,3.44,3.46,5.03l0.43,0.55c0,0,0.41,0.46,0.81,0.92
			c0.4,0.45,0.79,0.9,0.76,0.85c0.67,0.73,1.21,1.14,0.41-0.27c-0.46-0.84-1.22-1.95-1.22-1.95l-0.5-0.64
			c-1.23-1.58-2.45-3.17-3.37-4.9c-0.11-0.21-0.22-0.42-0.31-0.64c-0.1-0.21-0.19-0.43-0.27-0.65c-0.01-0.02-0.05-0.04-0.06-0.05
			c-0.02-0.01-0.03-0.01-0.04-0.02c0.64,0,1.27-0.01,1.91-0.02c-0.02,0.06-0.03,0.11-0.03,0.16c-0.01,0.04,0,0.04,0.01,0.06
			c0.23,0.45,0.49,0.87,0.75,1.3c0.85,1.36,1.79,2.65,2.72,3.93l0.41,0.57c0,0,1.58,1.91,1.52,1.82c0.65,0.74,1.18,1.16,0.41-0.26
			c-0.44-0.85-1.16-1.99-1.16-1.99l-0.48-0.66c-0.93-1.28-1.86-2.56-2.68-3.88c-0.22-0.36-0.43-0.72-0.63-1.08
			c0.38-0.01,0.77-0.03,1.15-0.05c0.23,0.38,0.47,0.76,0.71,1.14c0.98,1.51,2.02,2.96,3.07,4.4l0.41,0.57c0,0,1.58,1.91,1.53,1.82
			c0.66,0.74,1.19,1.15,0.41-0.26c-0.44-0.84-1.17-1.98-1.17-1.98l-0.48-0.66c-1.05-1.44-2.08-2.88-3.04-4.36
			c-0.15-0.23-0.29-0.47-0.44-0.7c0.41-0.02,0.81-0.04,1.22-0.05c0.23,0.33,0.46,0.67,0.69,0.99l0.78,1.08l0.42,0.56
			c0,0,0.4,0.47,0.8,0.93c0.4,0.46,0.8,0.9,0.77,0.85c0.69,0.72,1.24,1.1,0.4-0.27c-0.47-0.83-1.21-1.95-1.21-1.95l-0.49-0.65
			l-0.77-1.07c-0.12-0.17-0.24-0.35-0.36-0.52l0.34-0.01c0,0,0.75-0.07,1.49-0.13c0.74-0.06,1.46-0.09,1.39-0.11
			c0.13-0.01,0.26-0.02,0.38-0.04c-0.05,0.6-0.06,1.19-0.06,1.78c0.02,1.71,0.18,3.4,0.34,5.07l0.09,0.86c0,0,0.12,0.75,0.24,1.48
			c0.12,0.73,0.22,1.45,0.22,1.39c0.2,1.19,0.47,1.98,0.6,0c0.09-1.17,0.03-2.83,0.03-2.83l-0.1-1c-0.17-1.67-0.32-3.33-0.33-4.97
			c0-0.59,0.01-1.17,0.06-1.75c0-0.02-0.03-0.07-0.04-0.09c-0.19-0.28-0.38-0.36-0.55-0.35c-0.19-0.05-0.46-0.1-0.82-0.15
			c-1.16-0.19-2.82-0.25-2.82-0.25l-1,0.04c-3.24,0.13-6.46,0.36-9.63,0.11c-0.58-0.05-1.17-0.11-1.74-0.21
			c-0.02,0-0.08,0.02-0.09,0.03c-0.19,0.11-0.29,0.23-0.34,0.34c-0.31-0.13-0.56,0.11-0.68,0.28c-0.03,0.03-0.03,0.04-0.03,0.07
			c0,0.6-0.01,1.19-0.03,1.79c-0.06,2.19-0.19,4.38-0.38,6.56l-0.06,0.68c-0.07,0.05-0.12,0.11-0.15,0.15
			c-0.01,0.02-0.01,0.02-0.01,0.03c0,0.01,0.05,0.13,0.13,0.3c-0.01,0.29-0.03,0.74-0.04,1.19c-0.03,0.74-0.06,1.47-0.04,1.41
			c0,0.02,0,0.05,0,0.07C26.61,157.67,26.81,157.98,27.01,158.15z M28.12,154.56l0.09-1c0.05-0.55,0.09-1.1,0.13-1.66
			c0.15,0.21,0.31,0.43,0.46,0.64c0.44,0.6,0.89,1.19,1.35,1.78l0.43,0.55c0,0,0.41,0.46,0.82,0.92c0.41,0.45,0.81,0.89,0.78,0.84
			c0.11,0.12,0.22,0.22,0.32,0.31c-0.78,0.06-1.56,0.11-2.34,0.14c-0.14-0.19-0.25-0.33-0.25-0.33s-0.17-0.16-0.41-0.39
			c-0.24-0.24-0.56-0.56-0.85-0.89c-0.22-0.26-0.42-0.53-0.56-0.77C28.11,154.61,28.12,154.56,28.12,154.56z M27.87,155.91
			c0.03,0.04,0.06,0.08,0.09,0.12c0.31,0.37,0.64,0.7,0.9,0.95c0.06,0.06,0.12,0.11,0.17,0.16c-0.03,0-0.06,0-0.09,0
			c-0.45,0.01-0.89,0.01-1.33,0.01C27.7,156.75,27.79,156.31,27.87,155.91z"/>
		<path class="st1" d="M49.46,145.07c-0.19,0.78-0.02,1.41-0.01,1.96c0.14,2.38,0.18,4.72,0.14,7.1l-0.02,0.86
			c0,0,0.03,0.76,0.06,1.5c0.03,0.74,0.05,1.47,0.07,1.41c0.09,1.18,0.29,1.95,0.57,0.24c0.07,0.07,0.14,0.13,0.21,0.16
			c0.04,0.02,0.05,0.02,0.07,0.02c0.59-0.05,1.18-0.07,1.77-0.09c3.16-0.09,6.34,0.02,9.54,0.01l0.86,0c0,0,0.76-0.05,1.51-0.12
			c0.74-0.06,1.47-0.16,1.41-0.16c1.22-0.2,1.97-0.49,0.01-0.6c-1.15-0.1-2.79-0.2-2.79-0.2l-1,0.01c-3.17,0.01-6.36-0.11-9.57-0.01
			c-0.6,0.02-1.21,0.04-1.81,0.09c-0.02,0-0.04,0.02-0.06,0.04c0.15-1.03,0.25-2.13,0.25-2.13l0.02-1.01c0.04-2.38,0-4.79-0.14-7.17
			c-0.04-0.64-0.14-1.22-0.03-1.61c0.38,0.08,0.76,0.15,1.15,0.22c3.39,0.5,6.78,0.3,10.11,0.09l0.86-0.06c0,0,0.75-0.09,1.49-0.19
			c0.74-0.09,1.45-0.17,1.39-0.18c0.45-0.07,0.85-0.14,1.05-0.23l0.03,1.65l0.11,5.52l0.02,0.86c0,0,0.24,3.03,0.26,2.91
			c0.15,1.21,0.41,2,0.6,0.04c0.14-1.16,0.22-2.81,0.22-2.81l-0.02-1l-0.11-5.53l-0.04-1.8c0-0.02-0.04-0.07-0.05-0.08
			c-0.48-0.56-0.86-0.2-1.01,0.05c0,0,0,0,0,0.01c-0.17-0.06-0.5-0.11-1.06-0.16c-1.17-0.12-2.82-0.12-2.82-0.12l-1,0.06
			c-3.32,0.21-6.65,0.39-9.88-0.08c-0.57-0.1-1.15-0.2-1.71-0.35c-0.02,0-0.08,0.02-0.09,0.02c-0.44,0.22-0.49,0.49-0.41,0.71
			c-0.04,0.03-0.07,0.05-0.1,0.09C49.47,145.03,49.47,145.04,49.46,145.07z"/>
		<path class="st1" d="M81.02,143.94c-2.27,0.06-4.54,0.1-6.81,0.12l-1.79,0.01c-0.02,0-0.07,0.04-0.08,0.04
			c-0.02,0.02-0.03,0.03-0.05,0.05c-0.35-0.21-0.63,0.04-0.76,0.24c-0.03,0.03-0.03,0.04-0.03,0.07l0.02,1.81
			c0.05,2.42,0.16,4.83,0.22,7.23l0.02,0.86c0,0,0.06,0.75,0.11,1.49c0.05,0.74,0.1,1.46,0.11,1.4c0.09,1.01,0.26,1.73,0.47,0.79
			c0.01,0.01,0.02,0.02,0.03,0.02c0.03,0.03,0.04,0.03,0.07,0.02l1.79-0.04l14.98-0.37c0,0,3.02-0.26,2.9-0.28
			c1.21-0.16,1.98-0.42,0.02-0.6c-1.16-0.14-2.81-0.21-2.81-0.21l-15.11,0.37L72.62,157c0.15-1.13,0.22-2.52,0.22-2.52l-0.02-1.01
			c-0.06-2.42-0.17-4.82-0.22-7.22l-0.01-1.1l1.63-0.01c2.24-0.02,4.48-0.06,6.72-0.11l6.18-0.17c0,0,0.88-0.08,1.67-0.15
			c-0.03,0.47-0.05,0.94-0.05,1.41c-0.02,1.83,0.11,3.64,0.23,5.44l0.05,0.86c0,0,0.08,0.75,0.16,1.49
			c0.08,0.74,0.13,1.46,0.14,1.39c0.12,1.2,0.35,2.01,0.6,0.04c0.17-1.17,0.18-2.83,0.18-2.83l-0.06-1
			c-0.11-1.8-0.24-3.59-0.22-5.36c0.01-0.51,0.03-1.02,0.06-1.53c0.1-0.01,0.15-0.02,0.13-0.02c1.21-0.16,1.99-0.41,0.02-0.6
			c-1.16-0.14-2.81-0.21-2.81-0.21L81.02,143.94z"/>
		<path class="st1" d="M80.06,138.7c0,0,0.1,0.74,0.19,1.48c0.09,0.73,0.16,1.45,0.17,1.39c0.15,1.2,0.4,2,0.6,0.02
			c0.14-1.17,0.12-2.84,0.12-2.84l-0.08-1.01L81,137.05l-0.17-1.79c-0.01-0.02-0.04-0.07-0.05-0.08c-0.52-0.52-0.88-0.14-1.01,0.12
			c-0.02,0.04-0.02,0.05-0.02,0.07l0.17,1.79l0.06,0.7L80.06,138.7z"/>
	</g>
	<g>
		<g>
			<g>
				<path d="M275.13,146.71c-4.05-3.47-15.09-3.02-16.65,9.07c-1.57,12.09,9.12,15.33,2.71,22.09c-6.41,6.76,9.26,2.63,14.24-5.87
					C281.11,162.27,281.1,151.82,275.13,146.71z"/>
				<path class="st2" d="M247.45,102.99c0,0,16.7,3.97,23.24,12.96c6.54,8.99,0.24,31.26,0.24,31.26"/>
			</g>
			<g>
				<g>
					<path d="M109.29,94.72c0,0,0.03-4.18-5.36-10.14c-5.38-5.96-12.98-3.91-12.98-3.91s1.7,5.48,7.55,12.56
						c5.85,7.08,9.2,6.12,9.2,6.12L109.29,94.72z"/>
				</g>
				<path class="st3" d="M105.65,95.69c0,0,5.4,18.66,11.75,26.43c6.36,7.78,21.94,14.79,21.94,14.79"/>
			</g>
			<g>
				<g>
					<path d="M176.38,240.73c0,0-3.26-2.63-11.27-2.13s-11.14,7.72-11.14,7.72s5.34,2.09,14.52,1.92
						c9.18-0.17,10.52-3.38,10.52-3.38L176.38,240.73z"/>
				</g>
				<path class="st3" d="M175.88,192.37c0,0-5.14,17.9-5.14,27.94c0,10.04,5.14,25.3,5.14,25.3"/>
			</g>
			<g>
				<g>
					<path d="M219.85,242.05c0,0-3.26-2.63-11.27-2.13s-11.14,7.72-11.14,7.72s5.34,2.09,14.52,1.92
						c9.18-0.17,10.52-3.38,10.52-3.38L219.85,242.05z"/>
				</g>
				<path class="st3" d="M219.35,193.69c0,0-4.17,18.22-4.17,28.26c0,10.04,4.17,24.98,4.17,24.98"/>
			</g>
			<g>
				<path class="st4" d="M221.78,213.24l-82.3-18.56c-10.05-2.16-16.44-12.06-14.28-22.1l25.79-103.62
					c2.16-10.05,12.06-16.44,22.1-14.28l82.3,18.56c10.05,2.16,16.44,12.06,14.28,22.1l-25.79,103.62
					C241.72,209.01,231.82,215.4,221.78,213.24z"/>
				<g>
					<g>
						<path class="st5" d="M220.35,189.03c0.41,12.66-9.52,23.26-22.18,23.67c-12.66,0.41-23.26-9.52-23.67-22.18"/>
						<path d="M220.35,189.03c0.85,6-1.15,12.49-5.33,17.22c-2.06,2.4-4.67,4.32-7.54,5.7c-2.88,1.36-6.06,2.1-9.25,2.24
							c-3.19,0.08-6.41-0.46-9.38-1.63c-2.95-1.2-5.69-2.94-7.9-5.2c-4.49-4.45-6.9-10.81-6.44-16.84
							c0.81,5.98,3.72,11.4,8.04,15.14c4.31,3.73,9.96,5.76,15.58,5.54c5.63-0.14,11.12-2.53,15.19-6.54
							C217.39,200.64,219.93,195.05,220.35,189.03z"/>
					</g>
					<g>
						<path class="st5" d="M190.2,206.92l-1.98,5.36c-0.59,1.6-2.39,2.42-4.02,1.81l-0.1-0.04c-1.62-0.6-2.46-2.39-1.87-3.99
							l1.98-5.36"/>
						<path d="M190.2,206.92c-0.23,1.81-0.64,3.55-1.12,5.27c-0.09,0.38-0.29,1.02-0.64,1.45c-0.34,0.46-0.78,0.85-1.28,1.14
							c-1,0.58-2.31,0.64-3.36,0.23c-1.07-0.37-2.02-1.27-2.4-2.36c-0.2-0.54-0.28-1.13-0.23-1.7c0.02-0.55,0.28-1.18,0.46-1.52
							c0.75-1.62,1.58-3.21,2.58-4.73c-0.23,1.81-0.64,3.55-1.12,5.27c-0.14,0.48-0.18,0.71-0.18,1.05c0.01,0.32,0.09,0.63,0.23,0.9
							c0.28,0.56,0.73,0.99,1.35,1.2c0.6,0.24,1.23,0.21,1.81-0.03c0.29-0.12,0.55-0.3,0.77-0.54c0.22-0.26,0.35-0.46,0.55-0.92
							C188.37,210.03,189.19,208.44,190.2,206.92z"/>
					</g>
					<g>
						<path class="st5" d="M199.16,208.18l-0.49,5.69c-0.15,1.7-1.66,2.96-3.39,2.82l-0.11-0.01c-1.73-0.15-3-1.65-2.86-3.35
							l0.49-5.69"/>
						<path d="M199.16,208.18c0.26,1.81,0.32,3.59,0.32,5.38c0.02,0.39-0.01,1.06-0.23,1.57c-0.2,0.54-0.52,1.03-0.93,1.44
							c-0.81,0.82-2.05,1.23-3.18,1.11c-1.13-0.07-2.28-0.69-2.94-1.64c-0.33-0.47-0.57-1.01-0.67-1.58
							c-0.12-0.54-0.04-1.21,0.04-1.59c0.3-1.76,0.67-3.51,1.23-5.24c0.26,1.81,0.33,3.59,0.32,5.38c-0.01,0.5,0.02,0.73,0.11,1.06
							c0.09,0.3,0.26,0.58,0.46,0.81c0.41,0.47,0.97,0.76,1.62,0.8c0.65,0.07,1.24-0.12,1.73-0.51c0.24-0.19,0.45-0.44,0.6-0.72
							c0.15-0.31,0.21-0.53,0.29-1.03C198.23,211.67,198.6,209.92,199.16,208.18z"/>
					</g>
					<g>
						<path class="st5" d="M208.31,207.19l0.61,5.68c0.18,1.7-1.07,3.23-2.79,3.41l-0.11,0.01c-1.72,0.18-3.27-1.04-3.45-2.74
							l-0.61-5.68"/>
						<path d="M208.31,207.19c0.6,1.72,1.01,3.47,1.34,5.22c0.09,0.38,0.19,1.04,0.08,1.59c-0.09,0.56-0.31,1.11-0.64,1.59
							c-0.64,0.96-1.78,1.6-2.91,1.7c-1.12,0.14-2.37-0.24-3.2-1.04c-0.42-0.4-0.75-0.89-0.96-1.42c-0.23-0.51-0.27-1.18-0.26-1.57
							c-0.04-1.78-0.02-3.57,0.21-5.38c0.6,1.72,1.01,3.47,1.34,5.22c0.09,0.49,0.16,0.72,0.31,1.02c0.15,0.28,0.36,0.52,0.61,0.71
							c0.5,0.38,1.1,0.56,1.74,0.48c0.65-0.05,1.19-0.36,1.6-0.83c0.2-0.24,0.36-0.52,0.45-0.82c0.09-0.33,0.11-0.56,0.09-1.07
							C208.07,210.79,208.09,209,208.31,207.19z"/>
					</g>
				</g>
				<g>
					<defs>
						<path id="SVGID_1_" d="M221.14,212.27l-80.68-18.21c-10.05-2.16-16.44-12.06-14.28-22.1l25.45-102.02
							c2.16-10.05,12.06-16.44,22.1-14.28l80.68,18.21c10.05,2.16,16.44,12.06,14.28,22.1l-25.45,102.02
							C241.08,208.04,231.18,214.43,221.14,212.27z"/>
					</defs>
					<clipPath id="SVGID_00000000913035294616114710000004623666869809675169_">
						<use xlink:href="#SVGID_1_"  style="overflow:visible;"/>
					</clipPath>
					<g style="clip-path:url(#SVGID_00000000913035294616114710000004623666869809675169_);">
						<defs>
							<path id="SVGID_00000151529031640027771710000003525784025057747875_" d="M258.64,68.74c-12.12-8.85-27.95-8.93-39.94-1.42
								c-1.37-2.48-3.28-4.72-5.72-6.51c-8.98-6.56-21.58-4.6-28.14,4.38s-4.6,21.58,4.38,28.14c3.86,2.82,8.38,4.05,12.8,3.85
								c-0.09,11.07,4.97,22.03,14.59,29.06c15.88,11.61,38.16,8.14,49.77-7.74S274.52,80.35,258.64,68.74z"/>
						</defs>
						<clipPath id="SVGID_00000000904533606911077840000017690920539269435065_">
							<use xlink:href="#SVGID_00000151529031640027771710000003525784025057747875_"  style="overflow:visible;"/>
						</clipPath>
						<g style="clip-path:url(#SVGID_00000000904533606911077840000017690920539269435065_);">
							<g>
								<path class="st8" d="M285.29,80.08c-4.24,3.45-8.95,6.25-13.59,9.12c-4.8,2.97-9.4,6.24-14.01,9.49
									c-4.82,3.39-9.63,6.8-14.38,10.28c-4.55,3.33-8.9,7.03-13.8,9.83c-2.49,1.42-5.11,2.52-7.67,3.8
									c-2.68,1.33-5.34,2.84-8.33,3.29c-0.95,0.14-0.55,1.59,0.4,1.45c2.55-0.39,4.9-1.54,7.18-2.69
									c2.34-1.18,4.75-2.21,7.08-3.41c5.05-2.61,9.4-6.18,13.96-9.54c4.87-3.6,9.8-7.11,14.75-10.6
									c4.71-3.32,9.39-6.72,14.28-9.78c5.17-3.24,10.47-6.31,15.21-10.17C287.1,80.53,286.03,79.47,285.29,80.08L285.29,80.08z"/>
							</g>
						</g>
						<g style="clip-path:url(#SVGID_00000000904533606911077840000017690920539269435065_);">
							<g>
								<path class="st8" d="M289.66,82.11c-4.24,3.45-8.95,6.25-13.59,9.12c-4.8,2.97-9.4,6.24-14.01,9.49
									c-4.82,3.39-9.63,6.8-14.38,10.28c-4.55,3.33-8.9,7.03-13.8,9.83c-2.49,1.42-5.11,2.52-7.67,3.8
									c-2.68,1.33-5.34,2.84-8.33,3.29c-0.95,0.14-0.55,1.59,0.4,1.45c2.55-0.39,4.9-1.54,7.18-2.69
									c2.34-1.18,4.75-2.21,7.08-3.41c5.05-2.61,9.4-6.18,13.96-9.54c4.87-3.6,9.8-7.11,14.75-10.6
									c4.71-3.32,9.39-6.72,14.28-9.78c5.17-3.24,10.47-6.31,15.21-10.17C291.47,82.56,290.4,81.5,289.66,82.11L289.66,82.11z"/>
							</g>
						</g>
						<g style="clip-path:url(#SVGID_00000000904533606911077840000017690920539269435065_);">
							<g>
								<path class="st8" d="M294.03,84.14c-4.24,3.45-8.95,6.25-13.59,9.12c-4.8,2.97-9.4,6.24-14.01,9.49
									c-4.82,3.39-9.63,6.8-14.38,10.28c-4.55,3.33-8.9,7.03-13.8,9.83c-2.49,1.42-5.11,2.52-7.67,3.8
									c-2.68,1.33-5.34,2.84-8.33,3.29c-0.95,0.14-0.55,1.59,0.4,1.45c2.55-0.39,4.9-1.54,7.18-2.69
									c2.34-1.18,4.75-2.21,7.08-3.41c5.05-2.61,9.4-6.18,13.96-9.54c4.87-3.6,9.8-7.11,14.75-10.6
									c4.72-3.32,9.39-6.72,14.28-9.78c5.17-3.24,10.47-6.31,15.21-10.17C295.84,84.59,294.77,83.53,294.03,84.14L294.03,84.14z"
									/>
							</g>
						</g>
						<g style="clip-path:url(#SVGID_00000000904533606911077840000017690920539269435065_);">
							<g>
								<path class="st8" d="M298.4,86.17c-4.24,3.45-8.95,6.25-13.59,9.12c-4.8,2.97-9.4,6.24-14.01,9.49
									c-4.82,3.39-9.63,6.8-14.38,10.28c-4.55,3.33-8.9,7.03-13.8,9.83c-2.49,1.42-5.11,2.52-7.67,3.8
									c-2.68,1.33-5.34,2.84-8.33,3.29c-0.95,0.14-0.55,1.59,0.4,1.45c2.55-0.39,4.9-1.54,7.18-2.69
									c2.34-1.18,4.75-2.21,7.08-3.41c5.05-2.61,9.4-6.18,13.96-9.54c4.87-3.6,9.8-7.11,14.75-10.6
									c4.71-3.32,9.39-6.72,14.28-9.78c5.17-3.24,10.47-6.31,15.21-10.17C300.21,86.62,299.14,85.56,298.4,86.17L298.4,86.17z"/>
							</g>
						</g>
						<g style="clip-path:url(#SVGID_00000000904533606911077840000017690920539269435065_);">
							<g>
								<path class="st8" d="M302.77,88.2c-4.24,3.45-8.95,6.25-13.59,9.12c-4.8,2.97-9.4,6.24-14.01,9.49
									c-4.82,3.39-9.63,6.8-14.38,10.28c-4.55,3.33-8.9,7.03-13.8,9.83c-2.49,1.42-5.11,2.52-7.67,3.8
									c-2.68,1.33-5.34,2.84-8.33,3.29c-0.95,0.14-0.55,1.59,0.4,1.45c2.55-0.39,4.9-1.54,7.18-2.69
									c2.34-1.18,4.75-2.21,7.08-3.41c5.05-2.61,9.4-6.18,13.96-9.54c4.87-3.6,9.8-7.11,14.75-10.6
									c4.71-3.32,9.39-6.72,14.28-9.78c5.17-3.24,10.47-6.31,15.21-10.17C304.58,88.65,303.51,87.59,302.77,88.2L302.77,88.2z"/>
							</g>
						</g>
						<g style="clip-path:url(#SVGID_00000000904533606911077840000017690920539269435065_);">
							<g>
								<path class="st8" d="M307.14,90.22c-4.24,3.45-8.95,6.25-13.59,9.12c-4.8,2.97-9.4,6.24-14.01,9.49
									c-4.82,3.39-9.63,6.8-14.38,10.28c-4.55,3.33-8.9,7.03-13.8,9.83c-2.49,1.42-5.11,2.52-7.67,3.8
									c-2.68,1.33-5.34,2.84-8.33,3.29c-0.95,0.14-0.55,1.59,0.4,1.45c2.55-0.39,4.9-1.54,7.18-2.69
									c2.34-1.18,4.75-2.21,7.08-3.41c5.05-2.61,9.4-6.18,13.96-9.54c4.87-3.6,9.8-7.11,14.75-10.6
									c4.71-3.32,9.39-6.72,14.28-9.78c5.17-3.24,10.47-6.31,15.21-10.17C308.95,90.68,307.88,89.62,307.14,90.22L307.14,90.22z"
									/>
							</g>
						</g>
						<g style="clip-path:url(#SVGID_00000000904533606911077840000017690920539269435065_);">
							<g>
								<path class="st8" d="M272.18,73.99c-4.24,3.45-8.95,6.25-13.59,9.12c-4.8,2.97-9.4,6.24-14.01,9.49
									c-4.82,3.39-9.63,6.8-14.38,10.28c-4.55,3.33-8.9,7.03-13.8,9.83c-2.49,1.42-5.11,2.52-7.67,3.8
									c-2.68,1.33-5.34,2.84-8.33,3.29c-0.95,0.14-0.55,1.59,0.4,1.45c2.55-0.39,4.9-1.54,7.18-2.69
									c2.34-1.18,4.75-2.21,7.08-3.41c5.05-2.61,9.4-6.18,13.96-9.54c4.87-3.6,9.8-7.11,14.75-10.6
									c4.71-3.32,9.39-6.72,14.28-9.78c5.17-3.24,10.47-6.31,15.21-10.17C273.99,74.44,272.93,73.38,272.18,73.99L272.18,73.99z"
									/>
							</g>
						</g>
						<g style="clip-path:url(#SVGID_00000000904533606911077840000017690920539269435065_);">
							<g>
								<path class="st8" d="M276.55,76.02c-4.24,3.45-8.95,6.25-13.59,9.12c-4.8,2.97-9.4,6.24-14.01,9.49
									c-4.82,3.39-9.63,6.8-14.38,10.28c-4.55,3.33-8.9,7.03-13.8,9.83c-2.49,1.42-5.11,2.52-7.67,3.8
									c-2.68,1.33-5.34,2.84-8.33,3.29c-0.95,0.14-0.55,1.59,0.4,1.45c2.55-0.39,4.9-1.54,7.18-2.69
									c2.34-1.18,4.75-2.21,7.08-3.41c5.05-2.61,9.4-6.18,13.96-9.54c4.87-3.6,9.8-7.11,14.75-10.6
									c4.71-3.32,9.39-6.72,14.28-9.78c5.17-3.24,10.47-6.31,15.21-10.17C278.36,76.47,277.3,75.41,276.55,76.02L276.55,76.02z"/>
							</g>
						</g>
						<g style="clip-path:url(#SVGID_00000000904533606911077840000017690920539269435065_);">
							<g>
								<path class="st8" d="M280.92,78.05c-4.24,3.45-8.95,6.25-13.59,9.12c-4.8,2.97-9.4,6.24-14.01,9.49
									c-4.82,3.39-9.63,6.8-14.38,10.28c-4.55,3.33-8.9,7.03-13.8,9.83c-2.49,1.42-5.11,2.52-7.67,3.8
									c-2.68,1.33-5.34,2.84-8.33,3.29c-0.95,0.14-0.55,1.59,0.4,1.45c2.55-0.39,4.9-1.54,7.18-2.69
									c2.34-1.18,4.75-2.21,7.08-3.41c5.05-2.61,9.4-6.18,13.96-9.54c4.87-3.6,9.8-7.11,14.75-10.6
									c4.72-3.32,9.39-6.72,14.28-9.78c5.17-3.24,10.47-6.31,15.21-10.17C282.73,78.5,281.66,77.44,280.92,78.05L280.92,78.05z"/>
							</g>
						</g>
						<g style="clip-path:url(#SVGID_00000000904533606911077840000017690920539269435065_);">
							<g>
								<path class="st8" d="M259.08,67.9c-4.24,3.45-8.95,6.25-13.59,9.12c-4.8,2.97-9.4,6.24-14.01,9.49
									c-4.82,3.39-9.63,6.8-14.38,10.28c-4.55,3.33-8.9,7.03-13.8,9.83c-2.49,1.42-5.11,2.52-7.67,3.8
									c-2.68,1.33-5.34,2.84-8.33,3.29c-0.95,0.14-0.55,1.59,0.4,1.45c2.55-0.39,4.9-1.54,7.18-2.69
									c2.34-1.18,4.75-2.21,7.08-3.41c5.05-2.61,9.4-6.18,13.96-9.54c4.87-3.6,9.8-7.11,14.75-10.6
									c4.72-3.32,9.39-6.72,14.28-9.78c5.17-3.24,10.47-6.31,15.21-10.17C260.89,68.35,259.82,67.3,259.08,67.9L259.08,67.9z"/>
							</g>
						</g>
						<g style="clip-path:url(#SVGID_00000000904533606911077840000017690920539269435065_);">
							<g>
								<path class="st8" d="M263.45,69.93c-4.24,3.45-8.95,6.25-13.59,9.12c-4.8,2.97-9.4,6.24-14.01,9.49
									c-4.82,3.39-9.63,6.8-14.38,10.28c-4.55,3.33-8.9,7.03-13.8,9.83c-2.49,1.42-5.11,2.52-7.67,3.8
									c-2.68,1.33-5.34,2.84-8.33,3.29c-0.95,0.14-0.55,1.59,0.4,1.45c2.55-0.39,4.9-1.54,7.18-2.69
									c2.34-1.18,4.75-2.21,7.08-3.41c5.05-2.61,9.4-6.18,13.96-9.54c4.87-3.6,9.8-7.11,14.75-10.6
									c4.71-3.32,9.39-6.72,14.28-9.78c5.17-3.24,10.47-6.31,15.21-10.17C265.26,70.38,264.19,69.33,263.45,69.93L263.45,69.93z"
									/>
							</g>
						</g>
						<g style="clip-path:url(#SVGID_00000000904533606911077840000017690920539269435065_);">
							<g>
								<path class="st8" d="M267.81,71.96c-4.24,3.45-8.95,6.25-13.59,9.12c-4.8,2.97-9.4,6.24-14.01,9.49
									c-4.82,3.39-9.63,6.8-14.38,10.28c-4.55,3.33-8.9,7.03-13.8,9.83c-2.49,1.42-5.11,2.52-7.67,3.8
									c-2.68,1.33-5.34,2.84-8.33,3.29c-0.95,0.14-0.55,1.59,0.4,1.45c2.55-0.39,4.9-1.54,7.18-2.69
									c2.34-1.18,4.75-2.21,7.08-3.41c5.05-2.61,9.4-6.18,13.96-9.54c4.87-3.6,9.8-7.11,14.75-10.6
									c4.71-3.32,9.39-6.72,14.28-9.78c5.17-3.24,10.47-6.31,15.21-10.17C269.62,72.41,268.56,71.36,267.81,71.96L267.81,71.96z"
									/>
							</g>
						</g>
						<g style="clip-path:url(#SVGID_00000000904533606911077840000017690920539269435065_);">
							<g>
								<path class="st8" d="M245.97,61.81c-4.24,3.45-8.95,6.25-13.59,9.12c-4.8,2.97-9.4,6.24-14.01,9.49
									c-4.82,3.39-9.63,6.8-14.38,10.28c-4.55,3.33-8.9,7.03-13.8,9.83c-2.49,1.42-5.11,2.52-7.67,3.8
									c-2.68,1.33-5.34,2.84-8.33,3.29c-0.95,0.14-0.55,1.59,0.4,1.45c2.55-0.39,4.9-1.54,7.18-2.69
									c2.34-1.18,4.75-2.21,7.08-3.41c5.05-2.61,9.4-6.18,13.96-9.54c4.87-3.6,9.8-7.11,14.75-10.6
									c4.72-3.32,9.39-6.72,14.28-9.78c5.17-3.24,10.47-6.31,15.21-10.17C247.78,62.26,246.71,61.21,245.97,61.81L245.97,61.81z"
									/>
							</g>
						</g>
						<g style="clip-path:url(#SVGID_00000000904533606911077840000017690920539269435065_);">
							<g>
								<path class="st8" d="M250.34,63.84c-4.24,3.45-8.95,6.25-13.59,9.12c-4.8,2.97-9.4,6.24-14.01,9.49
									c-4.82,3.39-9.63,6.8-14.38,10.28c-4.55,3.33-8.9,7.03-13.8,9.83c-2.49,1.42-5.11,2.52-7.67,3.8
									c-2.68,1.33-5.34,2.84-8.33,3.29c-0.95,0.14-0.55,1.59,0.4,1.45c2.55-0.39,4.9-1.54,7.18-2.69
									c2.34-1.18,4.75-2.21,7.08-3.41c5.05-2.61,9.4-6.18,13.96-9.54c4.87-3.6,9.8-7.11,14.75-10.6
									c4.71-3.32,9.39-6.72,14.28-9.78c5.17-3.24,10.47-6.31,15.21-10.17C252.15,64.29,251.08,63.24,250.34,63.84L250.34,63.84z"
									/>
							</g>
						</g>
						<g style="clip-path:url(#SVGID_00000000904533606911077840000017690920539269435065_);">
							<g>
								<path class="st8" d="M254.71,65.87c-4.24,3.45-8.95,6.25-13.59,9.12c-4.8,2.97-9.4,6.24-14.01,9.49
									c-4.82,3.39-9.63,6.8-14.38,10.28c-4.55,3.33-8.9,7.03-13.8,9.83c-2.49,1.42-5.11,2.52-7.67,3.8
									c-2.68,1.33-5.34,2.84-8.33,3.29c-0.95,0.14-0.55,1.59,0.4,1.45c2.55-0.39,4.9-1.54,7.18-2.69
									c2.34-1.18,4.75-2.21,7.08-3.41c5.05-2.61,9.4-6.18,13.96-9.54c4.87-3.6,9.8-7.11,14.75-10.6
									c4.71-3.32,9.39-6.72,14.28-9.78c5.17-3.24,10.47-6.31,15.21-10.17C256.52,66.32,255.45,65.27,254.71,65.87L254.71,65.87z"
									/>
							</g>
						</g>
						<g style="clip-path:url(#SVGID_00000000904533606911077840000017690920539269435065_);">
							<g>
								<path class="st8" d="M232.86,55.73c-4.24,3.45-8.95,6.25-13.59,9.12c-4.8,2.97-9.4,6.24-14.01,9.49
									c-4.82,3.39-9.63,6.8-14.38,10.28c-4.55,3.33-8.9,7.03-13.8,9.83c-2.49,1.42-5.11,2.52-7.67,3.8
									c-2.68,1.33-5.34,2.84-8.33,3.29c-0.95,0.14-0.55,1.59,0.4,1.45c2.55-0.39,4.9-1.54,7.18-2.69
									c2.34-1.18,4.75-2.21,7.08-3.41c5.05-2.61,9.4-6.18,13.96-9.54c4.87-3.6,9.8-7.11,14.75-10.6
									c4.71-3.32,9.39-6.72,14.28-9.78c5.17-3.24,10.47-6.31,15.21-10.17C234.67,56.18,233.6,55.12,232.86,55.73L232.86,55.73z"/>
							</g>
						</g>
						<g style="clip-path:url(#SVGID_00000000904533606911077840000017690920539269435065_);">
							<g>
								<path class="st8" d="M237.23,57.76c-4.24,3.45-8.95,6.25-13.59,9.12c-4.8,2.97-9.4,6.24-14.01,9.49
									c-4.82,3.39-9.63,6.8-14.38,10.28c-4.55,3.33-8.9,7.03-13.8,9.83c-2.49,1.42-5.11,2.52-7.67,3.8
									c-2.68,1.33-5.34,2.84-8.33,3.29c-0.95,0.14-0.55,1.59,0.4,1.45c2.55-0.39,4.9-1.54,7.18-2.69
									c2.34-1.18,4.75-2.21,7.08-3.41c5.05-2.61,9.4-6.18,13.96-9.54c4.87-3.6,9.8-7.11,14.75-10.6
									c4.71-3.32,9.39-6.72,14.28-9.78c5.17-3.24,10.47-6.31,15.21-10.17C239.04,58.21,237.97,57.15,237.23,57.76L237.23,57.76z"
									/>
							</g>
						</g>
						<g style="clip-path:url(#SVGID_00000000904533606911077840000017690920539269435065_);">
							<g>
								<path class="st8" d="M241.6,59.78c-4.24,3.45-8.95,6.25-13.59,9.12c-4.8,2.97-9.4,6.24-14.01,9.49
									c-4.82,3.39-9.63,6.8-14.38,10.28c-4.55,3.33-8.9,7.03-13.8,9.83c-2.49,1.42-5.11,2.52-7.67,3.8
									c-2.68,1.33-5.34,2.84-8.33,3.29c-0.95,0.14-0.55,1.59,0.4,1.45c2.55-0.39,4.9-1.54,7.18-2.69
									c2.34-1.18,4.75-2.21,7.08-3.41c5.05-2.61,9.4-6.18,13.96-9.54c4.87-3.6,9.8-7.11,14.75-10.6
									c4.71-3.32,9.39-6.72,14.28-9.78c5.17-3.24,10.47-6.31,15.21-10.17C243.41,60.24,242.34,59.18,241.6,59.78L241.6,59.78z"/>
							</g>
						</g>
						<g style="clip-path:url(#SVGID_00000000904533606911077840000017690920539269435065_);">
							<g>
								<path class="st8" d="M219.75,49.64c-4.24,3.45-8.95,6.25-13.59,9.12c-4.8,2.97-9.4,6.24-14.01,9.49
									c-4.82,3.39-9.63,6.8-14.38,10.28c-4.55,3.33-8.9,7.03-13.8,9.83c-2.49,1.42-5.11,2.52-7.67,3.8
									c-2.68,1.33-5.34,2.84-8.33,3.29c-0.95,0.14-0.55,1.59,0.4,1.45c2.55-0.39,4.9-1.54,7.18-2.69
									c2.34-1.18,4.75-2.21,7.08-3.41c5.05-2.61,9.4-6.18,13.96-9.54c4.87-3.6,9.8-7.11,14.75-10.6
									c4.71-3.32,9.39-6.72,14.28-9.78c5.17-3.24,10.47-6.31,15.21-10.17C221.56,50.09,220.5,49.03,219.75,49.64L219.75,49.64z"/>
							</g>
						</g>
						<g style="clip-path:url(#SVGID_00000000904533606911077840000017690920539269435065_);">
							<g>
								<path class="st8" d="M215.38,47.61c-4.24,3.45-8.95,6.25-13.59,9.12c-4.8,2.97-9.4,6.24-14.01,9.49
									c-4.82,3.39-9.63,6.8-14.38,10.28c-4.55,3.33-8.9,7.03-13.8,9.83c-2.49,1.42-5.11,2.52-7.67,3.8
									c-2.68,1.33-5.34,2.84-8.33,3.29c-0.95,0.14-0.55,1.59,0.4,1.45c2.55-0.39,4.9-1.54,7.18-2.69
									c2.34-1.18,4.75-2.21,7.08-3.41c5.05-2.61,9.4-6.18,13.96-9.54c4.87-3.6,9.8-7.11,14.75-10.6
									c4.71-3.32,9.39-6.72,14.28-9.78c5.17-3.24,10.47-6.31,15.21-10.17C217.19,48.06,216.13,47,215.38,47.61L215.38,47.61z"/>
							</g>
						</g>
						<g style="clip-path:url(#SVGID_00000000904533606911077840000017690920539269435065_);">
							<g>
								<path class="st8" d="M211.02,45.58c-4.24,3.45-8.95,6.25-13.59,9.12c-4.8,2.97-9.4,6.24-14.01,9.49
									c-4.82,3.39-9.63,6.8-14.38,10.28c-4.55,3.33-8.9,7.03-13.8,9.83c-2.49,1.42-5.11,2.52-7.67,3.8
									c-2.68,1.33-5.34,2.84-8.33,3.29c-0.95,0.14-0.55,1.59,0.4,1.45c2.55-0.39,4.9-1.54,7.18-2.69
									c2.34-1.18,4.75-2.21,7.08-3.41c5.05-2.61,9.4-6.18,13.96-9.54c4.87-3.6,9.8-7.11,14.75-10.6
									c4.71-3.32,9.39-6.72,14.28-9.78c5.17-3.24,10.47-6.31,15.21-10.17C212.82,46.03,211.76,44.97,211.02,45.58L211.02,45.58z"
									/>
							</g>
						</g>
						<g style="clip-path:url(#SVGID_00000000904533606911077840000017690920539269435065_);">
							<g>
								<path class="st8" d="M224.12,51.67c-4.24,3.45-8.95,6.25-13.59,9.12c-4.8,2.97-9.4,6.24-14.01,9.49
									c-4.82,3.39-9.63,6.8-14.38,10.28c-4.55,3.33-8.9,7.03-13.8,9.83c-2.49,1.42-5.11,2.52-7.67,3.8
									c-2.68,1.33-5.34,2.84-8.33,3.29c-0.95,0.14-0.55,1.59,0.4,1.45c2.55-0.39,4.9-1.54,7.18-2.69
									c2.34-1.18,4.75-2.21,7.08-3.41c5.05-2.61,9.4-6.18,13.96-9.54c4.87-3.6,9.8-7.11,14.75-10.6
									c4.71-3.32,9.39-6.72,14.28-9.78c5.17-3.24,10.47-6.31,15.21-10.17C225.93,52.12,224.87,51.06,224.12,51.67L224.12,51.67z"
									/>
							</g>
						</g>
						<g style="clip-path:url(#SVGID_00000000904533606911077840000017690920539269435065_);">
							<g>
								<path class="st8" d="M228.49,53.7c-4.24,3.45-8.95,6.25-13.59,9.12c-4.8,2.97-9.4,6.24-14.01,9.49
									c-4.82,3.39-9.63,6.8-14.38,10.28c-4.55,3.33-8.9,7.03-13.8,9.83c-2.49,1.42-5.11,2.52-7.67,3.8
									c-2.68,1.33-5.34,2.84-8.33,3.29c-0.95,0.14-0.55,1.59,0.4,1.45c2.55-0.39,4.9-1.54,7.18-2.69
									c2.34-1.18,4.75-2.21,7.08-3.41c5.05-2.61,9.4-6.18,13.96-9.54c4.87-3.6,9.8-7.11,14.75-10.6
									c4.71-3.32,9.39-6.72,14.28-9.78c5.17-3.24,10.47-6.31,15.21-10.17C230.3,54.15,229.23,53.09,228.49,53.7L228.49,53.7z"/>
							</g>
						</g>
					</g>
				</g>
				<g>
					<g>
						<defs>
							
								<ellipse id="SVGID_00000143578516131733876090000002571273385655405955_" transform="matrix(0.999 -0.0453 0.0453 0.999 -5.5999 8.3536)" cx="181.37" cy="127.64" rx="23.33" ry="18.19"/>
						</defs>
						<clipPath id="SVGID_00000093139729517804214290000006076484099457130900_">
							<use xlink:href="#SVGID_00000143578516131733876090000002571273385655405955_"  style="overflow:visible;"/>
						</clipPath>
						<g style="clip-path:url(#SVGID_00000093139729517804214290000006076484099457130900_);">
							<g>
								<path class="st8" d="M246.52,117.86c-4.24,3.45-8.95,6.25-13.59,9.12c-4.8,2.97-9.4,6.24-14.01,9.49
									c-4.82,3.39-9.63,6.8-14.38,10.28c-4.55,3.33-8.9,7.03-13.8,9.83c-2.49,1.42-5.11,2.52-7.67,3.8
									c-2.68,1.33-5.34,2.84-8.33,3.29c-0.95,0.14-0.55,1.59,0.4,1.45c2.55-0.39,4.9-1.54,7.18-2.69
									c2.34-1.18,4.75-2.21,7.08-3.41c5.05-2.61,9.4-6.18,13.96-9.54c4.87-3.6,9.8-7.11,14.75-10.6
									c4.71-3.32,9.39-6.72,14.28-9.78c5.17-3.24,10.47-6.31,15.21-10.17C248.33,118.31,247.26,117.26,246.52,117.86
									L246.52,117.86z"/>
							</g>
						</g>
						<g style="clip-path:url(#SVGID_00000093139729517804214290000006076484099457130900_);">
							<g>
								<path class="st8" d="M250.89,119.89c-4.24,3.45-8.95,6.25-13.59,9.12c-4.8,2.97-9.4,6.24-14.01,9.49
									c-4.82,3.39-9.63,6.8-14.38,10.28c-4.55,3.33-8.9,7.03-13.8,9.83c-2.49,1.42-5.11,2.52-7.67,3.8
									c-2.68,1.33-5.34,2.84-8.33,3.29c-0.95,0.14-0.55,1.59,0.4,1.45c2.55-0.39,4.9-1.54,7.18-2.69
									c2.34-1.18,4.75-2.21,7.08-3.41c5.05-2.61,9.4-6.18,13.96-9.54c4.87-3.6,9.8-7.11,14.75-10.6
									c4.72-3.32,9.39-6.72,14.28-9.78c5.17-3.24,10.47-6.31,15.21-10.17C252.7,120.34,251.63,119.29,250.89,119.89L250.89,119.89
									z"/>
							</g>
						</g>
						<g style="clip-path:url(#SVGID_00000093139729517804214290000006076484099457130900_);">
							<g>
								<path class="st8" d="M255.26,121.92c-4.24,3.45-8.95,6.25-13.59,9.12c-4.8,2.97-9.4,6.24-14.01,9.49
									c-4.82,3.39-9.63,6.8-14.38,10.28c-4.55,3.33-8.9,7.03-13.8,9.83c-2.49,1.42-5.11,2.52-7.67,3.8
									c-2.68,1.33-5.34,2.84-8.33,3.29c-0.95,0.14-0.55,1.59,0.4,1.45c2.55-0.39,4.9-1.54,7.18-2.69
									c2.34-1.18,4.75-2.21,7.08-3.41c5.05-2.61,9.4-6.18,13.96-9.54c4.87-3.6,9.8-7.11,14.75-10.6
									c4.71-3.32,9.39-6.72,14.28-9.78c5.17-3.24,10.47-6.31,15.21-10.17C257.07,122.37,256,121.32,255.26,121.92L255.26,121.92z"
									/>
							</g>
						</g>
						<g style="clip-path:url(#SVGID_00000093139729517804214290000006076484099457130900_);">
							<g>
								<path class="st8" d="M259.63,123.95c-4.24,3.45-8.95,6.25-13.59,9.12c-4.8,2.97-9.4,6.24-14.01,9.49
									c-4.82,3.39-9.63,6.8-14.38,10.28c-4.55,3.33-8.9,7.03-13.8,9.83c-2.49,1.42-5.11,2.52-7.67,3.8
									c-2.68,1.33-5.34,2.84-8.33,3.29c-0.95,0.14-0.55,1.59,0.4,1.45c2.55-0.39,4.9-1.54,7.18-2.69
									c2.34-1.18,4.75-2.21,7.08-3.41c5.05-2.61,9.4-6.18,13.96-9.54c4.87-3.6,9.8-7.11,14.75-10.6
									c4.71-3.32,9.39-6.72,14.28-9.78c5.17-3.24,10.47-6.31,15.21-10.17C261.44,124.4,260.37,123.34,259.63,123.95L259.63,123.95
									z"/>
							</g>
						</g>
						<g style="clip-path:url(#SVGID_00000093139729517804214290000006076484099457130900_);">
							<g>
								<path class="st8" d="M264,125.98c-4.24,3.45-8.95,6.25-13.59,9.12c-4.8,2.97-9.4,6.24-14.01,9.49
									c-4.82,3.39-9.63,6.8-14.38,10.28c-4.55,3.33-8.9,7.03-13.8,9.83c-2.49,1.42-5.11,2.52-7.67,3.8
									c-2.68,1.33-5.34,2.84-8.33,3.29c-0.95,0.14-0.55,1.59,0.4,1.45c2.55-0.39,4.9-1.54,7.18-2.69
									c2.34-1.18,4.75-2.21,7.08-3.41c5.05-2.61,9.4-6.18,13.96-9.54c4.87-3.6,9.8-7.11,14.75-10.6
									c4.72-3.32,9.39-6.72,14.28-9.78c5.17-3.24,10.47-6.31,15.21-10.17C265.81,126.43,264.74,125.37,264,125.98L264,125.98z"/>
							</g>
						</g>
						<g style="clip-path:url(#SVGID_00000093139729517804214290000006076484099457130900_);">
							<g>
								<path class="st8" d="M268.37,128.01c-4.24,3.45-8.95,6.25-13.59,9.12c-4.8,2.97-9.4,6.24-14.01,9.49
									c-4.82,3.39-9.63,6.8-14.38,10.28c-4.55,3.33-8.9,7.03-13.8,9.83c-2.49,1.42-5.11,2.52-7.67,3.8
									c-2.68,1.33-5.34,2.84-8.33,3.29c-0.95,0.14-0.55,1.59,0.4,1.45c2.55-0.39,4.9-1.54,7.18-2.69
									c2.34-1.18,4.75-2.21,7.08-3.41c5.05-2.61,9.4-6.18,13.96-9.54c4.87-3.6,9.8-7.11,14.75-10.6
									c4.71-3.32,9.39-6.72,14.28-9.78c5.17-3.24,10.47-6.31,15.21-10.17C270.17,128.46,269.11,127.4,268.37,128.01L268.37,128.01
									z"/>
							</g>
						</g>
						<g style="clip-path:url(#SVGID_00000093139729517804214290000006076484099457130900_);">
							<g>
								<path class="st8" d="M233.41,111.77c-4.24,3.45-8.95,6.25-13.59,9.12c-4.8,2.97-9.4,6.24-14.01,9.49
									c-4.82,3.39-9.63,6.8-14.38,10.28c-4.55,3.33-8.9,7.03-13.8,9.83c-2.49,1.42-5.11,2.52-7.67,3.8
									c-2.68,1.33-5.34,2.84-8.33,3.29c-0.95,0.14-0.55,1.59,0.4,1.45c2.55-0.39,4.9-1.54,7.18-2.69
									c2.34-1.18,4.75-2.21,7.08-3.41c5.05-2.61,9.4-6.18,13.96-9.54c4.87-3.6,9.8-7.11,14.75-10.6
									c4.71-3.32,9.39-6.72,14.28-9.78c5.17-3.24,10.47-6.31,15.21-10.17C235.22,112.22,234.15,111.17,233.41,111.77
									L233.41,111.77z"/>
							</g>
						</g>
						<g style="clip-path:url(#SVGID_00000093139729517804214290000006076484099457130900_);">
							<g>
								<path class="st8" d="M237.78,113.8c-4.24,3.45-8.95,6.25-13.59,9.12c-4.8,2.97-9.4,6.24-14.01,9.49
									c-4.82,3.39-9.63,6.8-14.38,10.28c-4.55,3.33-8.9,7.03-13.8,9.83c-2.49,1.42-5.11,2.52-7.67,3.8
									c-2.68,1.33-5.34,2.84-8.33,3.29c-0.95,0.14-0.55,1.59,0.4,1.45c2.55-0.39,4.9-1.54,7.18-2.69
									c2.34-1.18,4.75-2.21,7.08-3.41c5.05-2.61,9.4-6.18,13.96-9.54c4.87-3.6,9.8-7.11,14.75-10.6
									c4.71-3.32,9.39-6.72,14.28-9.78c5.17-3.24,10.47-6.31,15.21-10.17C239.59,114.25,238.52,113.2,237.78,113.8L237.78,113.8z"
									/>
							</g>
						</g>
						<g style="clip-path:url(#SVGID_00000093139729517804214290000006076484099457130900_);">
							<g>
								<path class="st8" d="M242.15,115.83c-4.24,3.45-8.95,6.25-13.59,9.12c-4.8,2.97-9.4,6.24-14.01,9.49
									c-4.82,3.39-9.63,6.8-14.38,10.28c-4.55,3.33-8.9,7.03-13.8,9.83c-2.49,1.42-5.11,2.52-7.67,3.8
									c-2.68,1.33-5.34,2.84-8.33,3.29c-0.95,0.14-0.55,1.59,0.4,1.45c2.55-0.39,4.9-1.54,7.18-2.69
									c2.34-1.18,4.75-2.21,7.08-3.41c5.05-2.61,9.4-6.18,13.96-9.54c4.87-3.6,9.8-7.11,14.75-10.6
									c4.71-3.32,9.39-6.72,14.28-9.78c5.17-3.24,10.47-6.31,15.21-10.17C243.96,116.28,242.89,115.23,242.15,115.83
									L242.15,115.83z"/>
							</g>
						</g>
						<g style="clip-path:url(#SVGID_00000093139729517804214290000006076484099457130900_);">
							<g>
								<path class="st8" d="M220.3,105.69c-4.24,3.45-8.95,6.25-13.59,9.12c-4.8,2.97-9.4,6.24-14.01,9.49
									c-4.82,3.39-9.63,6.8-14.38,10.28c-4.55,3.33-8.9,7.03-13.8,9.83c-2.49,1.42-5.11,2.52-7.67,3.8
									c-2.68,1.33-5.34,2.84-8.33,3.29c-0.95,0.14-0.55,1.59,0.4,1.45c2.55-0.39,4.9-1.54,7.18-2.69
									c2.34-1.18,4.75-2.21,7.08-3.41c5.05-2.61,9.4-6.18,13.96-9.54c4.87-3.6,9.8-7.11,14.75-10.6
									c4.71-3.32,9.39-6.72,14.28-9.78c5.17-3.24,10.47-6.31,15.21-10.17C222.11,106.14,221.05,105.08,220.3,105.69L220.3,105.69z
									"/>
							</g>
						</g>
						<g style="clip-path:url(#SVGID_00000093139729517804214290000006076484099457130900_);">
							<g>
								<path class="st8" d="M224.67,107.72c-4.24,3.45-8.95,6.25-13.59,9.12c-4.8,2.97-9.4,6.24-14.01,9.49
									c-4.82,3.39-9.63,6.8-14.38,10.28c-4.55,3.33-8.9,7.03-13.8,9.83c-2.49,1.42-5.11,2.52-7.67,3.8
									c-2.68,1.33-5.34,2.84-8.33,3.29c-0.95,0.14-0.55,1.59,0.4,1.45c2.55-0.39,4.9-1.54,7.18-2.69
									c2.34-1.18,4.75-2.21,7.08-3.41c5.05-2.61,9.4-6.18,13.96-9.54c4.87-3.6,9.8-7.11,14.75-10.6
									c4.71-3.32,9.39-6.72,14.28-9.78c5.17-3.24,10.47-6.31,15.21-10.17C226.48,108.17,225.42,107.11,224.67,107.72
									L224.67,107.72z"/>
							</g>
						</g>
						<g style="clip-path:url(#SVGID_00000093139729517804214290000006076484099457130900_);">
							<g>
								<path class="st8" d="M229.04,109.74c-4.24,3.45-8.95,6.25-13.59,9.12c-4.8,2.97-9.4,6.24-14.01,9.49
									c-4.82,3.39-9.63,6.8-14.38,10.28c-4.55,3.33-8.9,7.03-13.8,9.83c-2.49,1.42-5.11,2.52-7.67,3.8
									c-2.68,1.33-5.34,2.84-8.33,3.29c-0.95,0.14-0.55,1.59,0.4,1.45c2.55-0.39,4.9-1.54,7.18-2.69
									c2.34-1.18,4.75-2.21,7.08-3.41c5.05-2.61,9.4-6.18,13.96-9.54c4.87-3.6,9.8-7.11,14.75-10.6
									c4.71-3.32,9.39-6.72,14.28-9.78c5.17-3.24,10.47-6.31,15.21-10.17C230.85,110.2,229.79,109.14,229.04,109.74L229.04,109.74
									z"/>
							</g>
						</g>
						<g style="clip-path:url(#SVGID_00000093139729517804214290000006076484099457130900_);">
							<g>
								<path class="st8" d="M207.2,99.6c-4.24,3.45-8.95,6.25-13.59,9.12c-4.8,2.97-9.4,6.24-14.01,9.49
									c-4.82,3.39-9.63,6.8-14.38,10.28c-4.55,3.33-8.9,7.03-13.8,9.83c-2.49,1.42-5.11,2.52-7.67,3.8
									c-2.68,1.33-5.34,2.84-8.33,3.29c-0.95,0.14-0.55,1.59,0.4,1.45c2.55-0.39,4.9-1.54,7.18-2.69
									c2.34-1.18,4.75-2.21,7.08-3.41c5.05-2.61,9.4-6.18,13.96-9.54c4.87-3.6,9.8-7.11,14.75-10.6
									c4.71-3.32,9.39-6.72,14.28-9.78c5.17-3.24,10.47-6.31,15.21-10.17C209.01,100.05,207.94,98.99,207.2,99.6L207.2,99.6z"/>
							</g>
						</g>
						<g style="clip-path:url(#SVGID_00000093139729517804214290000006076484099457130900_);">
							<g>
								<path class="st8" d="M211.57,101.63c-4.24,3.45-8.95,6.25-13.59,9.12c-4.8,2.97-9.4,6.24-14.01,9.49
									c-4.82,3.39-9.63,6.8-14.38,10.28c-4.55,3.33-8.9,7.03-13.8,9.83c-2.49,1.42-5.11,2.52-7.67,3.8
									c-2.68,1.33-5.34,2.84-8.33,3.29c-0.95,0.14-0.55,1.59,0.4,1.45c2.55-0.39,4.9-1.54,7.18-2.69
									c2.34-1.18,4.75-2.21,7.08-3.41c5.05-2.61,9.4-6.18,13.96-9.54c4.87-3.6,9.8-7.11,14.75-10.6
									c4.71-3.32,9.39-6.72,14.28-9.78c5.17-3.24,10.47-6.31,15.21-10.17C213.38,102.08,212.31,101.02,211.57,101.63
									L211.57,101.63z"/>
							</g>
						</g>
						<g style="clip-path:url(#SVGID_00000093139729517804214290000006076484099457130900_);">
							<g>
								<path class="st8" d="M215.93,103.66c-4.24,3.45-8.95,6.25-13.59,9.12c-4.8,2.97-9.4,6.24-14.01,9.49
									c-4.82,3.39-9.63,6.8-14.38,10.28c-4.55,3.33-8.9,7.03-13.8,9.83c-2.49,1.42-5.11,2.52-7.67,3.8
									c-2.68,1.33-5.34,2.84-8.33,3.29c-0.95,0.14-0.55,1.59,0.4,1.45c2.55-0.39,4.9-1.54,7.18-2.69
									c2.34-1.18,4.75-2.21,7.08-3.41c5.05-2.61,9.4-6.18,13.96-9.54c4.87-3.6,9.8-7.11,14.75-10.6
									c4.71-3.32,9.39-6.72,14.28-9.78c5.17-3.24,10.47-6.31,15.21-10.17C217.74,104.11,216.68,103.05,215.93,103.66
									L215.93,103.66z"/>
							</g>
						</g>
						<g style="clip-path:url(#SVGID_00000093139729517804214290000006076484099457130900_);">
							<g>
								<path class="st8" d="M194.09,93.51c-4.24,3.45-8.95,6.25-13.59,9.12c-4.8,2.97-9.4,6.24-14.01,9.49
									c-4.82,3.39-9.63,6.8-14.38,10.28c-4.55,3.33-8.9,7.03-13.8,9.83c-2.49,1.42-5.11,2.52-7.67,3.8
									c-2.68,1.33-5.34,2.84-8.33,3.29c-0.95,0.14-0.55,1.59,0.4,1.45c2.55-0.39,4.9-1.54,7.18-2.69
									c2.34-1.18,4.75-2.21,7.08-3.41c5.05-2.61,9.4-6.18,13.96-9.54c4.87-3.6,9.8-7.11,14.75-10.6
									c4.71-3.32,9.39-6.72,14.28-9.78c5.17-3.24,10.47-6.31,15.21-10.17C195.9,93.96,194.83,92.9,194.09,93.51L194.09,93.51z"/>
							</g>
						</g>
						<g style="clip-path:url(#SVGID_00000093139729517804214290000006076484099457130900_);">
							<g>
								<path class="st8" d="M198.46,95.54c-4.24,3.45-8.95,6.25-13.59,9.12c-4.8,2.97-9.4,6.24-14.01,9.49
									c-4.82,3.39-9.63,6.8-14.38,10.28c-4.55,3.33-8.9,7.03-13.8,9.83c-2.49,1.42-5.11,2.52-7.67,3.8
									c-2.68,1.33-5.34,2.84-8.33,3.29c-0.95,0.14-0.55,1.59,0.4,1.45c2.55-0.39,4.9-1.54,7.18-2.69
									c2.34-1.18,4.75-2.21,7.08-3.41c5.05-2.61,9.4-6.18,13.96-9.54c4.87-3.6,9.8-7.11,14.75-10.6
									c4.71-3.32,9.39-6.72,14.28-9.78c5.17-3.24,10.47-6.31,15.21-10.17C200.27,95.99,199.2,94.93,198.46,95.54L198.46,95.54z"/>
							</g>
						</g>
						<g style="clip-path:url(#SVGID_00000093139729517804214290000006076484099457130900_);">
							<g>
								<path class="st8" d="M202.83,97.57c-4.24,3.45-8.95,6.25-13.59,9.12c-4.8,2.97-9.4,6.24-14.01,9.49
									c-4.82,3.39-9.63,6.8-14.38,10.28c-4.55,3.33-8.9,7.03-13.8,9.83c-2.49,1.42-5.11,2.52-7.67,3.8
									c-2.68,1.33-5.34,2.84-8.33,3.29c-0.95,0.14-0.55,1.59,0.4,1.45c2.55-0.39,4.9-1.54,7.18-2.69
									c2.34-1.18,4.75-2.21,7.08-3.41c5.05-2.61,9.4-6.18,13.96-9.54c4.87-3.6,9.8-7.11,14.75-10.6
									c4.71-3.32,9.39-6.72,14.28-9.78c5.17-3.24,10.47-6.31,15.21-10.17C204.64,98.02,203.57,96.96,202.83,97.57L202.83,97.57z"
									/>
							</g>
						</g>
						<g style="clip-path:url(#SVGID_00000093139729517804214290000006076484099457130900_);">
							<g>
								<path class="st8" d="M180.98,87.42c-4.24,3.45-8.95,6.25-13.59,9.12c-4.8,2.97-9.4,6.24-14.01,9.49
									c-4.82,3.39-9.63,6.8-14.38,10.28c-4.55,3.33-8.9,7.03-13.8,9.83c-2.49,1.42-5.11,2.52-7.67,3.8
									c-2.68,1.33-5.34,2.84-8.33,3.29c-0.95,0.14-0.55,1.59,0.4,1.45c2.55-0.39,4.9-1.54,7.18-2.69
									c2.34-1.18,4.75-2.21,7.08-3.41c5.05-2.61,9.4-6.18,13.96-9.54c4.87-3.6,9.8-7.11,14.75-10.6
									c4.72-3.32,9.39-6.72,14.28-9.78c5.17-3.24,10.47-6.31,15.21-10.17C182.79,87.87,181.72,86.82,180.98,87.42L180.98,87.42z"
									/>
							</g>
						</g>
						<g style="clip-path:url(#SVGID_00000093139729517804214290000006076484099457130900_);">
							<g>
								<path class="st8" d="M176.61,85.39c-4.24,3.45-8.95,6.25-13.59,9.12c-4.8,2.97-9.4,6.24-14.01,9.49
									c-4.82,3.39-9.63,6.8-14.38,10.28c-4.55,3.33-8.9,7.03-13.8,9.83c-2.49,1.42-5.11,2.52-7.67,3.8
									c-2.68,1.33-5.34,2.84-8.33,3.29c-0.95,0.14-0.55,1.59,0.4,1.45c2.55-0.39,4.9-1.54,7.18-2.69
									c2.34-1.18,4.75-2.21,7.08-3.41c5.05-2.61,9.4-6.18,13.96-9.54c4.87-3.6,9.8-7.11,14.75-10.6
									c4.71-3.32,9.39-6.72,14.28-9.78c5.17-3.24,10.47-6.31,15.21-10.17C178.42,85.84,177.35,84.79,176.61,85.39L176.61,85.39z"
									/>
							</g>
						</g>
						<g style="clip-path:url(#SVGID_00000093139729517804214290000006076484099457130900_);">
							<g>
								<path class="st8" d="M172.24,83.36c-4.24,3.45-8.95,6.25-13.59,9.12c-4.8,2.97-9.4,6.24-14.01,9.49
									c-4.82,3.39-9.63,6.8-14.38,10.28c-4.55,3.33-8.9,7.03-13.8,9.83c-2.49,1.42-5.11,2.52-7.67,3.8
									c-2.68,1.33-5.34,2.84-8.33,3.29c-0.95,0.14-0.55,1.59,0.4,1.45c2.55-0.39,4.9-1.54,7.18-2.69
									c2.34-1.18,4.75-2.21,7.08-3.41c5.05-2.61,9.4-6.18,13.96-9.54c4.87-3.6,9.8-7.11,14.75-10.6
									c4.71-3.32,9.39-6.72,14.28-9.78c5.17-3.24,10.47-6.31,15.21-10.17C174.05,83.81,172.99,82.76,172.24,83.36L172.24,83.36z"
									/>
							</g>
						</g>
						<g style="clip-path:url(#SVGID_00000093139729517804214290000006076484099457130900_);">
							<g>
								<path class="st8" d="M185.35,89.45c-4.24,3.45-8.95,6.25-13.59,9.12c-4.8,2.97-9.4,6.24-14.01,9.49
									c-4.82,3.39-9.63,6.8-14.38,10.28c-4.55,3.33-8.9,7.03-13.8,9.83c-2.49,1.42-5.11,2.52-7.67,3.8
									c-2.68,1.33-5.34,2.84-8.33,3.29c-0.95,0.14-0.55,1.59,0.4,1.45c2.55-0.39,4.9-1.54,7.18-2.69
									c2.34-1.18,4.75-2.21,7.08-3.41c5.05-2.61,9.4-6.18,13.96-9.54c4.87-3.6,9.8-7.11,14.75-10.6
									c4.71-3.32,9.39-6.72,14.28-9.78c5.17-3.24,10.47-6.31,15.21-10.17C187.16,89.9,186.09,88.85,185.35,89.45L185.35,89.45z"/>
							</g>
						</g>
						<g style="clip-path:url(#SVGID_00000093139729517804214290000006076484099457130900_);">
							<g>
								<path class="st8" d="M189.72,91.48c-4.24,3.45-8.95,6.25-13.59,9.12c-4.8,2.97-9.4,6.24-14.01,9.49
									c-4.82,3.39-9.63,6.8-14.38,10.28c-4.55,3.33-8.9,7.03-13.8,9.83c-2.49,1.42-5.11,2.52-7.67,3.8
									c-2.68,1.33-5.34,2.84-8.33,3.29c-0.95,0.14-0.55,1.59,0.4,1.45c2.55-0.39,4.9-1.54,7.18-2.69
									c2.34-1.18,4.75-2.21,7.08-3.41c5.05-2.61,9.4-6.18,13.96-9.54c4.87-3.6,9.8-7.11,14.75-10.6
									c4.71-3.32,9.39-6.72,14.28-9.78c5.17-3.24,10.47-6.31,15.21-10.17C191.53,91.93,190.46,90.88,189.72,91.48L189.72,91.48z"
									/>
							</g>
						</g>
					</g>
				</g>
			</g>
			<g>
				<g>
					<path class="st4" d="M204.07,46.57c0,0,0.77-7.4,12.58-7.62s16.54,3.97,16.54,3.97s-2.57,11.29-15.77,10.74
						C204.22,53.11,204.07,46.57,204.07,46.57z"/>
					<g>
						<path d="M204.07,46.57c1.11-1.25,2.74-1.9,4.29-2.35c1.58-0.44,3.21-0.66,4.83-0.7c1.61-0.05,3.22,0.05,4.82,0.3
							c1.59,0.25,3.19,0.64,4.65,1.41l-9.41,0.29c-1.54,0.04-3.07,0.1-4.6,0.23C207.12,45.9,205.6,46.04,204.07,46.57z"/>
					</g>
				</g>
				<g>
					<path class="st4" d="M151.38,34.34c0,0,3.6-6.52-5.96-13.44s-15.84-6.19-15.84-6.19s-4.35,10.74,6.8,17.83
						C147.51,39.63,151.38,34.34,151.38,34.34z"/>
					<g>
						<path d="M151.38,34.34c-0.95-1.3-2.13-2.29-3.29-3.29c-1.18-0.98-2.4-1.9-3.64-2.82l-7.56-5.61c1.63,0.2,3.17,0.8,4.62,1.5
							c1.45,0.71,2.83,1.55,4.13,2.51c1.3,0.96,2.52,2.07,3.56,3.34C150.22,31.22,151.18,32.69,151.38,34.34z"/>
					</g>
				</g>
				<path class="st4" d="M185.66,111.35c0,0,13.87-21.8,16.19-31.61c3.42-14.51,4.57-36.12,4.57-36.12s6.29-3.49,7.53-8.95
					c1.25-5.46-2.94-4.99-5.34-3.13c-2.39,1.86-7.32,2.88-7.32,2.88s-2.91-5.39-17.66-8.93l-4.11-0.91
					c-10.72-2.59-18.13-0.62-18.13-0.62s-3.74-3.37-4.87-6.18s-4.51-5.34-6.19,0.01s1.99,11.53,1.99,11.53s-11.45,22.24-15.37,31.53
					c-3.92,9.29-5.83,34.81-5.83,34.81"/>
				<g>
					<path class="st5" d="M136.04,88.66c0,0-12.3-0.8-13.38,9.24c-1.33,12.34,5.6,24.14,30.31,26.17
						c24.71,2.03,34.51-9.24,36.6-16.49c2.2-7.63-2.88-10.49-8.69-13.14"/>
					<path d="M136.04,88.66c-2.59,0.07-5.17,0.65-7.43,1.75c-1.12,0.57-2.12,1.32-2.96,2.2l-0.55,0.72l-0.27,0.36l-0.21,0.4
						l-0.42,0.8c-0.1,0.28-0.18,0.57-0.28,0.86c-0.22,0.56-0.28,1.17-0.37,1.76c-0.13,0.58-0.08,1.24-0.12,1.86
						c-0.01,0.31-0.03,0.63-0.03,0.94l0.05,0.94c0.04,0.62,0.05,1.25,0.17,1.86c0.33,2.46,1.05,4.85,2.3,6.94
						c1.23,2.1,2.88,3.92,4.78,5.46c0.49,0.36,1.01,0.7,1.51,1.05c0.25,0.17,0.5,0.36,0.76,0.52l0.82,0.44
						c0.55,0.29,1.08,0.6,1.63,0.88l1.72,0.72c4.61,1.9,9.64,2.87,14.7,3.33c5.06,0.5,10.17,0.55,15.14-0.21
						c2.5-0.31,4.92-0.98,7.3-1.76c2.32-0.9,4.6-1.94,6.65-3.34c2.04-1.41,3.87-3.11,5.35-5.09c1.48-1.97,2.61-4.24,2.99-6.66
						c0.2-1.19,0.2-2.42-0.14-3.56c-0.33-1.15-1.02-2.19-1.88-3.09c-0.87-0.9-1.91-1.66-3-2.35c-1.08-0.7-2.22-1.32-3.37-1.93
						c2.41,0.95,4.87,1.93,6.94,3.68c1.03,0.87,1.9,2,2.41,3.32c0.51,1.32,0.62,2.75,0.5,4.12c-0.24,2.75-1.35,5.34-2.84,7.61
						c-1.49,2.28-3.45,4.22-5.6,5.87c-2.17,1.64-4.6,2.87-7.09,3.9c-2.53,0.91-5.12,1.7-7.76,2.1c-5.28,0.89-10.63,0.87-15.9,0.39
						c-5.25-0.54-10.54-1.55-15.51-3.71l-1.84-0.84c-0.6-0.32-1.18-0.68-1.77-1.01l-0.88-0.51c-0.29-0.18-0.56-0.4-0.84-0.6
						c-0.55-0.41-1.11-0.8-1.65-1.22c-2.1-1.77-3.9-3.94-5.17-6.38c-1.3-2.44-2.02-5.15-2.2-7.85c-0.09-0.67-0.07-1.35-0.06-2.02
						l0.01-1.01c0.02-0.34,0.06-0.67,0.09-1c0.08-0.67,0.07-1.32,0.26-2.01c0.15-0.68,0.25-1.37,0.57-2
						c0.14-0.32,0.26-0.65,0.41-0.96l0.56-0.89l0.28-0.44l0.35-0.39c0.23-0.26,0.46-0.52,0.7-0.77c1.03-0.92,2.2-1.65,3.45-2.14
						C130.78,88.7,133.45,88.42,136.04,88.66z"/>
				</g>
				<g>
					<path d="M140.16,105.19c-1.33-0.98-2.6-1.97-3.9-2.68c-0.65-0.32-1.32-0.6-1.8-0.55c-0.45,0.02-0.72,0.26-1.05,0.79
						c-0.32,0.56-0.47,1.1-0.38,1.58c0.07,0.49,0.46,1.01,0.98,1.49c1.08,0.94,2.53,1.66,4.01,2.38c-1.66,0.06-3.34-0.23-4.91-1.14
						c-0.77-0.45-1.55-1.18-1.89-2.27c-0.17-0.53-0.17-1.11-0.08-1.63c0.1-0.53,0.31-0.98,0.53-1.41c0.26-0.44,0.6-0.87,1.09-1.22
						c0.49-0.35,1.14-0.51,1.71-0.49c1.14,0.1,1.97,0.6,2.66,1.14C138.5,102.3,139.47,103.67,140.16,105.19z"/>
				</g>
				<g>
					<path d="M168.52,109.86c1.6-0.42,3.17-0.78,4.53-1.35c0.66-0.3,1.29-0.65,1.55-1.06c0.27-0.36,0.25-0.72,0.05-1.31
						c-0.24-0.6-0.56-1.06-0.99-1.29c-0.43-0.26-1.08-0.28-1.78-0.18c-1.41,0.25-2.89,0.93-4.37,1.62c1-1.33,2.28-2.45,3.97-3.1
						c0.84-0.32,1.9-0.46,2.95-0.05c0.52,0.2,0.97,0.57,1.32,0.97c0.35,0.41,0.57,0.86,0.76,1.3c0.18,0.47,0.31,1.01,0.26,1.61
						c-0.04,0.6-0.32,1.21-0.69,1.64c-0.79,0.83-1.7,1.16-2.55,1.35C171.81,110.38,170.13,110.28,168.52,109.86z"/>
				</g>
				<path d="M147.41,62.65L147.41,62.65c-1.49-0.44-2.34-2-1.91-3.49l1.36-4.63c0.44-1.49,2-2.34,3.49-1.91l0,0
					c1.49,0.44,2.34,2,1.91,3.49l-1.36,4.63C150.46,62.23,148.9,63.09,147.41,62.65z"/>
				<path d="M162.1,66.96L162.1,66.96c-1.49-0.44-2.34-2-1.91-3.49l1.36-4.63c0.44-1.49,2-2.34,3.49-1.91h0
					c1.49,0.44,2.34,2,1.91,3.49l-1.36,4.63C165.15,66.54,163.59,67.39,162.1,66.96z"/>
			</g>
			<g>
				<g>
					<path d="M152.89,191.99c0,0-3.71-1.93-11.47,0.16c-7.75,2.09-9.38,9.78-9.38,9.78s5.65,0.98,14.62-1.01s9.63-5.41,9.63-5.41
						L152.89,191.99z"/>
				</g>
				<path class="st10" d="M165.52,147.2c0,0,4.64,17.56,2.6,27.4c-3.12,15.05-15.61,19.14-15.61,19.14"/>
			</g>
		</g>
	</g>
</g>
</svg>
