<?xml version="1.0" encoding="utf-8"?>
<!-- Generator: Adobe Illustrator 25.4.1, SVG Export Plug-In . SVG Version: 6.00 Build 0)  -->
<svg version="1.1" xmlns="http://www.w3.org/2000/svg" xmlns:xlink="http://www.w3.org/1999/xlink" x="0px" y="0px"
	 viewBox="0 0 300 300" style="enable-background:new 0 0 300 300;" xml:space="preserve">
<style type="text/css">
	.st0{fill:#108788;}
</style>
<g id="Capa_1">
	<g>
		<path class="st0" d="M-271.82,134.5c9.5-0.05,18.99-1.61,26.32-4.67c0.15-2.3,0.42-4.57,0.89-6.77
			c-15.47,1.89-32.68,0.42-44.77-4.65c-6.17-2.59-10.16-5.78-12.01-9.13c-2.01,1.13-3.78,2.32-5,3.57
			c-1.85,1.93-2.79,3.96-2.81,5.99c0,0.03,0.02,0.05,0.02,0.06c0,0.58,0.23,1.14,0.37,1.72c0.11,0.43,0.11,0.87,0.3,1.29
			c0.27,0.59,0.77,1.16,1.21,1.73c0.29,0.4,0.45,0.79,0.83,1.18v-0.01c0.55,0.58,1.35,1.13,2.08,1.68c0.06,0.05,0.11,0.09,0.18,0.14
			c-0.03-0.02-0.05-0.04-0.07-0.06c0.43,0.32,0.73,0.66,1.22,0.97c1.37,0.87,2.94,1.7,4.75,2.45c3.32,1.39,7.16,2.42,11.22,3.16
			C-282.24,134.05-277.05,134.53-271.82,134.5"/>
		<path class="st0" d="M-293.96,150.75c1.53,2.74,4.7,5.33,9.73,7.44c5.47,2.3,12.24,3.71,19.34,4.26
			c4.73,0.36,9.61,0.33,14.36-0.07c4.73-0.42,9.35-1.21,13.52-2.39v-0.01c-2.45-3.47-4.44-7.29-5.89-11.38
			C-257.68,153.72-277.9,154.45-293.96,150.75"/>
		<path class="st0" d="M-283.55,100.75c5.47,2.3,12.24,3.71,19.34,4.25c4.72,0.37,9.6,0.34,14.36-0.06
			c4.73-0.42,9.35-1.21,13.52-2.39c0.97-0.28,1.82-0.65,2.74-0.96c3.9-4.35,8.59-7.97,13.86-10.64c0.16-0.58,0.41-1.15,0.42-1.73
			c0.02-2.03-0.87-4.06-2.68-5.96c-1.82-1.9-4.55-3.68-8.19-5.2c-1.82-0.77-3.78-1.43-5.86-2c-4.15-1.13-8.75-1.88-13.48-2.24
			c-2.36-0.18-4.77-0.27-7.18-0.26c-4.81,0.03-9.63,0.43-14.15,1.23c-4.54,0.8-8.78,1.97-12.46,3.54
			C-298.05,84.58-298.12,94.65-283.55,100.75"/>
		<path class="st0" d="M-198.64,92.89c-22.07,0-40.01,17.94-40.01,40.01s17.94,40.01,40.01,40.01c22.07,0,40.01-17.94,40.01-40.01
			S-176.57,92.89-198.64,92.89 M-201.5,126.27c0.86,0.89,2.24,1.74,4.16,2.56c1.91,0.82,3.73,1.66,5.42,2.53
			c1.7,0.88,3.16,1.87,4.4,2.98c1.23,1.12,2.2,2.41,2.9,3.89c0.7,1.48,1.05,3.26,1.05,5.33c0,3.52-1.12,6.39-3.35,8.61
			c-2.22,2.22-5.27,3.52-9.12,3.89v6.2h-4.91v-6.24c-4.48-0.47-7.93-2-10.32-4.61c-2.4-2.6-3.59-6.03-3.59-10.29h10.39
			c0,2.34,0.53,4.13,1.57,5.35c1.03,1.23,2.51,1.84,4.43,1.84c1.39,0,2.49-0.42,3.29-1.25c0.8-0.84,1.2-1.98,1.2-3.44
			c0-1.62-0.4-2.91-1.2-3.83c-0.8-0.92-2.21-1.8-4.23-2.62c-2.01-0.82-3.88-1.65-5.58-2.5c-1.71-0.85-3.17-1.82-4.41-2.92
			c-1.24-1.12-2.19-2.4-2.84-3.86c-0.66-1.47-0.99-3.23-0.99-5.31c0-3.47,1.17-6.34,3.52-8.59c2.35-2.25,5.47-3.56,9.38-3.93v-6.51
			h4.9v6.63c3.77,0.55,6.72,2.1,8.88,4.64c2.15,2.55,3.22,5.77,3.22,9.67h-10.43c0-2.13-0.41-3.78-1.24-4.93
			c-0.82-1.15-1.99-1.73-3.52-1.73c-1.36,0-2.41,0.43-3.16,1.28c-0.75,0.86-1.13,2.03-1.13,3.53
			C-202.8,124.17-202.36,125.38-201.5,126.27"/>
		<path class="st0" d="M-242.35,5.01c-79.95,0-145,65.04-145,144.99s65.04,145,145,145s145-65.05,145-145S-162.4,5.01-242.35,5.01
			 M-161.92,215.48c-42.65,6.45-69.6,32.85-69.86,33.12c-1.03,1.02-2.36,1.53-3.71,1.53s-2.69-0.52-3.73-1.55
			c-2.04-2.06-2.04-5.38,0.02-7.43c1.19-1.18,29.69-29.1,75.7-36.07c2.88-0.41,5.55,1.54,5.99,4.41
			C-157.07,212.36-159.05,215.04-161.92,215.48 M-303.88,227.43c-0.73,0.33-1.49,0.5-2.24,0.5c-1.97,0-3.86-1.12-4.75-3.02
			c-1.24-2.63-0.11-5.76,2.52-6.98c3.18-1.5,78.8-36.57,163.63-31.61c2.9,0.17,5.1,2.65,4.94,5.54c-0.17,2.91-2.7,5.12-5.54,4.95
			C-227.55,191.99-303.13,227.07-303.88,227.43 M-183.62,177.42c-4.71,1.6-9.76,2.5-15.01,2.5c-5.39,0-10.55-0.95-15.37-2.63
			c-6.35,0.18-12.65,0.47-18.86,0.88c-9.72,2.67-21.24,3.63-32.24,2.92c-47.58,5.54-83.8,14.91-84.45,15.08
			c-0.45,0.12-0.9,0.18-1.35,0.18c-2.32,0-4.45-1.56-5.07-3.92c-0.74-2.8,0.94-5.67,3.75-6.41c2.15-0.56,25.45-6.59,58.73-11.79
			c-6.5-3.44-9.8-7.64-9.83-11.86l-0.13-14.47c-0.22-0.08-0.47-0.15-0.68-0.23c-8.84-3.7-13.27-8.58-13.3-13.5l-0.12-15.13
			c0,0.3,0.06,0.61,0.1,0.91c-0.63-5.31,3.83-10.75,13.47-14.84c0.42-0.18,0.91-0.3,1.34-0.47l-0.13-14.83c0,0.3,0.07,0.6,0.11,0.9
			c-0.64-5.31,3.83-10.74,13.48-14.84c17.96-7.65,47.07-7.79,64.89-0.33c7.99,3.35,12.34,7.67,13.14,12.1
			c3.99-1.11,8.18-1.74,12.52-1.74c25.93,0,47.02,21.09,47.02,47.02c0,13.89-6.1,26.37-15.72,34.98
			c10.64,0.89,21.16,2.24,31.39,4.19c2.85,0.54,4.73,3.3,4.18,6.14c-0.54,2.85-3.32,4.69-6.14,4.18
			C-152.62,179.59-168.06,178.05-183.62,177.42"/>
	</g>
	<g>
		<path class="st0" d="M-242.34,5.01c-79.95,0-145,65.04-145,145c0,79.94,65.05,144.99,145,144.99c79.94,0,145-65.04,145-144.99
			C-97.35,70.05-162.4,5.01-242.34,5.01 M-245.8,95.18v0.11c0,11.1-8.76,20.19-20.8,20.19c-12.05,0-20.7-8.98-20.7-20.08v-0.11
			c0-11.1,8.76-20.19,20.8-20.19C-254.45,75.11-245.8,84.09-245.8,95.18 M-327.35,95.29c0-11.1,8.37-20.19,20.36-20.19
			c5.84,0,9.81,1.57,13.04,3.97c0.89,0.66,1.68,1.89,1.68,3.4c0,2.34-1.9,4.18-4.24,4.18c-1.17,0-1.95-0.44-2.56-0.84
			c-2.41-1.78-4.91-2.78-7.97-2.78c-6.58,0-11.33,5.46-11.33,12.15v0.11c0,6.69,4.63,12.27,11.33,12.27c3.62,0,6.02-1.13,8.48-3.07
			c0.66-0.55,1.56-0.94,2.56-0.94c2.17,0,4.02,1.78,4.02,3.96c0,1.34-0.67,2.4-1.47,3.06c-3.5,3.07-7.63,4.91-13.88,4.91
			c-11.49,0-20.02-8.87-20.02-20.08V95.29z M-293.09,154.65c0-11.1,8.37-20.19,20.34-20.19c5.86,0,9.81,1.57,13.05,3.97
			c0.89,0.66,1.66,1.89,1.66,3.4c0,2.34-1.89,4.18-4.23,4.18c-1.17,0-1.96-0.44-2.56-0.84c-2.4-1.78-4.9-2.78-7.97-2.78
			c-6.58,0-11.31,5.46-11.31,12.15v0.11c0,6.69,4.62,12.27,11.31,12.27c3.63,0,6.02-1.13,8.48-3.07c0.66-0.55,1.56-0.94,2.56-0.94
			c2.17,0,4.01,1.78,4.01,3.96c0,1.34-0.67,2.4-1.46,3.06c-3.51,3.07-7.64,4.91-13.89,4.91c-11.48,0-20-8.87-20-20.08V154.65z
			 M-269.04,198.55c0-2.4,1.9-4.29,4.29-4.29h0.89c2.07,0,3.29,1,4.46,2.5l16.56,21.75v-20.13c0-2.33,1.89-4.23,4.24-4.23
			c2.34,0,4.23,1.9,4.23,4.23v31.06c0,2.4-1.89,4.3-4.29,4.3h-0.28c-2.08,0-3.3-1.01-4.47-2.52l-17.16-22.52v20.91
			c0,2.34-1.9,4.23-4.24,4.23c-2.33,0-4.23-1.89-4.23-4.23V198.55z M-241.61,158.49v11.71c0,2.4-1.89,4.3-4.29,4.3
			c-2.41,0-4.3-1.9-4.3-4.3v-31.11c0-2.4,1.89-4.3,4.3-4.3c2.4,0,4.29,1.9,4.29,4.3v11.49h15.83v-11.49c0-2.4,1.9-4.3,4.29-4.3
			c2.4,0,4.29,1.9,4.29,4.3v31.11c0,2.4-1.89,4.3-4.29,4.3c-2.39,0-4.29-1.9-4.29-4.3v-11.71H-241.61z M-231.84,94.47
			c-1.56,0-2.66,0.67-4.04,2.17c-0.36,0.39-1.01,0.78-1.85,0.78c-1.39,0-2.5-1.11-2.5-2.49c0-0.61,0.25-1.25,0.64-1.71
			c1.99-2.32,4.35-3.66,8.11-3.66c5.16,0,8.57,3.03,8.57,7.69v0.06c0,4.16-2.13,6.23-6.54,9.64l-4.05,3.13h8.66
			c1.33,0,2.4,1.06,2.4,2.38c0,1.32-1.07,2.34-2.4,2.34h-13.5c-1.72,0-2.96-0.96-2.96-2.59c0-1.07,0.5-1.99,1.42-2.73l7.08-5.8
			c3.1-2.52,4.31-3.91,4.31-5.97C-228.49,95.61-229.88,94.47-231.84,94.47 M-218.68,213.17c-1.56,0-2.66,0.67-4.04,2.17
			c-0.36,0.39-1,0.78-1.86,0.78c-1.38,0-2.48-1.11-2.48-2.49c0-0.61,0.25-1.25,0.64-1.71c1.98-2.32,4.35-3.66,8.1-3.66
			c5.17,0,8.57,3.03,8.57,7.68v0.07c0,4.16-2.13,6.23-6.54,9.64l-4.05,3.13h8.68c1.31,0,2.38,1.06,2.38,2.38s-1.07,2.34-2.38,2.34
			h-13.52c-1.72,0-2.95-0.96-2.95-2.59c0-1.07,0.5-1.99,1.42-2.74l7.09-5.79c3.09-2.53,4.29-3.91,4.29-5.98
			C-215.34,214.31-216.72,213.17-218.68,213.17 M-211.23,166.26c0-1.13,0.46-2.02,1.27-2.98l10.81-12.55
			c1.03-1.22,1.82-1.85,3.41-1.85c1.46,0,2.63,1.13,2.63,2.59v12.88h1.32c1.25,0,2.23,1,2.23,2.23c0,1.25-0.99,2.21-2.23,2.21h-1.32
			v2.98c0,1.46-1.17,2.59-2.63,2.59c-1.46,0-2.6-1.13-2.6-2.59v-2.98h-10.24C-210.03,168.8-211.23,167.73-211.23,166.26
			 M-204.53,214c0-11.1,8.76-20.19,20.8-20.19c12.05,0,20.69,8.98,20.69,20.08V214c0,11.1-8.76,20.19-20.79,20.19
			c-12.06,0-20.7-8.98-20.7-20.08V214z"/>
		<path class="st0" d="M-183.73,226.26c6.92,0,11.73-5.47,11.73-12.15v-0.12c0-6.69-4.91-12.26-11.82-12.26
			c-6.92,0-11.73,5.46-11.73,12.15v0.11C-195.55,220.68-190.64,226.26-183.73,226.26"/>
		<polygon class="st0" points="-198.34,156.6 -204.95,164.35 -198.34,164.35 		"/>
		<path class="st0" d="M-278.31,95.19v0.11c0,6.69,4.9,12.26,11.82,12.26c6.91,0,11.71-5.46,11.71-12.15V95.3
			c0-6.7-4.91-12.27-11.81-12.27C-273.51,83.03-278.31,88.5-278.31,95.19"/>
	</g>
	<g>
		<path class="st0" d="M-259.98,118.16l-1.37,0.86l-1.37-0.86c-1.92-1.2-3.98-1.81-5.82-1.81c-1.5,0-2.85,0.42-3.87,1.25
			c-2.05,1.72-1.99,4.91-1.96,6.45c0.03,2.27,0.7,4.57,1.75,6.56h22.49c1.05-1.99,1.73-4.29,1.77-6.56
			c0.03-1.54,0.09-4.74-1.97-6.45C-252.53,115.76-256.51,115.99-259.98,118.16"/>
		<path class="st0" d="M-239.85,144.89c-4.21,0-7.61,3.4-7.61,7.61v56.97c0,4.2,3.4,7.6,7.61,7.6c4.21,0,7.6-3.4,7.6-7.6V152.5
			C-232.25,148.29-235.65,144.89-239.85,144.89"/>
		<path class="st0" d="M-202.05,144.92c-4.19-0.39-7.9,2.68-8.29,6.86l-9.51,56.97c-0.39,4.19,2.68,7.9,6.86,8.28
			c0.24,0.03,0.49,0.04,0.72,0.04c3.88,0,7.21-2.95,7.57-6.9l9.5-56.97C-194.8,149.03-197.86,145.32-202.05,144.92"/>
		<path class="st0" d="M-277.88,144.92c-4.18,0.4-7.25,4.11-6.86,8.29l9.51,56.97c0.37,3.95,3.68,6.9,7.56,6.9
			c0.25,0,0.48-0.01,0.72-0.04c4.19-0.39,7.26-4.1,6.86-8.28l-9.5-56.97C-269.99,147.6-273.68,144.53-277.88,144.92"/>
		<path class="st0" d="M-199.83,124.48c-1.34,0.37-2.8,0.56-4.31,0.56c-4.1,0-8.52-1.48-11.45-5.18
			c-4.81-6.04-2.08-13.64-1.96-13.96c0.54-1.47,1.42-3.1,2.85-4.67c-1.64,0.04-3.37,0.16-5.23,0.54c-9.4,1.97-15.53,8.25-21.8,22.41
			c-1.02,2.28-1.43,4.41-1.39,6.41h57.82c0.27-2.68,0.26-9.06-3.75-15.55C-191.56,119.79-195.38,123.27-199.83,124.48"/>
		<path class="st0" d="M-241.47,71.34h13.44h8.11c1.08,0,1.55-0.38,1.83-1.45c0.2-0.79,0.1-1.49-0.28-1.97
			c-0.37-0.48-0.98-0.73-1.77-0.73c-2.65,0-5.28,0-7.91,0c-4.55,0-9.1,0-13.65,0.01c-0.3,0-0.64,0.07-0.85,0.2
			c-0.73,0.42-1.06,1.59-0.76,2.67C-243.04,70.98-242.52,71.34-241.47,71.34"/>
		<path class="st0" d="M-264.31,109.63c0,0,2.04-4.57-3.47-6.59C-267.78,103.04-269.66,107.54-264.31,109.63"/>
		<path class="st0" d="M-222.11,75.79L-222.11,75.79c-5.79,0.04-11.52,0.03-17.05-0.01h-0.03c-0.63,0-0.76,0.21-0.87,0.48
			l-0.18,0.47c-0.58,1.47-1.17,2.99-1.69,4.51c-0.25,0.76-0.43,1.53-0.62,2.35c-0.03,0.1-0.06,0.19-0.07,0.3h23.78v-0.01
			c-0.1-0.51-0.2-1-0.37-1.46c-0.72-2.09-1.46-4.17-2.23-6.24C-221.52,75.96-221.61,75.79-222.11,75.79"/>
		<path class="st0" d="M-201.19,119.51c4.43-1.2,7.43-5.56,8.76-9.24c1.25-3.46,1.32-6.91,0.18-8.56c-0.13-0.18-0.28-0.35-0.44-0.51
			c-1.59-0.57-3.72-1.11-6.19-1.11c-1.01,0-2.09,0.09-3.21,0.31c-5.62,1.11-9.28,3.63-10.62,7.28c-0.02,0.06-1.85,5.2,1.15,8.99
			C-209.01,119.88-204.38,120.38-201.19,119.51"/>
		<path class="st0" d="M-242.35,5.01c-79.94,0-145,65.04-145,144.99c0,79.94,65.05,145,145,145c79.95,0,145-65.05,145-145
			C-97.35,70.05-162.4,5.01-242.35,5.01 M-188.36,223.23c-0.8,8.55-7.98,15.09-16.57,15.09h-69.86c-8.59,0-15.77-6.54-16.56-15.09
			l-12.86-92.62h26.04c-0.8-2.12-1.3-4.34-1.34-6.46c-0.04-1.97-0.15-7.21,3.82-10.51c1.85-1.53,4.18-2.33,6.71-2.42
			c-1.18-1.03-1.92-2.14-2.32-3.05c-1.35-3.18-0.28-6.07-0.05-6.62l1.42-3.4l3.48,1.27c3.51,1.28,5.06,3.45,5.73,5.04
			c0.29,0.69,0.42,1.36,0.52,2c0.75-0.88,1.61-1.73,2.77-2.51c0.87-0.6,2.07-0.38,2.68,0.51c0.61,0.89,0.38,2.09-0.52,2.68
			c-2.3,1.58-3.34,3.46-3.83,5.06c3.09-1.07,6.23-1.25,8.89-0.32c0.02-2.37-0.01-4.71,0.03-7.08c0.05-3.37,0.52-6.74,0.93-9.31
			c0.72-4.51,1.6-9.12,2.6-13.73c0.37-1.65,0.9-3.22,1.46-4.88c0.18-0.58,0.4-1.17,0.57-1.76c-1.89-1.07-3.01-2.86-3.23-5.21
			c-0.19-1.95,0.43-3.86,1.71-5.25c1.16-1.26,2.76-1.97,4.52-1.97h0.04c5.33,0.04,10.65,0.03,15.99,0.02l5.81-0.01h0.01
			c3.12,0,5.69,2.25,6.13,5.36c0.42,3.09-0.6,5.3-3.3,7.09c1.13,2.44,1.98,5.19,2.56,8.17c0.86,4.53,1.59,8.87,2.22,12.79
			c1.63,0.09,3.09,0.32,4.44,0.59c1.39-0.53,2.88-1.01,4.62-1.36c4.09-0.8,7.69-0.3,10.44,0.47l3.3-3.05c0,0-1.25-3.85,0.91-5.49
			c0.7-0.54,1.63-0.83,2.57-0.83c1.97,0,3.97,1.29,3.94,4.39c0,0,5.03,1.13,3.94,5.63c-0.53,2.21-2.04,2.92-3.5,2.92
			c-1.5,0-2.96-0.76-3.23-1.39l-2.6,2.28c1.08,2.44,1.25,5.54,0.48,8.96c6.62,8.22,7.02,17.07,6.69,21.38h4.65L-188.36,223.23z
			 M-299.77,105.47l0.84,1.11l-1.25,0.61c-1.81,0.89-3.5,1.3-5.06,1.39c-6.74,0.4-11.06-5.16-11.12-5.22l-0.85-1.12l1.27-0.61
			C-315.84,101.59-306.2,97.02-299.77,105.47 M-312.89,84.95l0.18-1.37l1.32,0.45c0.1,0.04,10.14,3.62,8.71,14.14l-0.18,1.38
			l-1.33-0.45C-314.23,95.65-312.91,85.06-312.89,84.95 M-291.59,114.95l-1.12,0.85l-0.61-1.26c-4.65-9.54,3.75-16.09,3.85-16.16
			l1.11-0.84l0.61,1.25C-287.7,98.87-283.14,108.52-291.59,114.95 M-283.63,107.82l1.11-0.84l0.61,1.25
			c0.05,0.09,4.61,9.73-3.85,16.16l-1.11,0.84l-0.61-1.25C-292.13,114.45-283.73,107.9-283.63,107.82 M-297.42,105.49l-1.11,0.85
			l-0.61-1.26c-4.67-9.54,3.75-16.1,3.83-16.16l1.12-0.84l0.61,1.25C-293.53,89.42-288.96,99.06-297.42,105.49 M-310.11,111.09
			c0.09-0.06,9.73-4.61,16.16,3.84l0.84,1.12l-1.25,0.61c-1.8,0.88-3.49,1.29-5.05,1.38c-6.74,0.4-11.07-5.16-11.12-5.22l-0.84-1.12
			L-310.11,111.09z M-304.28,120.55c0.1-0.05,9.73-4.61,16.16,3.84l0.84,1.12l-1.25,0.61c-1.79,0.88-3.49,1.29-5.05,1.38
			c-6.73,0.4-11.06-5.15-11.12-5.22l-0.83-1.12L-304.28,120.55z"/>
	</g>
	<g>
		<path class="st0" d="M-242.36,5c-80.07,0-144.98,64.91-144.98,145c0,80.07,64.9,145,144.98,145c80.09,0,145-64.92,145-145
			C-97.36,69.92-162.27,5-242.36,5z M-216.59,75.4c2.64-2.64,5.79-3.95,9.49-3.95c3.67,0,6.85,1.31,9.47,3.95
			c2.63,2.64,3.96,5.8,3.96,9.48c0,3.69-1.33,6.86-3.96,9.48c-2.63,2.64-5.8,3.95-9.47,3.95c-3.7,0-6.85-1.31-9.49-3.95
			c-2.64-2.63-3.95-5.79-3.95-9.48C-220.54,81.2-219.23,78.04-216.59,75.4z M-297.51,75.4c2.64-2.64,5.79-3.95,9.48-3.95
			c3.68,0,6.85,1.31,9.47,3.95c2.63,2.63,3.95,5.75,3.95,9.33c0,3.79-1.32,7.01-3.95,9.64c-2.63,2.64-5.79,3.95-9.47,3.95
			c-3.69,0-6.85-1.31-9.48-3.95c-2.64-2.63-3.95-5.79-3.95-9.48C-301.46,81.2-300.15,78.04-297.51,75.4z M-258.48,156.8
			c0,2.32-0.84,4-2.52,5.06c-1.7,1.05-3.33,1.05-4.91,0c-1.57-1.05-2.36-2.74-2.36-5.06v-36.67h-3.16v101.79
			c0,4.43-2.17,6.64-6.49,6.64c-4.32,0-6.47-2.21-6.47-6.64v-59.74h-6.64v59.74c0,4.43-2.18,6.64-6.48,6.64
			c-4.33,0-6.49-2.21-6.49-6.64V120.12h-3.15v38.89c0,1.89-0.8,3.27-2.38,4.11c-1.58,0.85-3.21,0.85-4.89,0
			c-1.7-0.84-2.55-2.21-2.55-4.11v-42.04c0-4.43,1.54-7.69,4.59-9.8c3.04-2.1,7-3.16,11.85-3.16h25.92c5.06,0,9.01,1.16,11.85,3.48
			c2.86,2.32,4.27,5.58,4.27,9.8V156.8z M-168.54,154.58c-0.53,1.9-1.43,2.85-2.69,2.85c-3.58,0-5.9-1.16-6.95-3.48l-12.97-33.83
			c-0.2-0.84-0.63-1.25-1.25-1.25c-1.06,0-1.58,0.53-1.58,1.58c0,0.21,0.1,0.42,0.31,0.64l18.96,52.47v4.11
			c0,0.42-0.42,1.16-1.26,2.21c-0.84,1.05-1.58,1.59-2.21,1.59h-12.33v40.46c0,1.68-0.64,3.21-1.89,4.59
			c-1.26,1.37-2.8,2.06-4.59,2.06c-1.79,0-3.31-0.69-4.58-2.06c-1.26-1.37-1.9-2.91-1.9-4.59v-42.04c0-0.21-0.53-0.37-1.59-0.47
			c-1.04-0.11-2.15-0.11-3.3,0c-1.16,0.1-1.74,0.26-1.74,0.47v42.36c0,1.69-0.64,3.16-1.9,4.43c-1.26,1.26-2.73,1.9-4.42,1.9
			c-1.7,0-3.22-0.64-4.59-1.9c-1.37-1.26-2.06-2.74-2.06-4.43v-40.77h-12.02c-0.42,0-1.15-0.54-2.21-1.59
			c-1.05-1.05-1.58-1.79-1.58-2.21v-4.11l18.65-52.79v-0.31c0-0.84-0.42-1.26-1.26-1.26c-0.63,0-1.05,0.32-1.26,0.94l-12.65,34.15
			c-0.63,2.1-2.94,3.16-6.96,3.16c-1.26,0-2.21-0.9-2.83-2.69c-0.64-1.79-0.74-3-0.31-3.64l12.32-32.87
			c0.65-3.79,2.69-7.11,6.16-9.95c3.48-2.84,7.43-4.27,11.86-4.27h16.75c4.44,0,8.33,1.37,11.7,4.11c3.38,2.74,5.27,6.11,5.69,10.11
			l13.27,32.56C-167.76,151.42-168.02,152.69-168.54,154.58z"/>
	</g>
	<g>
		<path class="st0" d="M-217.32,93.87c0.97,0,1.75-0.78,1.75-1.74l-9.55-9.56c-0.97,0-1.75,0.78-1.75,1.75
			C-226.87,89.59-222.59,93.87-217.32,93.87"/>
		<path class="st0" d="M-256.23,141.97c0.96,0,1.74-0.78,1.74-1.75l-18.26-18.27c-0.97,0-1.75,0.78-1.75,1.75
			C-274.5,133.78-266.3,141.97-256.23,141.97"/>
		<g>
			<path class="st0" d="M-242.34,6.65c-79.05,0-143.36,64.3-143.36,143.35c0,79.05,64.31,143.35,143.36,143.35
				c79.04,0,143.35-64.31,143.35-143.35C-98.99,70.95-163.3,6.65-242.34,6.65 M-294.26,226.43c-0.63,0.3-1.32,0.45-2,0.45
				c-1.84,0-3.52-1.07-4.31-2.73c-0.54-1.15-0.61-2.44-0.18-3.64c0.43-1.19,1.3-2.15,2.46-2.68c0.66-0.32,67.88-31.68,141.94-27.43
				c2.61,0.16,4.61,2.41,4.46,5.02c-0.15,2.58-2.2,4.47-4.8,4.47c-0.06,0-0.11,0-0.17,0C-228.3,195.78-293.6,226.12-294.26,226.43
				 M-167.26,210.68c0.2,1.25-0.11,2.5-0.87,3.52c-0.75,1.02-1.85,1.69-3.12,1.88c-36.77,5.56-60.22,28.43-60.44,28.66
				c-0.91,0.9-2.1,1.39-3.35,1.39c-1.26,0-2.47-0.5-3.38-1.4c-0.89-0.89-1.38-2.09-1.38-3.36c0-1.27,0.51-2.46,1.4-3.36
				c1.01-1.02,25.4-25.22,65.73-31.33c1.25-0.18,2.48,0.09,3.5,0.84C-168.14,208.27-167.45,209.42-167.26,210.68 M-333.86,199.35
				c-0.43,0.11-0.82,0.16-1.22,0.16c-2.14,0-4.04-1.46-4.6-3.54c-0.66-2.55,0.86-5.15,3.4-5.8c1.05-0.28,106.55-27.59,187.56-12.09
				h0.01c2.56,0.5,4.25,2.99,3.76,5.55c-0.23,1.25-0.94,2.33-1.98,3.05c-1.06,0.71-2.29,0.98-3.57,0.73
				C-230.03,172.23-332.84,199.08-333.86,199.35 M-257.64,75.6l1.41-1.9l1.4,1.9c1.03,1.4,25.37,34.5,25.37,48.73
				c0,14.76-12.01,26.77-26.77,26.77c-14.77,0-26.77-12.01-26.77-26.77C-283,110.1-258.67,77-257.64,75.6 M-232.95,84.67
				c0-8.02,12.77-25.53,14.23-27.49l1.4-1.9l1.41,1.9c1.45,1.97,14.23,19.48,14.23,27.49c0,8.63-7.02,15.63-15.64,15.63
				C-225.94,100.3-232.95,93.3-232.95,84.67"/>
		</g>
	</g>
	<g>
		<path class="st0" d="M205.16,201.44c-1.61-1.01-3.74-0.52-4.74,1.1l-15.62,25.08l-8.89-10.86c-1.2-1.47-3.37-1.69-4.84-0.48
			c-1.47,1.2-1.69,3.38-0.48,4.84l11.94,14.58c0.65,0.8,1.63,1.26,2.66,1.26c0.07,0,0.15,0,0.22-0.01c1.11-0.06,2.12-0.67,2.7-1.61
			l18.16-29.15C207.26,204.57,206.76,202.44,205.16,201.44"/>
		<path class="st0" d="M150,5.01c-79.95,0-145,65.04-145,145c0,79.94,65.04,144.99,145,144.99S294.99,229.95,294.99,150
			C294.99,70.05,229.96,5.01,150,5.01 M187.23,250.01c-11.74,0-21.99-6.28-27.74-15.62h-42.32c-12.75,0-23.12-10.37-23.12-23.11
			v-62.92h-0.59H82.15c-4.2-0.01-6.28-2.12-6.34-6.31c-0.07-5.22,0.03-10.41,1.92-15.4c4-10.52,13.17-17.88,24.16-19.53l7.79,8.83
			l7.78-8.81c1.75,0.26,3.51,0.64,5.22,1.24c4.02,1.39,7.58,3.64,10.63,6.4h36.65c12.74,0,23.11,10.37,23.11,23.12v47.38
			c15.22,2.77,26.81,16.06,26.81,32.07C219.88,235.36,205.24,250.01,187.23,250.01 M86.37,96.62c0.64-0.52,1.25-0.98,1.84-1.48
			c2.61-2.24,3.81-5.22,4.23-8.53c0.35-2.77,0.75-5.78,0.91-8.57c0.06-0.91,0.13-1.68,0.21-2.38c0.64-8.32,7.68-14.91,16.27-14.91
			h0.06c8.19,0.02,14.96,5.83,16.3,13.45c0.01,0.06,0.04,0.1,0.05,0.16c0.03,0.17,0.04,0.35,0.05,0.52
			c0.04,0.24,0.06,0.48,0.09,0.72c0.16,1.84,0.06,3.9,0.11,5.62c0.13,4.57,1.37,8.75,4.26,12.35c0.76,0.93,1.45,1.9,2.25,2.95
			c0,0-8.14,5.33-23.02,5.33C95.08,101.85,86.37,96.62,86.37,96.62"/>
		<path class="st0" d="M169.08,142.19c-2.84,0-5.15-2.31-5.15-5.15v-17.1H137.9c3.38,4.83,5.44,10.59,5.62,16.72
			c0.06,1.98,0.06,3.97,0.03,5.96c-0.05,3.51-2.29,5.73-5.83,5.74c-4.03,0-8.05,0.01-12.09,0.01c-5.18,0-10.34-0.01-15.53-0.01h-0.4
			H99.22v62.93c0,9.9,8.05,17.94,17.95,17.94h39.71c-1.44-3.69-2.31-7.68-2.31-11.87c0-4.34,0.88-8.46,2.43-12.25h-38.86
			c-1.43,0-2.58-1.15-2.58-2.58c0-1.42,1.15-2.58,2.58-2.58h41.56c5.8-9.12,15.93-15.24,27.53-15.24c0.22,0,0.44,0.06,0.67,0.07
			v-42.58H169.08z M168.99,184.6h-50.85c-1.43,0-2.58-1.15-2.58-2.58s1.15-2.58,2.58-2.58h50.85c1.42,0,2.58,1.15,2.58,2.58
			S170.41,184.6,168.99,184.6z M168.99,164.09h-50.85c-1.43,0-2.58-1.15-2.58-2.58c0-1.43,1.15-2.58,2.58-2.58h50.85
			c1.42,0,2.58,1.15,2.58,2.58C171.57,162.94,170.41,164.09,168.99,164.09z"/>
	</g>
</g>
<g id="Layer_1">
</g>
<g id="Icons">
</g>
<g id="Modo_de_aislamiento">
</g>
</svg>
