<?xml version="1.0" encoding="utf-8"?>
<!-- Generator: Adobe Illustrator 25.4.1, SVG Export Plug-In . SVG Version: 6.00 Build 0)  -->
<svg version="1.1" xmlns="http://www.w3.org/2000/svg" xmlns:xlink="http://www.w3.org/1999/xlink" x="0px" y="0px"
	 viewBox="0 0 300 300" style="enable-background:new 0 0 300 300;" xml:space="preserve">
<style type="text/css">
	.st0{fill:#FFFFFF;}
</style>
<g id="Capa_1">
	<path class="st0" d="M150,5C69.92,5,5,69.92,5,150s64.92,145,145,145s145-64.92,145-145S230.08,5,150,5z M150,286.39
		c-75.33,0-136.39-61.06-136.39-136.39S74.67,13.61,150,13.61S286.39,74.67,286.39,150S225.33,286.39,150,286.39z"/>
</g>
<g id="Layer_1">
</g>
<g id="Icons">
</g>
<g id="Modo_de_aislamiento">
	<g>
		<g>
			<path class="st0" d="M150.65,64.62c-1.11,0-2.13,0.62-2.65,1.6L77.19,200.24c-0.69,1.31-0.32,2.94,0.87,3.82
				c1.2,0.88,2.86,0.76,3.91-0.29c8.52-8.52,19.22-12.66,32.72-12.66c15.23,0,31.69,5.13,47.6,10.09
				c14.43,4.5,28.05,8.74,39.63,8.74c8.89,0,15.72-2.51,20.87-7.67c0.93-0.93,1.15-2.36,0.53-3.52L153.31,66.22
				C152.79,65.24,151.77,64.62,150.65,64.62z M216.92,199.47c-3.79,2.99-8.72,4.46-15,4.46c-10.66,0-23.87-4.11-37.84-8.47
				c-16.34-5.09-33.24-10.36-49.39-10.36c-9.89,0-18.46,2-25.92,6.08l33.8-63.97c2.15,0.89,4.47,1.36,6.84,1.36
				c3.79,0,7.4-1.17,10.43-3.35c3.02,2.17,6.64,3.35,10.43,3.35c3.79,0,7.41-1.17,10.43-3.35c3.02,2.17,6.64,3.35,10.43,3.35
				c2.61,0,5.15-0.56,7.48-1.64L216.92,199.47z M171.11,122.56c-3.13,0-6.09-1.21-8.33-3.4c-1.17-1.14-3.03-1.14-4.2,0
				c-2.24,2.19-5.2,3.4-8.33,3.4c-3.13,0-6.09-1.21-8.33-3.4c-1.17-1.14-3.03-1.14-4.2,0c-2.24,2.19-5.2,3.4-8.33,3.4
				c-1.38,0-2.74-0.24-4.02-0.7l25.26-47.82l25.13,47.56C174.32,122.23,172.73,122.56,171.11,122.56z"/>
			<path class="st0" d="M218.55,213.94c-4.91,4.91-11.91,6.69-22.02,5.6c-9.59-1.03-20.69-4.5-32.45-8.16
				c-13.94-4.34-28.35-8.84-42.4-10.05c-1.65-0.14-3.11,1.08-3.25,2.73c-0.14,1.65,1.08,3.11,2.73,3.25
				c13.4,1.16,27.49,5.55,41.13,9.8c14.23,4.44,27.99,8.72,39.68,8.72c8.14,0,15.26-2.08,20.83-7.65c1.17-1.17,1.17-3.07,0-4.25
				C221.63,212.77,219.72,212.77,218.55,213.94z"/>
			<path class="st0" d="M79.85,220.56c0.77,0,1.54-0.29,2.12-0.88c7.17-7.17,15.79-11.21,26.34-12.33c1.65-0.18,2.84-1.66,2.67-3.3
				c-0.18-1.65-1.65-2.84-3.3-2.67c-11.97,1.28-21.77,5.87-29.95,14.06c-1.17,1.17-1.17,3.07,0,4.25
				C78.31,220.27,79.08,220.56,79.85,220.56z"/>
			<path class="st0" d="M222.8,229.87c-1.17-1.17-3.07-1.17-4.25,0c-4.61,4.61-11,6.45-20.1,5.77c-8.96-0.66-19.49-3.74-29.52-6.83
				c-1.58-0.49-3.26,0.4-3.75,1.98c-0.49,1.58,0.4,3.26,1.98,3.75c10.35,3.19,21.26,6.37,30.85,7.08c1.33,0.1,2.62,0.15,3.86,0.15
				c8.91,0,15.79-2.52,20.93-7.66C223.97,232.94,223.97,231.04,222.8,229.87z"/>
			<path class="st0" d="M81.97,235.61c16.77-16.77,39.09-14.72,67.45-6.49c1.59,0.46,3.26-0.45,3.72-2.05
				c0.46-1.59-0.45-3.26-2.05-3.72c-26.31-7.64-53.41-11.95-73.37,8.01c-1.17,1.17-1.17,3.07,0,4.25c0.59,0.59,1.36,0.88,2.12,0.88
				C80.61,236.48,81.38,236.19,81.97,235.61z"/>
		</g>
		<path class="st0" d="M220.79,74.55c-9.36,0-16.97,7.61-16.97,16.97c0,9.36,7.62,16.97,16.97,16.97c9.36,0,16.97-7.62,16.97-16.97
			C237.76,82.17,230.15,74.55,220.79,74.55z M220.79,102.5c-6.05,0-10.97-4.92-10.97-10.97c0-6.05,4.92-10.97,10.97-10.97
			c6.05,0,10.97,4.92,10.97,10.97C231.76,97.57,226.84,102.5,220.79,102.5z"/>
		<path class="st0" d="M217.79,61.23v7.6c0,1.66,1.34,3,3,3c1.66,0,3-1.34,3-3v-7.6c0-1.66-1.34-3-3-3
			C219.13,58.23,217.79,59.57,217.79,61.23z"/>
		<path class="st0" d="M206.86,77.6c1.17-1.17,1.17-3.07,0-4.25l-5.37-5.37c-1.17-1.17-3.07-1.17-4.24,0
			c-1.17,1.17-1.17,3.07,0,4.25l5.37,5.37c0.59,0.59,1.36,0.88,2.12,0.88C205.51,78.48,206.27,78.18,206.86,77.6z"/>
		<path class="st0" d="M201.09,91.53c0-1.66-1.34-3-3-3h-7.6c-1.66,0-3,1.34-3,3c0,1.66,1.34,3,3,3h7.6
			C199.75,94.53,201.09,93.18,201.09,91.53z"/>
		<path class="st0" d="M199.36,115.95c0.77,0,1.54-0.29,2.12-0.88l5.37-5.37c1.17-1.17,1.17-3.07,0-4.24
			c-1.17-1.17-3.07-1.17-4.25,0l-5.37,5.37c-1.17,1.17-1.17,3.07,0,4.24C197.83,115.66,198.59,115.95,199.36,115.95z"/>
		<path class="st0" d="M220.79,111.22c-1.66,0-3,1.34-3,3v7.6c0,1.66,1.34,3,3,3c1.66,0,3-1.34,3-3v-7.6
			C223.79,112.57,222.45,111.22,220.79,111.22z"/>
		<path class="st0" d="M238.96,105.45c-1.17-1.17-3.07-1.17-4.25,0c-1.17,1.17-1.17,3.07,0,4.24l5.37,5.37
			c0.59,0.59,1.35,0.88,2.12,0.88c0.77,0,1.54-0.29,2.12-0.88c1.17-1.17,1.17-3.07,0-4.24L238.96,105.45z"/>
		<path class="st0" d="M251.09,88.52h-7.6l0,0c-1.66,0-3,1.34-3,3c0,1.66,1.35,3,3,3h7.6l0,0c1.66,0,3-1.34,3-3
			C254.09,89.87,252.74,88.52,251.09,88.52z"/>
		<path class="st0" d="M236.84,78.48c0.77,0,1.54-0.29,2.12-0.88l5.37-5.37c1.17-1.17,1.17-3.07,0-4.25c-1.17-1.17-3.07-1.17-4.24,0
			l-5.37,5.37c-1.17,1.17-1.17,3.07,0,4.25C235.3,78.18,236.07,78.48,236.84,78.48z"/>
		<path class="st0" d="M91.22,143.25c8.31,0,15.06-6.76,15.06-15.06c0-8.31-6.76-15.06-15.06-15.06c-0.25,0-0.49,0.01-0.74,0.02
			c-3.53-4.72-9.15-7.58-15.1-7.58c-7.19,0-13.73,4.13-16.88,10.47c-7.03,0.53-12.58,6.42-12.58,13.59
			c0,7.51,6.11,13.63,13.63,13.63H91.22z M51.92,129.63c0-4.2,3.42-7.62,7.62-7.62c0.2,0,0.42,0.01,0.67,0.03
			c1.36,0.12,2.62-0.69,3.08-1.97c1.83-5.08,6.68-8.49,12.08-8.49c4.51,0,8.74,2.41,11.05,6.3c0.64,1.08,1.89,1.65,3.13,1.42
			c0.56-0.1,1.12-0.16,1.67-0.16c4.99,0,9.06,4.06,9.06,9.06c0,4.99-4.06,9.06-9.06,9.06H59.54
			C55.34,137.25,51.92,133.83,51.92,129.63z"/>
		<path class="st0" d="M115.56,104.58c6.04,0,10.94-4.91,10.94-10.94c0-6.03-4.91-10.94-10.94-10.94
			c-2.53-3.11-6.38-4.98-10.43-4.98c-4.94,0-9.44,2.72-11.77,6.96c-4.88,0.66-8.66,4.85-8.66,9.91c0,5.51,4.48,10,10,10H115.56z
			 M90.7,94.58c0-2.2,1.79-4,3.99-4c0.1,0,0.22,0.01,0.36,0.02c1.36,0.11,2.62-0.69,3.08-1.97c1.06-2.94,3.87-4.91,6.99-4.91
			c2.65,0,5.04,1.36,6.39,3.64c0.64,1.08,1.89,1.65,3.13,1.42c0.31-0.06,0.61-0.08,0.91-0.08c2.72,0,4.94,2.22,4.94,4.94
			c0,2.72-2.22,4.94-4.94,4.94H94.7C92.5,98.57,90.7,96.78,90.7,94.58z"/>
	</g>
</g>
</svg>
