<?xml version="1.0" encoding="utf-8"?>
<!-- Generator: Adobe Illustrator 25.4.1, SVG Export Plug-In . SVG Version: 6.00 Build 0)  -->
<svg version="1.1" id="Capa_1" xmlns="http://www.w3.org/2000/svg" xmlns:xlink="http://www.w3.org/1999/xlink" x="0px" y="0px"
	 viewBox="0 0 290.1 272.9" style="enable-background:new 0 0 290.1 272.9;" xml:space="preserve">
<style type="text/css">
	.st0{fill:none;stroke:#000000;stroke-width:2;stroke-miterlimit:10;}
	.st1{fill:none;stroke:#000000;stroke-width:3;stroke-miterlimit:10;}
	.st2{fill:#FFFFFF;stroke:#000000;stroke-width:2;stroke-miterlimit:10;}
	.st3{fill:#FFFFFF;}
	.st4{clip-path:url(#SVGID_00000177478857803148248190000016536512417792230310_);}
	.st5{clip-path:url(#SVGID_00000046339279885088755620000000010592561579596935_);}
	.st6{fill:#2B2E31;}
	.st7{clip-path:url(#SVGID_00000063629242144969824890000000598755197957525401_);}
	.st8{clip-path:url(#SVGID_00000109742822541092810640000005654821563045645444_);}
	.st9{clip-path:url(#SVGID_00000159464038317579810410000011968545647792648837_);}
	.st10{clip-path:url(#SVGID_00000026845993910622560180000003339518244920759466_);}
	.st11{clip-path:url(#SVGID_00000072988159620439274580000014726119459665550009_);}
	.st12{clip-path:url(#SVGID_00000157270102731103793090000008502857630295442583_);}
	.st13{clip-path:url(#SVGID_00000007400731429814551940000009443511297164381371_);}
	.st14{clip-path:url(#SVGID_00000017487970263313469840000001007218473606708117_);}
	.st15{clip-path:url(#SVGID_00000133520452643196001410000005607172878543659966_);}
	.st16{clip-path:url(#SVGID_00000022543668870065704600000015067117942427966896_);}
	.st17{clip-path:url(#SVGID_00000100358733758158420200000004929471278180806299_);}
	.st18{clip-path:url(#SVGID_00000140735290864582187330000008351867764135636368_);}
	.st19{clip-path:url(#SVGID_00000078022423623794219660000013192156423620449967_);}
	.st20{clip-path:url(#SVGID_00000134946301075134105470000004758906179787222155_);}
	.st21{clip-path:url(#SVGID_00000134239678055961567470000015181791814044260227_);}
	.st22{clip-path:url(#SVGID_00000039114139845767612550000001574795456888546729_);}
	.st23{clip-path:url(#SVGID_00000013900487930273692550000005173490957449597630_);}
	.st24{clip-path:url(#SVGID_00000138546146030940993460000008062602685547959466_);}
	.st25{clip-path:url(#SVGID_00000096750300690653614690000000802946059521269888_);}
	.st26{clip-path:url(#SVGID_00000125605162602040908400000010532421018636699319_);}
	.st27{clip-path:url(#SVGID_00000157272313756505680610000015596792437607817631_);}
	.st28{clip-path:url(#SVGID_00000085955415579711131120000016980587263035004593_);}
	.st29{clip-path:url(#SVGID_00000093893131331287831320000013186060107763812245_);}
	.st30{clip-path:url(#SVGID_00000089546035020180970350000003905874390093320383_);}
	.st31{clip-path:url(#SVGID_00000173149949757032816340000006985427650684716725_);}
	.st32{clip-path:url(#SVGID_00000012458664361876190640000015173400045026416819_);}
	.st33{clip-path:url(#SVGID_00000138563013331147179410000005156896197892944294_);}
	.st34{clip-path:url(#SVGID_00000111872898388914889650000006769803527529833398_);}
	.st35{clip-path:url(#SVGID_00000035528842816309961230000008414055347032047794_);}
	.st36{clip-path:url(#SVGID_00000132068186804356648490000006584016094742782602_);}
	.st37{clip-path:url(#SVGID_00000085967581483617549520000013804490558057509032_);}
	.st38{clip-path:url(#SVGID_00000154418922208380438760000002372405898183430813_);}
	.st39{clip-path:url(#SVGID_00000040543578678556878360000018079130198546007479_);}
	.st40{clip-path:url(#SVGID_00000075128865893301252880000008348546412963754927_);}
	.st41{clip-path:url(#SVGID_00000083784329759584496110000014073617262634302364_);}
	.st42{clip-path:url(#SVGID_00000129166725194763014220000007166081936394390202_);}
	.st43{clip-path:url(#SVGID_00000086691634772195895770000018286274715491542154_);}
	.st44{clip-path:url(#SVGID_00000158746098695419323910000006129176047544925342_);}
	.st45{clip-path:url(#SVGID_00000104683553898071453600000001347327314959442606_);}
	.st46{clip-path:url(#SVGID_00000120527269353607898180000013200480964501746091_);}
	.st47{clip-path:url(#SVGID_00000075133417570059954310000009450509241815439234_);}
	.st48{clip-path:url(#SVGID_00000094615829269402797680000011904795580674384768_);}
	.st49{clip-path:url(#SVGID_00000007410723661697482080000002339812464533147327_);}
	.st50{clip-path:url(#SVGID_00000055674958718297468400000002797344413125159583_);}
	.st51{clip-path:url(#SVGID_00000083050391602271094860000005911788035726617496_);}
	.st52{fill:none;stroke:#000000;stroke-width:3;stroke-linecap:round;stroke-miterlimit:10;}
	.st53{opacity:0.1;fill:#545454;}
</style>
<g id="Capa_1_00000047037413386970782080000005397382282865408417_">
</g>
<g id="Capa_2_00000024715483446723796520000004195196565753954983_">
	<g id="Capa_23">
		<g>
			<g>
				<path d="M70.8,40.4c4,3.5,15.1,3.1,16.7-8.9c1.7-12.1-9-15.4-2.5-22.1s-9.2-2.7-14.3,5.8C65,24.8,64.9,35.2,70.8,40.4z"/>
				<path class="st0" d="M98.2,84.3c0,0-16.7-4.1-23.1-13.1s0-31.3,0-31.3"/>
			</g>
			<g>
				<g>
					<path d="M30.6,163.4c0,0-2.5,3.3-10.4,4.7s-12.6-4.9-12.6-4.9s4.7-3.3,13.7-5.3s11,0.8,11,0.8L30.6,163.4z"/>
				</g>
				<path class="st1" d="M81.2,172.3c0,0-16.5,2.8-26.5,3.5C37.6,177.1,27.5,160,27.5,160"/>
			</g>
			<g>
				<g>
					<path d="M229.8,239.9c0,0,3.7-2,11.5,0s9.5,9.7,9.5,9.7s-5.6,1.1-14.6-0.8c-9-1.9-9.7-5.3-9.7-5.3L229.8,239.9z"/>
				</g>
				<path class="st1" d="M205.5,196.4c0,0,11,16.1,15.8,24.9c4.9,8.8,10,21.7,10,21.7"/>
			</g>
			<path class="st2" d="M89.5,194.5l96.7,21.9c10,2.3,20-4,22.3-14l21.4-94.2c2.3-10-4-20-14-22.3L119.2,64c-10-2.3-20,4-22.3,14
				l-21.4,94.2C73.2,182.3,79.4,192.2,89.5,194.5z"/>
			<g>
				<g>
					<path class="st2" d="M254.6,48.8c0,0-0.5-7.4,11.1-9.7c11.6-2.2,17,1.1,17,1.1s-0.6,11.6-13.7,13.3
						C255.9,55.2,254.6,48.8,254.6,48.8z"/>
					<g>
						<path d="M254.6,48.8c0.9-1.4,2.4-2.3,3.8-3.1c1.5-0.7,3-1.2,4.6-1.5s3.2-0.5,4.8-0.5c1.6,0,3.3,0.1,4.8,0.6l-9.2,1.9
							c-1.5,0.3-3,0.6-4.5,1C257.5,47.6,256.1,48,254.6,48.8z"/>
					</g>
				</g>
				<g>
					<path class="st2" d="M202.8,69c0,0-1.1-7.4-12.9-7s-16.3,4.7-16.3,4.7s3.1,11.2,16.2,10S202.8,69,202.8,69z"/>
					<g>
						<path d="M202.8,69c-1.5-0.5-3.1-0.5-4.6-0.6s-3.1,0-4.6,0l-9.4,0.1c1.4-0.8,3-1.3,4.6-1.6c1.6-0.3,3.2-0.5,4.8-0.5
							s3.3,0.1,4.9,0.5C199.9,67.2,201.6,67.8,202.8,69z"/>
					</g>
				</g>
				<path class="st2" d="M275,115.3c0,0-0.6-25.8-4.2-35.3c-5.3-14-16.4-32.5-16.4-32.5s3.3-6.4,1.3-11.6c-2-5.2-5.2-2.5-6.2,0.4
					s-4.5,6.5-4.5,6.5s-5.4-2.8-19.6,2.4l-3.9,1.5c-10.3,3.8-15.4,9.6-15.4,9.6s-5-0.7-7.5-2.4s-6.7-1.9-5.1,3.5s8.1,8.5,8.1,8.5
					s2.9,24.8,4.8,34.7c1.9,9.9,14.6,32.1,14.6,32.1"/>
				<g>
					<path class="st3" d="M226.2,113.9c0,0-12.2,2.1-10.9,12.1c1.6,12.3,11,22.2,35.6,18.4c24.5-3.8,31.4-17,31.8-24.5
						c0.4-7.9-5.2-9.5-11.5-10.8"/>
					<path d="M226.2,113.9c-2.5,0.7-4.9,1.8-6.8,3.4c-1,0.8-1.8,1.8-2.4,2.8l-0.4,0.8l-0.2,0.4l-0.1,0.4l-0.2,0.9
						c0,0.3,0,0.6-0.1,0.9c-0.1,0.6,0,1.2,0,1.8c0,0.6,0.2,1.2,0.3,1.8c0.1,0.3,0.1,0.6,0.2,0.9l0.3,0.9c0.2,0.6,0.3,1.2,0.6,1.8
						c0.9,2.3,2.1,4.5,3.9,6.2c1.7,1.8,3.7,3.1,5.9,4.2c0.6,0.2,1.1,0.4,1.7,0.7c0.3,0.1,0.6,0.2,0.9,0.3l0.9,0.2
						c0.6,0.2,1.2,0.3,1.8,0.5l1.8,0.3c4.9,0.8,10,0.6,15.1-0.2c5-0.7,10-1.8,14.7-3.7c2.4-0.9,4.6-2.1,6.7-3.4c2-1.4,4-2.9,5.7-4.8
						c1.7-1.8,3-3.9,4-6.2c1-2.3,1.6-4.7,1.4-7.2c-0.1-1.2-0.4-2.4-1-3.4s-1.5-1.9-2.5-2.6c-1.1-0.7-2.2-1.2-3.5-1.6
						c-1.2-0.4-2.5-0.8-3.7-1.1c2.6,0.4,5.2,0.7,7.6,2c1.2,0.6,2.3,1.5,3.1,2.7c0.8,1.2,1.2,2.5,1.4,3.9c0.4,2.7-0.1,5.5-1,8.1
						c-0.9,2.6-2.4,4.9-4.1,7s-3.8,3.9-6,5.4s-4.6,2.8-7.1,3.8c-4.9,2.1-10.1,3.3-15.4,4.1c-5.2,0.7-10.6,0.9-15.9,0l-2-0.4
						c-0.7-0.2-1.3-0.4-2-0.6l-1-0.3c-0.3-0.1-0.6-0.3-1-0.4c-0.6-0.3-1.3-0.5-1.9-0.8c-2.5-1.2-4.7-2.9-6.5-5s-3.2-4.5-4-7.1
						c-0.2-0.6-0.4-1.3-0.5-2l-0.2-1c-0.1-0.3-0.1-0.7-0.1-1c-0.1-0.7-0.2-1.3-0.2-2s-0.1-1.4,0.1-2.1c0.1-0.3,0.1-0.7,0.2-1l0.3-1
						l0.2-0.5l0.2-0.5c0.2-0.3,0.3-0.6,0.5-0.9c0.8-1.1,1.8-2.1,2.9-2.9C221.1,115.2,223.6,114.3,226.2,113.9z"/>
				</g>
				<g>
					<path d="M234.1,129c-1.5-0.6-3-1.3-4.4-1.7c-0.7-0.2-1.4-0.3-1.9-0.1c-0.4,0.1-0.6,0.4-0.8,1s-0.2,1.2,0,1.6
						c0.2,0.5,0.7,0.9,1.3,1.2c1.3,0.7,2.9,1,4.5,1.4c-1.6,0.4-3.3,0.5-5,0c-0.9-0.3-1.8-0.8-2.4-1.8c-0.3-0.5-0.4-1-0.5-1.6
						c0-0.5,0.1-1,0.2-1.5c0.1-0.5,0.4-1,0.8-1.4c0.4-0.5,1-0.8,1.5-0.9c1.1-0.2,2.1,0.1,2.8,0.5C231.8,126.6,233,127.7,234.1,129z"
						/>
				</g>
				<g>
					<path d="M262.7,127c1.5-0.8,2.9-1.5,4.1-2.4c0.6-0.4,1.1-0.9,1.3-1.4c0.2-0.4,0.1-0.8-0.3-1.3s-0.8-0.9-1.3-1s-1.1,0-1.8,0.2
						c-1.3,0.6-2.6,1.6-3.9,2.6c0.7-1.5,1.6-2.9,3.1-3.9c0.7-0.5,1.7-0.9,2.9-0.7c0.6,0.1,1.1,0.3,1.5,0.6c0.4,0.3,0.8,0.7,1,1.1
						c0.3,0.4,0.5,0.9,0.6,1.5s0,1.3-0.3,1.8c-0.6,1-1.4,1.5-2.2,1.9C266.1,126.7,264.4,127,262.7,127z"/>
				</g>
				<path d="M240.5,91.1L240.5,91.1c-1.6,0-2.8-1.2-2.9-2.8l-0.1-4.8c0-1.6,1.2-2.8,2.8-2.9l0,0c1.6,0,2.8,1.2,2.9,2.8l0.1,4.8
					C243.3,89.8,242.1,91.1,240.5,91.1z"/>
				<path d="M255.8,90.8L255.8,90.8c-1.6,0-2.8-1.2-2.9-2.8l-0.1-4.8c0-1.6,1.2-2.8,2.8-2.9l0,0c1.6,0,2.8,1.2,2.9,2.8l0.1,4.8
					C258.6,89.5,257.4,90.8,255.8,90.8z"/>
			</g>
			<g>
				<g>
					<path class="st3" d="M89.7,181.4c-3.8,12.1,2.9,25,15,28.8s25-2.9,28.8-15"/>
					<path d="M89.7,181.4c-1.2,5.9-0.3,12,2.5,17s7.5,8.7,12.9,10.4s11.3,1.3,16.5-1.1c5.2-2.4,9.4-6.9,11.8-12.4
						c-1.2,5.9-5.2,11.4-10.8,14.5c-2.7,1.6-5.8,2.5-9,2.9c-3.2,0.3-6.4,0-9.5-1c-3-1-5.9-2.6-8.3-4.7c-2.4-2.1-4.4-4.7-5.7-7.5
						C87.4,193.8,87.2,187,89.7,181.4z"/>
				</g>
				<g>
					<path class="st3" d="M113.9,206.8l0.5,5.7c0.1,1.7,1.6,3,3.4,2.8h0.1c1.7-0.1,3-1.6,2.9-3.3l-0.5-5.7"/>
					<path d="M113.9,206.8c0.6,1.7,0.9,3.5,1.2,5.3c0.1,0.5,0.1,0.7,0.3,1c0.1,0.3,0.3,0.5,0.6,0.7c0.5,0.4,1.1,0.6,1.7,0.5
						c0.6,0,1.2-0.3,1.6-0.8c0.2-0.2,0.4-0.5,0.5-0.8s0.1-0.6,0.1-1.1c0-1.8,0.1-3.6,0.3-5.4c0.6,1.7,0.9,3.5,1.2,5.3
						c0.1,0.4,0.2,1,0,1.6c-0.1,0.6-0.3,1.1-0.7,1.6c-0.7,0.9-1.8,1.6-3,1.6c-1.1,0.1-2.4-0.3-3.2-1.1c-0.4-0.4-0.7-0.9-0.9-1.4
						c-0.2-0.5-0.2-1.2-0.2-1.6C113.5,210.4,113.6,208.6,113.9,206.8z"/>
				</g>
				<g>
					<path class="st3" d="M104.9,205.6l-1.1,5.6c-0.3,1.7,0.8,3.3,2.5,3.6h0.1c1.7,0.3,3.3-0.8,3.7-2.5l1.1-5.6"/>
					<path d="M104.9,205.6c0.1,1.8,0,3.6-0.2,5.4c-0.1,0.5-0.1,0.7,0,1.1c0.1,0.3,0.2,0.6,0.4,0.9c0.4,0.5,0.9,0.9,1.5,1
						s1.2,0,1.8-0.3c0.3-0.2,0.5-0.4,0.7-0.7s0.3-0.5,0.4-1c0.5-1.7,1-3.4,1.8-5.1c0.1,1.8,0,3.6-0.2,5.4c0,0.4-0.1,1.1-0.4,1.5
						c-0.3,0.5-0.6,1-1.1,1.3c-0.9,0.7-2.2,1-3.3,0.8c-1.1-0.2-2.2-0.9-2.8-1.9c-0.3-0.5-0.5-1.1-0.5-1.6c-0.1-0.5,0.1-1.2,0.2-1.6
						C103.6,209,104.1,207.3,104.9,205.6z"/>
				</g>
				<g>
					<path class="st3" d="M96.3,202.2l-2.1,5.3c-0.6,1.6,0.2,3.4,1.8,4h0.1c1.6,0.6,3.4-0.1,4.1-1.7l2.1-5.3"/>
					<path d="M96.3,202.2c-0.3,1.8-0.7,3.5-1.3,5.2c-0.2,0.5-0.2,0.7-0.2,1.1c0,0.3,0.1,0.6,0.2,0.9c0.3,0.6,0.7,1,1.3,1.2
						c0.6,0.3,1.2,0.2,1.8,0c0.3-0.1,0.6-0.3,0.8-0.5c0.2-0.3,0.4-0.4,0.6-0.9c0.8-1.6,1.7-3.2,2.7-4.7c-0.3,1.8-0.7,3.5-1.3,5.2
						c-0.1,0.4-0.3,1-0.7,1.4c-0.3,0.5-0.8,0.8-1.3,1.1c-1,0.5-2.3,0.6-3.4,0.1c-1.1-0.4-2-1.3-2.3-2.4c-0.2-0.5-0.2-1.1-0.2-1.7
						c0-0.6,0.3-1.2,0.5-1.5C94.4,205.2,95.3,203.7,96.3,202.2z"/>
				</g>
			</g>
			<g>
				<g>
					<defs>
						<path id="SVGID_1_" d="M90.5,193.9l95.1,21.6c10,2.3,20-4,22.3-14l21-92.6c2.3-10-4-20-14-22.3L119.7,65c-10-2.3-20,4-22.3,14
							l-21,92.6C74.2,181.7,80.4,191.6,90.5,193.9z"/>
					</defs>
					<clipPath id="SVGID_00000023991321242318618820000009432773834680048800_">
						<use xlink:href="#SVGID_1_"  style="overflow:visible;"/>
					</clipPath>
					<g style="clip-path:url(#SVGID_00000023991321242318618820000009432773834680048800_);">
						<g>
							<defs>
								<path id="SVGID_00000163757234854481724170000002474957608121362333_" d="M118,58.6c14.7-2.9,29.1,3.7,36.8,15.5
									c2.3-1.7,5-2.9,7.9-3.5c10.9-2.2,21.5,4.9,23.7,15.8s-4.9,21.5-15.8,23.7c-4.7,0.9-9.3,0.1-13.2-1.9
									c-4.6,10.1-13.8,17.9-25.5,20.2c-19.3,3.8-38-8.7-41.9-28S98.7,62.4,118,58.6z"/>
							</defs>
							<clipPath id="SVGID_00000096762033880964512750000014538272223133368509_">
								<use xlink:href="#SVGID_00000163757234854481724170000002474957608121362333_"  style="overflow:visible;"/>
							</clipPath>
							<g style="clip-path:url(#SVGID_00000096762033880964512750000014538272223133368509_);">
								<g>
									<path class="st6" d="M87.7,58.3c2.5,5.1,5.7,9.7,8.7,14.4c3.2,4.9,6.1,9.9,9,15c3.1,5.3,6.1,10.6,9,16
										c2.7,5,5.2,10.2,8.6,14.7c1.7,2.2,3.6,4.3,5.3,6.5c1.6,2.1,3.3,4.2,5.6,5.6c0.8,0.5,1.6-0.8,0.8-1.3
										c-2.1-1.4-3.6-3.3-5.1-5.3c-1.5-1.9-3.2-3.8-4.7-5.7c-3.5-4.5-6-9.6-8.7-14.6c-2.9-5.2-5.8-10.4-8.8-15.6
										c-2.9-5-5.7-10.1-8.8-14.9c-3.3-5.2-6.9-10.2-9.6-15.7C88.6,56.7,87.3,57.4,87.7,58.3L87.7,58.3z"/>
								</g>
							</g>
						</g>
						<g>
							<defs>
								<path id="SVGID_00000133510155874052880200000006050584011562662834_" d="M118,58.6c14.7-2.9,29.1,3.7,36.8,15.5
									c2.3-1.7,5-2.9,7.9-3.5c10.9-2.2,21.5,4.9,23.7,15.8s-4.9,21.5-15.8,23.7c-4.7,0.9-9.3,0.1-13.2-1.9
									c-4.6,10.1-13.8,17.9-25.5,20.2c-19.3,3.8-38-8.7-41.9-28S98.7,62.4,118,58.6z"/>
							</defs>
							<clipPath id="SVGID_00000021803196066268081210000007116417011475669686_">
								<use xlink:href="#SVGID_00000133510155874052880200000006050584011562662834_"  style="overflow:visible;"/>
							</clipPath>
							<g style="clip-path:url(#SVGID_00000021803196066268081210000007116417011475669686_);">
								<g>
									<path class="st6" d="M82.9,58.3c2.5,5.1,5.7,9.7,8.7,14.4c3.2,4.9,6.1,9.9,9,15c3.1,5.3,6.1,10.6,9,16
										c2.7,5,5.2,10.2,8.6,14.7c1.7,2.2,3.6,4.3,5.3,6.5c1.6,2.1,3.3,4.2,5.6,5.6c0.8,0.5,1.6-0.8,0.8-1.3
										c-2.1-1.4-3.6-3.3-5.1-5.3c-1.5-1.9-3.2-3.8-4.7-5.7c-3.5-4.5-6-9.6-8.7-14.6c-2.9-5.2-5.8-10.4-8.8-15.6
										c-2.9-5-5.7-10.1-8.8-14.9c-3.3-5.2-6.9-10.2-9.6-15.7C83.8,56.7,82.5,57.4,82.9,58.3L82.9,58.3z"/>
								</g>
							</g>
						</g>
						<g>
							<defs>
								<path id="SVGID_00000078741685786886748810000005849737570882129544_" d="M118,58.6c14.7-2.9,29.1,3.7,36.8,15.5
									c2.3-1.7,5-2.9,7.9-3.5c10.9-2.2,21.5,4.9,23.7,15.8s-4.9,21.5-15.8,23.7c-4.7,0.9-9.3,0.1-13.2-1.9
									c-4.6,10.1-13.8,17.9-25.5,20.2c-19.3,3.8-38-8.7-41.9-28S98.7,62.4,118,58.6z"/>
							</defs>
							<clipPath id="SVGID_00000080900974531028236750000014193593226487729576_">
								<use xlink:href="#SVGID_00000078741685786886748810000005849737570882129544_"  style="overflow:visible;"/>
							</clipPath>
							<g style="clip-path:url(#SVGID_00000080900974531028236750000014193593226487729576_);">
								<g>
									<path class="st6" d="M78.1,58.3c2.5,5.1,5.7,9.7,8.7,14.4c3.2,4.9,6.1,9.9,9,15c3.1,5.3,6.1,10.6,9,16
										c2.7,5,5.2,10.2,8.6,14.7c1.7,2.2,3.6,4.3,5.3,6.5c1.6,2.1,3.3,4.2,5.6,5.6c0.8,0.5,1.6-0.8,0.8-1.3
										c-2.1-1.4-3.6-3.3-5.1-5.3c-1.5-1.9-3.2-3.8-4.7-5.7c-3.5-4.5-6-9.6-8.7-14.6c-2.9-5.2-5.8-10.4-8.8-15.6
										c-2.9-5-5.7-10.1-8.8-14.9c-3.3-5.2-6.9-10.2-9.6-15.7C78.9,56.7,77.6,57.4,78.1,58.3L78.1,58.3z"/>
								</g>
							</g>
						</g>
						<g>
							<defs>
								<path id="SVGID_00000133514802531768687310000002023938650344888460_" d="M118,58.6c14.7-2.9,29.1,3.7,36.8,15.5
									c2.3-1.7,5-2.9,7.9-3.5c10.9-2.2,21.5,4.9,23.7,15.8s-4.9,21.5-15.8,23.7c-4.7,0.9-9.3,0.1-13.2-1.9
									c-4.6,10.1-13.8,17.9-25.5,20.2c-19.3,3.8-38-8.7-41.9-28S98.7,62.4,118,58.6z"/>
							</defs>
							<clipPath id="SVGID_00000061462073020255217670000013848596265538489216_">
								<use xlink:href="#SVGID_00000133514802531768687310000002023938650344888460_"  style="overflow:visible;"/>
							</clipPath>
							<g style="clip-path:url(#SVGID_00000061462073020255217670000013848596265538489216_);">
								<g>
									<path class="st6" d="M73.3,58.3C75.8,63.4,79,68,82,72.7c3.2,4.9,6.1,9.9,9,15c3.1,5.3,6.1,10.6,9,16
										c2.7,5,5.2,10.2,8.6,14.7c1.7,2.2,3.6,4.3,5.3,6.5c1.6,2.1,3.3,4.2,5.6,5.6c0.8,0.5,1.6-0.8,0.8-1.3
										c-2.1-1.4-3.6-3.3-5.1-5.3c-1.5-1.9-3.2-3.8-4.7-5.7c-3.5-4.5-6-9.6-8.7-14.6c-2.9-5-5.8-10.2-8.8-15.4
										c-2.9-5-5.7-10.1-8.8-14.9c-3.3-5.2-6.9-10.2-9.6-15.7C74.1,56.7,72.8,57.4,73.3,58.3L73.3,58.3z"/>
								</g>
							</g>
						</g>
						<g>
							<defs>
								<path id="SVGID_00000073686676755700565130000011795470153986124972_" d="M118,58.6c14.7-2.9,29.1,3.7,36.8,15.5
									c2.3-1.7,5-2.9,7.9-3.5c10.9-2.2,21.5,4.9,23.7,15.8s-4.9,21.5-15.8,23.7c-4.7,0.9-9.3,0.1-13.2-1.9
									c-4.6,10.1-13.8,17.9-25.5,20.2c-19.3,3.8-38-8.7-41.9-28S98.7,62.4,118,58.6z"/>
							</defs>
							<clipPath id="SVGID_00000016757251773487408880000008824280380445494912_">
								<use xlink:href="#SVGID_00000073686676755700565130000011795470153986124972_"  style="overflow:visible;"/>
							</clipPath>
							<g style="clip-path:url(#SVGID_00000016757251773487408880000008824280380445494912_);">
								<g>
									<path class="st6" d="M68.4,58.3c2.5,5.1,5.7,9.7,8.7,14.4c3.2,4.9,6.1,9.9,9,15c3.1,5.3,6.1,10.6,9,16
										c2.7,5,5.2,10.2,8.6,14.7c1.7,2.2,3.6,4.3,5.3,6.5c1.6,2.1,3.3,4.2,5.6,5.6c0.8,0.5,1.6-0.8,0.8-1.3
										c-2.1-1.4-3.6-3.3-5.1-5.3c-1.5-1.9-3.2-3.8-4.7-5.7c-3.5-4.5-6-9.6-8.7-14.6C94,98.4,91.1,93.2,88.1,88
										c-2.9-5-5.7-10.1-8.8-14.9c-3.3-5.2-6.9-10.2-9.6-15.7C69.3,56.7,68,57.4,68.4,58.3L68.4,58.3z"/>
								</g>
							</g>
						</g>
						<g>
							<defs>
								<path id="SVGID_00000081623744471072051390000014799625987220097417_" d="M118,58.6c14.7-2.9,29.1,3.7,36.8,15.5
									c2.3-1.7,5-2.9,7.9-3.5c10.9-2.2,21.5,4.9,23.7,15.8s-4.9,21.5-15.8,23.7c-4.7,0.9-9.3,0.1-13.2-1.9
									c-4.6,10.1-13.8,17.9-25.5,20.2c-19.3,3.8-38-8.7-41.9-28S98.7,62.4,118,58.6z"/>
							</defs>
							<clipPath id="SVGID_00000034062511976960959180000017848616174363353512_">
								<use xlink:href="#SVGID_00000081623744471072051390000014799625987220097417_"  style="overflow:visible;"/>
							</clipPath>
							<g style="clip-path:url(#SVGID_00000034062511976960959180000017848616174363353512_);">
								<g>
									<path class="st6" d="M63.6,58.3c2.5,5.1,5.7,9.7,8.7,14.4c3.2,4.9,6.1,9.9,9,15c3.1,5.3,6.1,10.6,9,16
										c2.7,5,5.2,10.2,8.6,14.7c1.7,2.2,3.6,4.3,5.3,6.5c1.6,2.1,3.3,4.2,5.6,5.6c0.8,0.5,1.6-0.8,0.8-1.3
										c-2.1-1.4-3.6-3.3-5.1-5.3c-1.5-1.9-3.2-3.8-4.7-5.7c-3.5-4.5-6-9.6-8.7-14.6c-2.9-5.2-5.8-10.4-8.8-15.6
										c-2.9-5-5.7-10.1-8.8-14.9c-3.3-5.2-6.9-10.2-9.6-15.7C64.5,56.7,63.2,57.4,63.6,58.3L63.6,58.3z"/>
								</g>
							</g>
						</g>
						<g>
							<defs>
								<path id="SVGID_00000149360644548262762550000006120965659096981642_" d="M118,58.6c14.7-2.9,29.1,3.7,36.8,15.5
									c2.3-1.7,5-2.9,7.9-3.5c10.9-2.2,21.5,4.9,23.7,15.8s-4.9,21.5-15.8,23.7c-4.7,0.9-9.3,0.1-13.2-1.9
									c-4.6,10.1-13.8,17.9-25.5,20.2c-19.3,3.8-38-8.7-41.9-28S98.7,62.4,118,58.6z"/>
							</defs>
							<clipPath id="SVGID_00000122721425218206352610000005634494113020677558_">
								<use xlink:href="#SVGID_00000149360644548262762550000006120965659096981642_"  style="overflow:visible;"/>
							</clipPath>
							<g style="clip-path:url(#SVGID_00000122721425218206352610000005634494113020677558_);">
								<g>
									<path class="st6" d="M102.2,58.3c2.5,5.1,5.7,9.7,8.7,14.4c3.2,4.9,6.1,9.9,9,15c3.1,5.3,6.1,10.6,9,16
										c2.7,5,5.2,10.2,8.6,14.7c1.7,2.2,3.6,4.3,5.3,6.5c1.6,2.1,3.3,4.2,5.6,5.6c0.8,0.5,1.6-0.8,0.8-1.3
										c-2.1-1.4-3.6-3.3-5.1-5.3c-1.5-1.9-3.2-3.8-4.7-5.7c-3.5-4.5-6-9.6-8.7-14.6c-2.9-5.2-5.8-10.4-8.8-15.6
										c-2.9-5-5.7-10.1-8.8-14.9c-3.3-5.2-6.9-10.2-9.6-15.7C103,56.7,101.7,57.4,102.2,58.3L102.2,58.3z"/>
								</g>
							</g>
						</g>
						<g>
							<defs>
								<path id="SVGID_00000005265377362050624970000012120440787312902052_" d="M118,58.6c14.7-2.9,29.1,3.7,36.8,15.5
									c2.3-1.7,5-2.9,7.9-3.5c10.9-2.2,21.5,4.9,23.7,15.8s-4.9,21.5-15.8,23.7c-4.7,0.9-9.3,0.1-13.2-1.9
									c-4.6,10.1-13.8,17.9-25.5,20.2c-19.3,3.8-38-8.7-41.9-28S98.7,62.4,118,58.6z"/>
							</defs>
							<clipPath id="SVGID_00000068653689683277900030000003842729075001488549_">
								<use xlink:href="#SVGID_00000005265377362050624970000012120440787312902052_"  style="overflow:visible;"/>
							</clipPath>
							<g style="clip-path:url(#SVGID_00000068653689683277900030000003842729075001488549_);">
								<g>
									<path class="st6" d="M97.3,58.3c2.5,5.1,5.7,9.7,8.7,14.4c3.2,4.9,6.1,9.9,9,15c3.1,5.3,6.1,10.6,9,16
										c2.7,5,5.2,10.2,8.6,14.7c1.7,2.2,3.6,4.3,5.3,6.5c1.6,2.1,3.3,4.2,5.6,5.6c0.8,0.5,1.6-0.8,0.8-1.3
										c-2.1-1.4-3.6-3.3-5.1-5.3c-1.5-1.9-3.2-3.8-4.7-5.7c-3.5-4.5-6-9.6-8.7-14.6c-2.9-5.2-5.8-10.4-8.8-15.6
										c-2.9-5-5.7-10.1-8.8-14.9c-3.3-5.2-6.9-10.2-9.6-15.7C98.2,56.7,96.9,57.4,97.3,58.3L97.3,58.3z"/>
								</g>
							</g>
						</g>
						<g>
							<defs>
								<path id="SVGID_00000052062242477703743020000011059921227500088960_" d="M118,58.6c14.7-2.9,29.1,3.7,36.8,15.5
									c2.3-1.7,5-2.9,7.9-3.5c10.9-2.2,21.5,4.9,23.7,15.8s-4.9,21.5-15.8,23.7c-4.7,0.9-9.3,0.1-13.2-1.9
									c-4.6,10.1-13.8,17.9-25.5,20.2c-19.3,3.8-38-8.7-41.9-28S98.7,62.4,118,58.6z"/>
							</defs>
							<clipPath id="SVGID_00000103245219653454194440000015022132430522271400_">
								<use xlink:href="#SVGID_00000052062242477703743020000011059921227500088960_"  style="overflow:visible;"/>
							</clipPath>
							<g style="clip-path:url(#SVGID_00000103245219653454194440000015022132430522271400_);">
								<g>
									<path class="st6" d="M92.5,58.3c2.5,5.1,5.7,9.7,8.7,14.4c3.2,4.9,6.1,9.9,9,15c3.1,5.3,6.1,10.6,9,16
										c2.7,5,5.2,10.2,8.6,14.7c1.7,2.2,3.6,4.3,5.3,6.5c1.6,2.1,3.3,4.2,5.6,5.6c0.8,0.5,1.6-0.8,0.8-1.3
										c-2.1-1.4-3.6-3.3-5.1-5.3c-1.5-1.9-3.2-3.8-4.7-5.7c-3.5-4.5-6-9.6-8.7-14.6c-2.9-5.2-5.8-10.4-8.8-15.6
										c-2.9-5-5.7-10.1-8.8-14.9c-3.3-5.2-6.9-10.2-9.6-15.7C93.4,56.7,92.1,57.4,92.5,58.3L92.5,58.3z"/>
								</g>
							</g>
						</g>
						<g>
							<defs>
								<path id="SVGID_00000133487797323353528560000017923563909130459040_" d="M118,58.6c14.7-2.9,29.1,3.7,36.8,15.5
									c2.3-1.7,5-2.9,7.9-3.5c10.9-2.2,21.5,4.9,23.7,15.8s-4.9,21.5-15.8,23.7c-4.7,0.9-9.3,0.1-13.2-1.9
									c-4.6,10.1-13.8,17.9-25.5,20.2c-19.3,3.8-38-8.7-41.9-28S98.7,62.4,118,58.6z"/>
							</defs>
							<clipPath id="SVGID_00000176029101082649101240000010256684403870651040_">
								<use xlink:href="#SVGID_00000133487797323353528560000017923563909130459040_"  style="overflow:visible;"/>
							</clipPath>
							<g style="clip-path:url(#SVGID_00000176029101082649101240000010256684403870651040_);">
								<g>
									<path class="st6" d="M116.6,58.3c2.5,5.1,5.7,9.7,8.7,14.4c3.2,4.9,6.1,9.9,9,15c3.1,5.3,6.1,10.6,9,16
										c2.7,5,5.2,10.2,8.6,14.7c1.7,2.2,3.6,4.3,5.3,6.5c1.6,2.1,3.3,4.2,5.6,5.6c0.8,0.5,1.6-0.8,0.8-1.3
										c-2.1-1.4-3.6-3.3-5.1-5.3c-1.5-1.9-3.2-3.8-4.7-5.7c-3.5-4.5-6-9.6-8.7-14.6c-2.9-5.2-5.8-10.4-8.8-15.6
										c-2.9-5-5.7-10.1-8.8-14.9c-3.3-5.2-6.9-10.2-9.6-15.7C117.5,56.7,116.2,57.4,116.6,58.3L116.6,58.3z"/>
								</g>
							</g>
						</g>
						<g>
							<defs>
								<path id="SVGID_00000137828985216448792750000007473137800256155540_" d="M118,58.6c14.7-2.9,29.1,3.7,36.8,15.5
									c2.3-1.7,5-2.9,7.9-3.5c10.9-2.2,21.5,4.9,23.7,15.8s-4.9,21.5-15.8,23.7c-4.7,0.9-9.3,0.1-13.2-1.9
									c-4.6,10.1-13.8,17.9-25.5,20.2c-19.3,3.8-38-8.7-41.9-28S98.7,62.4,118,58.6z"/>
							</defs>
							<clipPath id="SVGID_00000043416723172903018570000002243863913680501158_">
								<use xlink:href="#SVGID_00000137828985216448792750000007473137800256155540_"  style="overflow:visible;"/>
							</clipPath>
							<g style="clip-path:url(#SVGID_00000043416723172903018570000002243863913680501158_);">
								<g>
									<path class="st6" d="M111.8,58.3c2.5,5.1,5.7,9.7,8.7,14.4c3.2,4.9,6.1,9.9,9,15c3.1,5.3,6.1,10.6,9,16
										c2.7,5,5.2,10.2,8.6,14.7c1.7,2.2,3.6,4.3,5.3,6.5c1.6,2.1,3.3,4.2,5.6,5.6c0.8,0.5,1.6-0.8,0.8-1.3
										c-2.1-1.4-3.6-3.3-5.1-5.3c-1.5-1.9-3.2-3.8-4.7-5.7c-3.5-4.5-6-9.6-8.7-14.6c-2.9-5.2-5.8-10.4-8.8-15.6
										c-2.9-5-5.7-10.1-8.8-14.9c-3.3-5.2-6.9-10.2-9.6-15.7C112.7,56.7,111.4,57.4,111.8,58.3L111.8,58.3z"/>
								</g>
							</g>
						</g>
						<g>
							<defs>
								<path id="SVGID_00000009558132550557750770000005890138359691553408_" d="M118,58.6c14.7-2.9,29.1,3.7,36.8,15.5
									c2.3-1.7,5-2.9,7.9-3.5c10.9-2.2,21.5,4.9,23.7,15.8s-4.9,21.5-15.8,23.7c-4.7,0.9-9.3,0.1-13.2-1.9
									c-4.6,10.1-13.8,17.9-25.5,20.2c-19.3,3.8-38-8.7-41.9-28S98.7,62.4,118,58.6z"/>
							</defs>
							<clipPath id="SVGID_00000182490080284664193640000008525295500265591458_">
								<use xlink:href="#SVGID_00000009558132550557750770000005890138359691553408_"  style="overflow:visible;"/>
							</clipPath>
							<g style="clip-path:url(#SVGID_00000182490080284664193640000008525295500265591458_);">
								<g>
									<path class="st6" d="M107,58.3c2.5,5.1,5.7,9.7,8.7,14.4c3.2,4.9,6.1,9.9,9,15c3.1,5.3,6.1,10.6,9,16
										c2.7,5,5.2,10.2,8.6,14.7c1.7,2.2,3.6,4.3,5.3,6.5c1.6,2.1,3.3,4.2,5.6,5.6c0.8,0.5,1.6-0.8,0.8-1.3
										c-2.1-1.4-3.6-3.3-5.1-5.3c-1.5-1.9-3.2-3.8-4.7-5.7c-3.5-4.5-6-9.6-8.7-14.6c-2.9-5.2-5.8-10.4-8.8-15.6
										c-2.9-5-5.7-10.1-8.8-14.9c-3.3-5.2-6.9-10.2-9.6-15.7C107.8,56.7,106.6,57.4,107,58.3L107,58.3z"/>
								</g>
							</g>
						</g>
						<g>
							<defs>
								<path id="SVGID_00000097471248609748104950000010000785959402613158_" d="M118,58.6c14.7-2.9,29.1,3.7,36.8,15.5
									c2.3-1.7,5-2.9,7.9-3.5c10.9-2.2,21.5,4.9,23.7,15.8s-4.9,21.5-15.8,23.7c-4.7,0.9-9.3,0.1-13.2-1.9
									c-4.6,10.1-13.8,17.9-25.5,20.2c-19.3,3.8-38-8.7-41.9-28S98.7,62.4,118,58.6z"/>
							</defs>
							<clipPath id="SVGID_00000114044122388241850570000013078759048428477109_">
								<use xlink:href="#SVGID_00000097471248609748104950000010000785959402613158_"  style="overflow:visible;"/>
							</clipPath>
							<g style="clip-path:url(#SVGID_00000114044122388241850570000013078759048428477109_);">
								<g>
									<path class="st6" d="M131.1,58.3c2.5,5.1,5.7,9.7,8.7,14.4c3.2,4.9,6.1,9.9,9,15c3.1,5.3,6.1,10.6,9,16
										c2.7,5,5.2,10.2,8.6,14.7c1.7,2.2,3.6,4.3,5.3,6.5c1.6,2.1,3.3,4.2,5.6,5.6c0.8,0.5,1.6-0.8,0.8-1.3
										c-2.1-1.4-3.6-3.3-5.1-5.3c-1.5-1.9-3.2-3.8-4.7-5.7c-3.5-4.5-6-9.6-8.7-14.6c-2.9-5.2-5.8-10.4-8.8-15.6
										c-2.9-5-5.7-10.1-8.8-14.9c-3.3-5.2-6.9-10.2-9.6-15.7C131.9,56.7,130.6,57.4,131.1,58.3L131.1,58.3z"/>
								</g>
							</g>
						</g>
						<g>
							<defs>
								<path id="SVGID_00000116927689365362286320000011922510699835735957_" d="M118,58.6c14.7-2.9,29.1,3.7,36.8,15.5
									c2.3-1.7,5-2.9,7.9-3.5c10.9-2.2,21.5,4.9,23.7,15.8s-4.9,21.5-15.8,23.7c-4.7,0.9-9.3,0.1-13.2-1.9
									c-4.6,10.1-13.8,17.9-25.5,20.2c-19.3,3.8-38-8.7-41.9-28S98.7,62.4,118,58.6z"/>
							</defs>
							<clipPath id="SVGID_00000127017455907942881980000006214599689324859552_">
								<use xlink:href="#SVGID_00000116927689365362286320000011922510699835735957_"  style="overflow:visible;"/>
							</clipPath>
							<g style="clip-path:url(#SVGID_00000127017455907942881980000006214599689324859552_);">
								<g>
									<path class="st6" d="M126.2,58.3c2.5,5.1,5.7,9.7,8.7,14.4c3.2,4.9,6.1,9.9,9,15c3.1,5.3,6.1,10.6,9,16
										c2.7,5,5.2,10.2,8.6,14.7c1.7,2.2,3.6,4.3,5.3,6.5c1.6,2.1,3.3,4.2,5.6,5.6c0.8,0.5,1.6-0.8,0.8-1.3
										c-2.1-1.4-3.6-3.3-5.1-5.3c-1.5-1.9-3.2-3.8-4.7-5.7c-3.5-4.5-6-9.6-8.7-14.6c-2.9-5.2-5.8-10.4-8.8-15.6
										c-2.9-5-5.7-10.1-8.8-14.9c-3.3-5.2-6.9-10.2-9.6-15.7C127.1,56.7,125.8,57.4,126.2,58.3L126.2,58.3z"/>
								</g>
							</g>
						</g>
						<g>
							<defs>
								<path id="SVGID_00000121261042845385289630000007937148913861974407_" d="M118,58.6c14.7-2.9,29.1,3.7,36.8,15.5
									c2.3-1.7,5-2.9,7.9-3.5c10.9-2.2,21.5,4.9,23.7,15.8s-4.9,21.5-15.8,23.7c-4.7,0.9-9.3,0.1-13.2-1.9
									c-4.6,10.1-13.8,17.9-25.5,20.2c-19.3,3.8-38-8.7-41.9-28S98.7,62.4,118,58.6z"/>
							</defs>
							<clipPath id="SVGID_00000002358672032472397990000005882746492668530330_">
								<use xlink:href="#SVGID_00000121261042845385289630000007937148913861974407_"  style="overflow:visible;"/>
							</clipPath>
							<g style="clip-path:url(#SVGID_00000002358672032472397990000005882746492668530330_);">
								<g>
									<path class="st6" d="M121.4,58.3c2.5,5.1,5.7,9.7,8.7,14.4c3.2,4.9,6.1,9.9,9,15c3.1,5.3,6.1,10.6,9,16
										c2.7,5,5.2,10.2,8.6,14.7c1.7,2.2,3.6,4.3,5.3,6.5c1.6,2.1,3.3,4.2,5.6,5.6c0.8,0.5,1.6-0.8,0.8-1.3
										c-2.1-1.4-3.6-3.3-5.1-5.3c-1.5-1.9-3.2-3.8-4.7-5.7c-3.5-4.5-6-9.6-8.7-14.6c-2.9-5.2-5.8-10.4-8.8-15.6
										c-2.9-5-5.7-10.1-8.8-14.9c-3.3-5.2-6.9-10.2-9.6-15.7C122.3,56.7,121,57.4,121.4,58.3L121.4,58.3z"/>
								</g>
							</g>
						</g>
						<g>
							<defs>
								<path id="SVGID_00000150824264809718097830000016495724367301936012_" d="M118,58.6c14.7-2.9,29.1,3.7,36.8,15.5
									c2.3-1.7,5-2.9,7.9-3.5c10.9-2.2,21.5,4.9,23.7,15.8s-4.9,21.5-15.8,23.7c-4.7,0.9-9.3,0.1-13.2-1.9
									c-4.6,10.1-13.8,17.9-25.5,20.2c-19.3,3.8-38-8.7-41.9-28S98.7,62.4,118,58.6z"/>
							</defs>
							<clipPath id="SVGID_00000093142922981077787720000017712996143631731848_">
								<use xlink:href="#SVGID_00000150824264809718097830000016495724367301936012_"  style="overflow:visible;"/>
							</clipPath>
							<g style="clip-path:url(#SVGID_00000093142922981077787720000017712996143631731848_);">
								<g>
									<path class="st6" d="M145.5,58.3c2.5,5.1,5.7,9.7,8.7,14.4c3.2,4.9,6.1,9.9,9,15c3.1,5.3,6.1,10.6,9,16
										c2.7,5,5.2,10.2,8.6,14.7c1.7,2.2,3.6,4.3,5.3,6.5c1.6,2.1,3.3,4.2,5.6,5.6c0.8,0.5,1.6-0.8,0.8-1.3
										c-2.1-1.4-3.6-3.3-5.1-5.3c-1.5-1.9-3.2-3.8-4.7-5.7c-3.5-4.5-6-9.6-8.7-14.6c-2.9-5.2-5.8-10.4-8.8-15.6
										c-2.9-5-5.7-10.1-8.8-14.9c-3.3-5.2-6.9-10.2-9.6-15.7C146.4,56.7,145.1,57.4,145.5,58.3L145.5,58.3z"/>
								</g>
							</g>
						</g>
						<g>
							<defs>
								<path id="SVGID_00000076581612652603597570000009551657152924742827_" d="M118,58.6c14.7-2.9,29.1,3.7,36.8,15.5
									c2.3-1.7,5-2.9,7.9-3.5c10.9-2.2,21.5,4.9,23.7,15.8s-4.9,21.5-15.8,23.7c-4.7,0.9-9.3,0.1-13.2-1.9
									c-4.6,10.1-13.8,17.9-25.5,20.2c-19.3,3.8-38-8.7-41.9-28S98.7,62.4,118,58.6z"/>
							</defs>
							<clipPath id="SVGID_00000101090356313495726410000004850370836781219215_">
								<use xlink:href="#SVGID_00000076581612652603597570000009551657152924742827_"  style="overflow:visible;"/>
							</clipPath>
							<g style="clip-path:url(#SVGID_00000101090356313495726410000004850370836781219215_);">
								<g>
									<path class="st6" d="M140.7,58.3c2.5,5.1,5.7,9.7,8.7,14.4c3.2,4.9,6.1,9.9,9,15c3.1,5.3,6.1,10.6,9,16
										c2.7,5,5.2,10.2,8.6,14.7c1.7,2.2,3.6,4.3,5.3,6.5c1.6,2.1,3.3,4.2,5.6,5.6c0.8,0.5,1.6-0.8,0.8-1.3
										c-2.1-1.4-3.6-3.3-5.1-5.3c-1.5-1.9-3.2-3.8-4.7-5.7c-3.5-4.5-6-9.6-8.7-14.6c-2.9-5.2-5.8-10.4-8.8-15.6
										c-2.9-5-5.7-10.1-8.8-14.9c-3.3-5.2-6.9-10.2-9.6-15.7C141.6,56.7,140.3,57.4,140.7,58.3L140.7,58.3z"/>
								</g>
							</g>
						</g>
						<g>
							<defs>
								<path id="SVGID_00000177465632318099652310000011537243896296798111_" d="M118,58.6c14.7-2.9,29.1,3.7,36.8,15.5
									c2.3-1.7,5-2.9,7.9-3.5c10.9-2.2,21.5,4.9,23.7,15.8s-4.9,21.5-15.8,23.7c-4.7,0.9-9.3,0.1-13.2-1.9
									c-4.6,10.1-13.8,17.9-25.5,20.2c-19.3,3.8-38-8.7-41.9-28S98.7,62.4,118,58.6z"/>
							</defs>
							<clipPath id="SVGID_00000132801300409044690000000015589511422722739347_">
								<use xlink:href="#SVGID_00000177465632318099652310000011537243896296798111_"  style="overflow:visible;"/>
							</clipPath>
							<g style="clip-path:url(#SVGID_00000132801300409044690000000015589511422722739347_);">
								<g>
									<path class="st6" d="M135.9,58.3c2.5,5.1,5.7,9.7,8.7,14.4c3.2,4.9,6.1,9.9,9,15c3.1,5.3,6.1,10.6,9,16
										c2.7,5,5.2,10.2,8.6,14.7c1.7,2.2,3.6,4.3,5.3,6.5c1.6,2.1,3.3,4.2,5.6,5.6c0.8,0.5,1.6-0.8,0.8-1.3
										c-2.1-1.4-3.6-3.3-5.1-5.3c-1.5-1.9-3.2-3.8-4.7-5.7c-3.5-4.5-6-9.6-8.7-14.6c-2.9-5.2-5.8-10.4-8.8-15.6
										c-2.9-5-5.7-10.1-8.8-14.9c-3.3-5.2-6.9-10.2-9.6-15.7C136.8,56.7,135.5,57.4,135.9,58.3L135.9,58.3z"/>
								</g>
							</g>
						</g>
						<g>
							<defs>
								<path id="SVGID_00000034772935305469408260000002086956012239715766_" d="M118,58.6c14.7-2.9,29.1,3.7,36.8,15.5
									c2.3-1.7,5-2.9,7.9-3.5c10.9-2.2,21.5,4.9,23.7,15.8s-4.9,21.5-15.8,23.7c-4.7,0.9-9.3,0.1-13.2-1.9
									c-4.6,10.1-13.8,17.9-25.5,20.2c-19.3,3.8-38-8.7-41.9-28S98.7,62.4,118,58.6z"/>
							</defs>
							<clipPath id="SVGID_00000165921841281566901310000002818119302564302770_">
								<use xlink:href="#SVGID_00000034772935305469408260000002086956012239715766_"  style="overflow:visible;"/>
							</clipPath>
							<g style="clip-path:url(#SVGID_00000165921841281566901310000002818119302564302770_);">
								<g>
									<path class="st6" d="M160,58.3c2.5,5.1,5.7,9.7,8.7,14.4c3.2,4.9,6.1,9.9,9,15c3.1,5.3,6.1,10.6,9,16
										c2.7,5,5.2,10.2,8.6,14.7c1.7,2.2,3.6,4.3,5.3,6.5c1.6,2.1,3.3,4.2,5.6,5.6c0.8,0.5,1.6-0.8,0.8-1.3
										c-2.1-1.4-3.6-3.3-5.1-5.3c-1.5-1.9-3.2-3.8-4.7-5.7c-3.5-4.5-6-9.6-8.7-14.6c-2.9-5.2-5.8-10.4-8.8-15.6
										c-2.9-5-5.7-10.1-8.8-14.9c-3.3-5.2-6.9-10.2-9.6-15.7C160.8,56.7,159.5,57.4,160,58.3L160,58.3z"/>
								</g>
							</g>
						</g>
						<g>
							<defs>
								<path id="SVGID_00000096746853903717475140000007204793975235914169_" d="M118,58.6c14.7-2.9,29.1,3.7,36.8,15.5
									c2.3-1.7,5-2.9,7.9-3.5c10.9-2.2,21.5,4.9,23.7,15.8s-4.9,21.5-15.8,23.7c-4.7,0.9-9.3,0.1-13.2-1.9
									c-4.6,10.1-13.8,17.9-25.5,20.2c-19.3,3.8-38-8.7-41.9-28S98.7,62.4,118,58.6z"/>
							</defs>
							<clipPath id="SVGID_00000116210885316754110520000012515888143540933294_">
								<use xlink:href="#SVGID_00000096746853903717475140000007204793975235914169_"  style="overflow:visible;"/>
							</clipPath>
							<g style="clip-path:url(#SVGID_00000116210885316754110520000012515888143540933294_);">
								<g>
									<path class="st6" d="M164.8,58.3c2.5,5.1,5.7,9.7,8.7,14.4c3.2,4.9,6.1,9.9,9,15c3.1,5.3,6.1,10.6,9,16
										c2.7,5,5.2,10.2,8.6,14.7c1.7,2.2,3.6,4.3,5.3,6.5c1.6,2.1,3.3,4.2,5.6,5.6c0.8,0.5,1.6-0.8,0.8-1.3
										c-2.1-1.4-3.6-3.3-5.1-5.3c-1.5-1.9-3.2-3.8-4.7-5.7c-3.5-4.5-6-9.6-8.7-14.6c-2.9-5.2-5.8-10.4-8.8-15.6
										c-2.9-5-5.7-10.1-8.8-14.9c-3.3-5.2-6.9-10.2-9.6-15.7C165.7,56.7,164.4,57.4,164.8,58.3L164.8,58.3z"/>
								</g>
							</g>
						</g>
						<g>
							<defs>
								<path id="SVGID_00000092421363054196832170000005758479529723395470_" d="M118,58.6c14.7-2.9,29.1,3.7,36.8,15.5
									c2.3-1.7,5-2.9,7.9-3.5c10.9-2.2,21.5,4.9,23.7,15.8s-4.9,21.5-15.8,23.7c-4.7,0.9-9.3,0.1-13.2-1.9
									c-4.6,10.1-13.8,17.9-25.5,20.2c-19.3,3.8-38-8.7-41.9-28S98.7,62.4,118,58.6z"/>
							</defs>
							<clipPath id="SVGID_00000057132733421551804330000016763250789415861153_">
								<use xlink:href="#SVGID_00000092421363054196832170000005758479529723395470_"  style="overflow:visible;"/>
							</clipPath>
							<g style="clip-path:url(#SVGID_00000057132733421551804330000016763250789415861153_);">
								<g>
									<path class="st6" d="M169.6,58.3c2.5,5.1,5.7,9.7,8.7,14.4c3.2,4.9,6.1,9.9,9,15c3.1,5.3,6.1,10.6,9,16
										c2.7,5,5.2,10.2,8.6,14.7c1.7,2.2,3.6,4.3,5.3,6.5c1.6,2.1,3.3,4.2,5.6,5.6c0.8,0.5,1.6-0.8,0.8-1.3
										c-2.1-1.4-3.6-3.3-5.1-5.3c-1.5-1.9-3.2-3.8-4.7-5.7c-3.5-4.5-6-9.6-8.7-14.6c-2.9-5.2-5.8-10.4-8.8-15.6
										c-2.9-5-5.7-10.1-8.8-14.9c-3.3-5.2-6.9-10.2-9.6-15.7C170.5,56.7,169.2,57.4,169.6,58.3L169.6,58.3z"/>
								</g>
							</g>
						</g>
						<g>
							<defs>
								<path id="SVGID_00000036236206308785043120000012871774527517276326_" d="M118,58.6c14.7-2.9,29.1,3.7,36.8,15.5
									c2.3-1.7,5-2.9,7.9-3.5c10.9-2.2,21.5,4.9,23.7,15.8s-4.9,21.5-15.8,23.7c-4.7,0.9-9.3,0.1-13.2-1.9
									c-4.6,10.1-13.8,17.9-25.5,20.2c-19.3,3.8-38-8.7-41.9-28S98.7,62.4,118,58.6z"/>
							</defs>
							<clipPath id="SVGID_00000133514422741668321770000008749506800423491978_">
								<use xlink:href="#SVGID_00000036236206308785043120000012871774527517276326_"  style="overflow:visible;"/>
							</clipPath>
							<g style="clip-path:url(#SVGID_00000133514422741668321770000008749506800423491978_);">
								<g>
									<path class="st6" d="M155.1,58.3c2.5,5.1,5.7,9.7,8.7,14.4c3.2,4.9,6.1,9.9,9,15c3.1,5.3,6.1,10.6,9,16
										c2.7,5,5.2,10.2,8.6,14.7c1.7,2.2,3.6,4.3,5.3,6.5c1.6,2.1,3.3,4.2,5.6,5.6c0.8,0.5,1.6-0.8,0.8-1.3
										c-2.1-1.4-3.6-3.3-5.1-5.3c-1.5-1.9-3.2-3.8-4.7-5.7c-3.5-4.5-6-9.6-8.7-14.6c-2.9-5.2-5.8-10.4-8.8-15.6
										c-2.9-5-5.7-10.1-8.8-14.9c-3.3-5.2-6.9-10.2-9.6-15.7C156,56.7,154.7,57.4,155.1,58.3L155.1,58.3z"/>
								</g>
							</g>
						</g>
						<g>
							<defs>
								<path id="SVGID_00000152958555118668944860000008612490300194646686_" d="M118,58.6c14.7-2.9,29.1,3.7,36.8,15.5
									c2.3-1.7,5-2.9,7.9-3.5c10.9-2.2,21.5,4.9,23.7,15.8s-4.9,21.5-15.8,23.7c-4.7,0.9-9.3,0.1-13.2-1.9
									c-4.6,10.1-13.8,17.9-25.5,20.2c-19.3,3.8-38-8.7-41.9-28S98.7,62.4,118,58.6z"/>
							</defs>
							<clipPath id="SVGID_00000073684286629076519050000008245239501849648787_">
								<use xlink:href="#SVGID_00000152958555118668944860000008612490300194646686_"  style="overflow:visible;"/>
							</clipPath>
							<g style="clip-path:url(#SVGID_00000073684286629076519050000008245239501849648787_);">
								<g>
									<path class="st6" d="M150.3,58.3c2.5,5.1,5.7,9.7,8.7,14.4c3.2,4.9,6.1,9.9,9,15c3.1,5.3,6.1,10.6,9,16
										c2.7,5,5.2,10.2,8.6,14.7c1.7,2.2,3.6,4.3,5.3,6.5c1.6,2.1,3.3,4.2,5.6,5.6c0.8,0.5,1.6-0.8,0.8-1.3
										c-2.1-1.4-3.6-3.3-5.1-5.3c-1.5-1.9-3.2-3.8-4.7-5.7c-3.5-4.5-6-9.6-8.7-14.6c-2.9-5.2-5.8-10.4-8.8-15.6
										c-2.9-5-5.7-10.1-8.8-14.9c-3.3-5.2-6.9-10.2-9.6-15.7C151.2,56.7,149.9,57.4,150.3,58.3L150.3,58.3z"/>
								</g>
							</g>
						</g>
					</g>
				</g>
			</g>
			<g>
				<g>
					<g>
						<defs>
							
								<ellipse id="SVGID_00000064321460490383370930000014828809423621204611_" transform="matrix(0.4619 -0.8869 0.8869 0.4619 -40.3446 222.6243)" cx="163.3" cy="144.6" rx="18.2" ry="23.3"/>
						</defs>
						<clipPath id="SVGID_00000048502556801380638560000017748192121753815992_">
							<use xlink:href="#SVGID_00000064321460490383370930000014828809423621204611_"  style="overflow:visible;"/>
						</clipPath>
						<g style="clip-path:url(#SVGID_00000048502556801380638560000017748192121753815992_);">
							<g>
								<path class="st6" d="M107,108.9c2.5,5.1,5.7,9.7,8.7,14.4c3.2,4.9,6.1,9.9,9,15c3.1,5.3,6.1,10.6,9,16
									c2.7,5,5.2,10.2,8.6,14.7c1.7,2.2,3.6,4.3,5.3,6.5c1.6,2.1,3.3,4.2,5.6,5.6c0.8,0.5,1.6-0.8,0.8-1.3
									c-2.1-1.4-3.6-3.3-5.1-5.3c-1.5-1.9-3.2-3.8-4.7-5.7c-3.5-4.5-6-9.6-8.7-14.6c-2.9-5.2-5.8-10.4-8.8-15.6
									c-2.9-5-5.7-10.1-8.8-14.9c-3.3-5.2-6.9-10.2-9.6-15.7C107.8,107.3,106.5,108,107,108.9L107,108.9z"/>
							</g>
						</g>
					</g>
					<g>
						<defs>
							
								<ellipse id="SVGID_00000137823362311152664610000010955960531934396567_" transform="matrix(0.4619 -0.8869 0.8869 0.4619 -40.3446 222.6243)" cx="163.3" cy="144.6" rx="18.2" ry="23.3"/>
						</defs>
						<clipPath id="SVGID_00000023272687197823731210000014755651159013949058_">
							<use xlink:href="#SVGID_00000137823362311152664610000010955960531934396567_"  style="overflow:visible;"/>
						</clipPath>
						<g style="clip-path:url(#SVGID_00000023272687197823731210000014755651159013949058_);">
							<g>
								<path class="st6" d="M102.1,108.9c2.5,5.1,5.7,9.7,8.7,14.4c3.2,4.9,6.1,9.9,9,15c3.1,5.3,6.1,10.6,9,16
									c2.7,5,5.2,10.2,8.6,14.7c1.7,2.2,3.6,4.3,5.3,6.5c1.6,2.1,3.3,4.2,5.6,5.6c0.8,0.5,1.6-0.8,0.8-1.3
									c-2.1-1.4-3.6-3.3-5.1-5.3c-1.5-1.9-3.2-3.8-4.7-5.7c-3.5-4.5-6-9.6-8.7-14.6c-2.9-5.2-5.8-10.4-8.8-15.6
									c-2.9-5-5.7-10.1-8.8-14.9c-3.3-5.2-6.9-10.2-9.6-15.7C103,107.3,101.7,108,102.1,108.9L102.1,108.9z"/>
							</g>
						</g>
					</g>
					<g>
						<defs>
							
								<ellipse id="SVGID_00000000184881469009336760000013512550331291899319_" transform="matrix(0.4619 -0.8869 0.8869 0.4619 -40.3446 222.6243)" cx="163.3" cy="144.6" rx="18.2" ry="23.3"/>
						</defs>
						<clipPath id="SVGID_00000031191603103872976580000014912015398757905582_">
							<use xlink:href="#SVGID_00000000184881469009336760000013512550331291899319_"  style="overflow:visible;"/>
						</clipPath>
						<g style="clip-path:url(#SVGID_00000031191603103872976580000014912015398757905582_);">
							<g>
								<path class="st6" d="M97.3,108.9c2.5,5.1,5.7,9.7,8.7,14.4c3.2,4.9,6.1,9.9,9,15c3.1,5.3,6.1,10.6,9,16
									c2.7,5,5.2,10.2,8.6,14.7c1.7,2.2,3.6,4.3,5.3,6.5c1.6,2.1,3.3,4.2,5.6,5.6c0.8,0.5,1.6-0.8,0.8-1.3
									c-2.1-1.4-3.6-3.3-5.1-5.3c-1.5-1.9-3.2-3.8-4.7-5.7c-3.5-4.5-6-9.6-8.7-14.6c-2.9-5.2-5.8-10.4-8.8-15.6
									c-2.9-5-5.7-10.1-8.8-14.9c-3.3-5.2-6.9-10.2-9.6-15.7C98.2,107.3,96.9,108,97.3,108.9L97.3,108.9z"/>
							</g>
						</g>
					</g>
					<g>
						<defs>
							
								<ellipse id="SVGID_00000016790304082954276690000006386551000844173478_" transform="matrix(0.4619 -0.8869 0.8869 0.4619 -40.3446 222.6243)" cx="163.3" cy="144.6" rx="18.2" ry="23.3"/>
						</defs>
						<clipPath id="SVGID_00000139989007264617072800000017321476882415985306_">
							<use xlink:href="#SVGID_00000016790304082954276690000006386551000844173478_"  style="overflow:visible;"/>
						</clipPath>
						<g style="clip-path:url(#SVGID_00000139989007264617072800000017321476882415985306_);">
							<g>
								<path class="st6" d="M92.5,108.9c2.5,5.1,5.7,9.7,8.7,14.4c3.2,4.9,6.1,9.9,9,15c3.1,5.3,6.1,10.6,9,16
									c2.7,5,5.2,10.2,8.6,14.7c1.7,2.2,3.6,4.3,5.3,6.5c1.6,2.1,3.3,4.2,5.6,5.6c0.8,0.5,1.6-0.8,0.8-1.3
									c-2.1-1.4-3.6-3.3-5.1-5.3c-1.5-1.9-3.2-3.8-4.7-5.7c-3.5-4.5-6-9.6-8.7-14.6c-2.9-5.2-5.8-10.4-8.8-15.6
									c-2.9-5-5.7-10.1-8.8-14.9c-3.3-5.2-6.9-10.2-9.6-15.7C93.4,107.3,92.1,108,92.5,108.9L92.5,108.9z"/>
							</g>
						</g>
					</g>
					<g>
						<defs>
							
								<ellipse id="SVGID_00000060003963340767977910000007939669825352566193_" transform="matrix(0.4619 -0.8869 0.8869 0.4619 -40.3446 222.6243)" cx="163.3" cy="144.6" rx="18.2" ry="23.3"/>
						</defs>
						<clipPath id="SVGID_00000114035333326363608640000010928490242135618434_">
							<use xlink:href="#SVGID_00000060003963340767977910000007939669825352566193_"  style="overflow:visible;"/>
						</clipPath>
						<g style="clip-path:url(#SVGID_00000114035333326363608640000010928490242135618434_);">
							<g>
								<path class="st6" d="M87.7,108.9c2.5,5.1,5.7,9.7,8.7,14.4c3.2,4.9,6.1,9.9,9,15c3.1,5.3,6.1,10.6,9,16
									c2.7,5,5.2,10.2,8.6,14.7c1.7,2.2,3.6,4.3,5.3,6.5c1.6,2.1,3.3,4.2,5.6,5.6c0.8,0.5,1.6-0.8,0.8-1.3
									c-2.1-1.4-3.6-3.3-5.1-5.3c-1.5-1.9-3.2-3.8-4.7-5.7c-3.5-4.5-6-9.6-8.7-14.6c-2.9-5.2-5.8-10.4-8.8-15.6
									c-2.9-5-5.7-10.1-8.8-14.9c-3.3-5.2-6.9-10.2-9.6-15.7C88.6,107.3,87.3,108,87.7,108.9L87.7,108.9z"/>
							</g>
						</g>
					</g>
					<g>
						<defs>
							
								<ellipse id="SVGID_00000138548746811616496130000005752945684962418355_" transform="matrix(0.4619 -0.8869 0.8869 0.4619 -40.3446 222.6243)" cx="163.3" cy="144.6" rx="18.2" ry="23.3"/>
						</defs>
						<clipPath id="SVGID_00000092449968209505791710000004056150416751758744_">
							<use xlink:href="#SVGID_00000138548746811616496130000005752945684962418355_"  style="overflow:visible;"/>
						</clipPath>
						<g style="clip-path:url(#SVGID_00000092449968209505791710000004056150416751758744_);">
							<g>
								<path class="st6" d="M82.9,108.9c2.5,5.1,5.7,9.7,8.7,14.4c3.2,4.9,6.1,9.9,9,15c3.1,5.3,6.1,10.6,9,16
									c2.7,5,5.2,10.2,8.6,14.7c1.7,2.2,3.6,4.3,5.3,6.5c1.6,2.1,3.3,4.2,5.6,5.6c0.8,0.5,1.6-0.8,0.8-1.3
									c-2.1-1.4-3.6-3.3-5.1-5.3c-1.5-1.9-3.2-3.8-4.7-5.7c-3.5-4.5-6-9.6-8.7-14.6c-2.9-5.2-5.8-10.4-8.8-15.6
									c-2.9-5-5.7-10.1-8.8-14.9c-3.3-5.2-6.9-10.2-9.6-15.7C83.7,107.3,82.4,108,82.9,108.9L82.9,108.9z"/>
							</g>
						</g>
					</g>
					<g>
						<defs>
							
								<ellipse id="SVGID_00000113322813440738653480000011211338036093413516_" transform="matrix(0.4619 -0.8869 0.8869 0.4619 -40.3446 222.6243)" cx="163.3" cy="144.6" rx="18.2" ry="23.3"/>
						</defs>
						<clipPath id="SVGID_00000080921230612333323240000010729303112376414892_">
							<use xlink:href="#SVGID_00000113322813440738653480000011211338036093413516_"  style="overflow:visible;"/>
						</clipPath>
						<g style="clip-path:url(#SVGID_00000080921230612333323240000010729303112376414892_);">
							<g>
								<path class="st6" d="M121.4,108.9c2.5,5.1,5.7,9.7,8.7,14.4c3.2,4.9,6.1,9.9,9,15c3.1,5.3,6.1,10.6,9,16
									c2.7,5,5.2,10.2,8.6,14.7c1.7,2.2,3.6,4.3,5.3,6.5c1.6,2.1,3.3,4.2,5.6,5.6c0.8,0.5,1.6-0.8,0.8-1.3
									c-2.1-1.4-3.6-3.3-5.1-5.3c-1.5-1.9-3.2-3.8-4.7-5.7c-3.5-4.5-6-9.6-8.7-14.6c-2.9-5.2-5.8-10.4-8.8-15.6
									c-2.9-5-5.7-10.1-8.8-14.9c-3.3-5.2-6.9-10.2-9.6-15.7C122.3,107.3,121,108,121.4,108.9L121.4,108.9z"/>
							</g>
						</g>
					</g>
					<g>
						<defs>
							
								<ellipse id="SVGID_00000168813036831371050700000011020433532003124654_" transform="matrix(0.4619 -0.8869 0.8869 0.4619 -40.3446 222.6243)" cx="163.3" cy="144.6" rx="18.2" ry="23.3"/>
						</defs>
						<clipPath id="SVGID_00000073002801889209138710000013810184448592194985_">
							<use xlink:href="#SVGID_00000168813036831371050700000011020433532003124654_"  style="overflow:visible;"/>
						</clipPath>
						<g style="clip-path:url(#SVGID_00000073002801889209138710000013810184448592194985_);">
							<g>
								<path class="st6" d="M116.6,108.9c2.5,5.1,5.7,9.7,8.7,14.4c3.2,4.9,6.1,9.9,9,15c3.1,5.3,6.1,10.6,9,16
									c2.7,5,5.2,10.2,8.6,14.7c1.7,2.2,3.6,4.3,5.3,6.5c1.6,2.1,3.3,4.2,5.6,5.6c0.8,0.5,1.6-0.8,0.8-1.3
									c-2.1-1.4-3.6-3.3-5.1-5.3c-1.5-1.9-3.2-3.8-4.7-5.7c-3.5-4.5-6-9.6-8.7-14.6c-2.9-5.2-5.8-10.4-8.8-15.6
									c-2.9-5-5.7-10.1-8.8-14.9c-3.3-5.2-6.9-10.2-9.6-15.7C117.5,107.3,116.2,108,116.6,108.9L116.6,108.9z"/>
							</g>
						</g>
					</g>
					<g>
						<defs>
							
								<ellipse id="SVGID_00000103964952673099996930000002867386497942274464_" transform="matrix(0.4619 -0.8869 0.8869 0.4619 -40.3446 222.6243)" cx="163.3" cy="144.6" rx="18.2" ry="23.3"/>
						</defs>
						<clipPath id="SVGID_00000150101888909946224770000014029853075162801049_">
							<use xlink:href="#SVGID_00000103964952673099996930000002867386497942274464_"  style="overflow:visible;"/>
						</clipPath>
						<g style="clip-path:url(#SVGID_00000150101888909946224770000014029853075162801049_);">
							<g>
								<path class="st6" d="M111.8,108.9c2.5,5.1,5.7,9.7,8.7,14.4c3.2,4.9,6.1,9.9,9,15c3.1,5.3,6.1,10.6,9,16
									c2.7,5,5.2,10.2,8.6,14.7c1.7,2.2,3.6,4.3,5.3,6.5c1.6,2.1,3.3,4.2,5.6,5.6c0.8,0.5,1.6-0.8,0.8-1.3
									c-2.1-1.4-3.6-3.3-5.1-5.3c-1.5-1.9-3.2-3.8-4.7-5.7c-3.5-4.5-6-9.6-8.7-14.6c-2.9-5.2-5.8-10.4-8.8-15.6
									c-2.9-5-5.7-10.1-8.8-14.9c-3.3-5.2-6.9-10.2-9.6-15.7C112.6,107.3,111.3,108,111.8,108.9L111.8,108.9z"/>
							</g>
						</g>
					</g>
					<g>
						<defs>
							
								<ellipse id="SVGID_00000043420582284756447380000018263039890024495499_" transform="matrix(0.4619 -0.8869 0.8869 0.4619 -40.3446 222.6243)" cx="163.3" cy="144.6" rx="18.2" ry="23.3"/>
						</defs>
						<clipPath id="SVGID_00000054226306211089238460000008397253614631322781_">
							<use xlink:href="#SVGID_00000043420582284756447380000018263039890024495499_"  style="overflow:visible;"/>
						</clipPath>
						<g style="clip-path:url(#SVGID_00000054226306211089238460000008397253614631322781_);">
							<g>
								<path class="st6" d="M135.9,108.9c2.5,5.1,5.7,9.7,8.7,14.4c3.2,4.9,6.1,9.9,9,15c3.1,5.3,6.1,10.6,9,16
									c2.7,5,5.2,10.2,8.6,14.7c1.7,2.2,3.6,4.3,5.3,6.5c1.6,2.1,3.3,4.2,5.6,5.6c0.8,0.5,1.6-0.8,0.8-1.3
									c-2.1-1.4-3.6-3.3-5.1-5.3c-1.5-1.9-3.2-3.8-4.7-5.7c-3.5-4.5-6-9.6-8.7-14.6c-2.9-5.2-5.8-10.4-8.8-15.6
									c-2.9-5-5.7-10.1-8.8-14.9c-3.3-5.2-6.9-10.2-9.6-15.7C136.7,107.3,135.4,108,135.9,108.9L135.9,108.9z"/>
							</g>
						</g>
					</g>
					<g>
						<defs>
							
								<ellipse id="SVGID_00000183234528000355913590000011860703911461233342_" transform="matrix(0.4619 -0.8869 0.8869 0.4619 -40.3446 222.6243)" cx="163.3" cy="144.6" rx="18.2" ry="23.3"/>
						</defs>
						<clipPath id="SVGID_00000065781799608436485100000007661379209522564781_">
							<use xlink:href="#SVGID_00000183234528000355913590000011860703911461233342_"  style="overflow:visible;"/>
						</clipPath>
						<g style="clip-path:url(#SVGID_00000065781799608436485100000007661379209522564781_);">
							<g>
								<path class="st6" d="M131,108.9c2.5,5.1,5.7,9.7,8.7,14.4c3.2,4.9,6.1,9.9,9,15c3.1,5.3,6.1,10.6,9,16
									c2.7,5,5.2,10.2,8.6,14.7c1.7,2.2,3.6,4.3,5.3,6.5c1.6,2.1,3.3,4.2,5.6,5.6c0.8,0.5,1.6-0.8,0.8-1.3
									c-2.1-1.4-3.6-3.3-5.1-5.3c-1.5-1.9-3.2-3.8-4.7-5.7c-3.5-4.5-6-9.6-8.7-14.6c-2.9-5.2-5.8-10.4-8.8-15.6
									c-2.9-5-5.7-10.1-8.8-14.9c-3.3-5.2-6.9-10.2-9.6-15.7C131.9,107.3,130.6,108,131,108.9L131,108.9z"/>
							</g>
						</g>
					</g>
					<g>
						<defs>
							
								<ellipse id="SVGID_00000075850438771349511080000012890942783961429155_" transform="matrix(0.4619 -0.8869 0.8869 0.4619 -40.3446 222.6243)" cx="163.3" cy="144.6" rx="18.2" ry="23.3"/>
						</defs>
						<clipPath id="SVGID_00000124875260084888584670000008609859452727063470_">
							<use xlink:href="#SVGID_00000075850438771349511080000012890942783961429155_"  style="overflow:visible;"/>
						</clipPath>
						<g style="clip-path:url(#SVGID_00000124875260084888584670000008609859452727063470_);">
							<g>
								<path class="st6" d="M126.2,108.9c2.5,5.1,5.7,9.7,8.7,14.4c3.2,4.9,6.1,9.9,9,15c3.1,5.3,6.1,10.6,9,16
									c2.7,5,5.2,10.2,8.6,14.7c1.7,2.2,3.6,4.3,5.3,6.5c1.6,2.1,3.3,4.2,5.6,5.6c0.8,0.5,1.6-0.8,0.8-1.3
									c-2.1-1.4-3.6-3.3-5.1-5.3c-1.5-1.9-3.2-3.8-4.7-5.7c-3.5-4.5-6-9.6-8.7-14.6c-2.9-5.2-5.8-10.4-8.8-15.6
									c-2.9-5-5.7-10.1-8.8-14.9c-3.3-5.2-6.9-10.2-9.6-15.7C127.1,107.3,125.8,108,126.2,108.9L126.2,108.9z"/>
							</g>
						</g>
					</g>
					<g>
						<defs>
							
								<ellipse id="SVGID_00000131351909518093090320000004892641108810586296_" transform="matrix(0.4619 -0.8869 0.8869 0.4619 -40.3446 222.6243)" cx="163.3" cy="144.6" rx="18.2" ry="23.3"/>
						</defs>
						<clipPath id="SVGID_00000065065345894416136040000014080649038723626895_">
							<use xlink:href="#SVGID_00000131351909518093090320000004892641108810586296_"  style="overflow:visible;"/>
						</clipPath>
						<g style="clip-path:url(#SVGID_00000065065345894416136040000014080649038723626895_);">
							<g>
								<path class="st6" d="M150.3,108.9c2.5,5.1,5.7,9.7,8.7,14.4c3.2,4.9,6.1,9.9,9,15c3.1,5.3,6.1,10.6,9,16
									c2.7,5,5.2,10.2,8.6,14.7c1.7,2.2,3.6,4.3,5.3,6.5c1.6,2.1,3.3,4.2,5.6,5.6c0.8,0.5,1.6-0.8,0.8-1.3
									c-2.1-1.4-3.6-3.3-5.1-5.3c-1.5-1.9-3.2-3.8-4.7-5.7c-3.5-4.5-6-9.6-8.7-14.6c-2.9-5.2-5.8-10.4-8.8-15.6
									c-2.9-5-5.7-10.1-8.8-14.9c-3.3-5.2-6.9-10.2-9.6-15.7C151.2,107.3,149.9,108,150.3,108.9L150.3,108.9z"/>
							</g>
						</g>
					</g>
					<g>
						<defs>
							
								<ellipse id="SVGID_00000049201687367050729540000016478984672225441159_" transform="matrix(0.4619 -0.8869 0.8869 0.4619 -40.3446 222.6243)" cx="163.3" cy="144.6" rx="18.2" ry="23.3"/>
						</defs>
						<clipPath id="SVGID_00000157299533207448378030000017806158166525158314_">
							<use xlink:href="#SVGID_00000049201687367050729540000016478984672225441159_"  style="overflow:visible;"/>
						</clipPath>
						<g style="clip-path:url(#SVGID_00000157299533207448378030000017806158166525158314_);">
							<g>
								<path class="st6" d="M145.5,108.9c2.5,5.1,5.7,9.7,8.7,14.4c3.2,4.9,6.1,9.9,9,15c3.1,5.3,6.1,10.6,9,16
									c2.7,5,5.2,10.2,8.6,14.7c1.7,2.2,3.6,4.3,5.3,6.5c1.6,2.1,3.3,4.2,5.6,5.6c0.8,0.5,1.6-0.8,0.8-1.3
									c-2.1-1.4-3.6-3.3-5.1-5.3c-1.5-1.9-3.2-3.8-4.7-5.7c-3.5-4.5-6-9.6-8.7-14.6c-2.9-5.2-5.8-10.4-8.8-15.6
									c-2.9-5-5.7-10.1-8.8-14.9c-3.3-5.2-6.9-10.2-9.6-15.7C146.4,107.3,145.1,108,145.5,108.9L145.5,108.9z"/>
							</g>
						</g>
					</g>
					<g>
						<defs>
							
								<ellipse id="SVGID_00000093892977801008861330000010918431272049405829_" transform="matrix(0.4619 -0.8869 0.8869 0.4619 -40.3446 222.6243)" cx="163.3" cy="144.6" rx="18.2" ry="23.3"/>
						</defs>
						<clipPath id="SVGID_00000021085170060308312100000003846143933739534244_">
							<use xlink:href="#SVGID_00000093892977801008861330000010918431272049405829_"  style="overflow:visible;"/>
						</clipPath>
						<g style="clip-path:url(#SVGID_00000021085170060308312100000003846143933739534244_);">
							<g>
								<path class="st6" d="M140.7,108.9c2.5,5.1,5.7,9.7,8.7,14.4c3.2,4.9,6.1,9.9,9,15c3.1,5.3,6.1,10.6,9,16
									c2.7,5,5.2,10.2,8.6,14.7c1.7,2.2,3.6,4.3,5.3,6.5c1.6,2.1,3.3,4.2,5.6,5.6c0.8,0.5,1.6-0.8,0.8-1.3
									c-2.1-1.4-3.6-3.3-5.1-5.3c-1.5-1.9-3.2-3.8-4.7-5.7c-3.5-4.5-6-9.6-8.7-14.6c-2.9-5.2-5.8-10.4-8.8-15.6
									c-2.9-5-5.7-10.1-8.8-14.9c-3.3-5.2-6.9-10.2-9.6-15.7C141.5,107.3,140.3,108,140.7,108.9L140.7,108.9z"/>
							</g>
						</g>
					</g>
					<g>
						<defs>
							
								<ellipse id="SVGID_00000002364027674287338150000012354271144715867532_" transform="matrix(0.4619 -0.8869 0.8869 0.4619 -40.3446 222.6243)" cx="163.3" cy="144.6" rx="18.2" ry="23.3"/>
						</defs>
						<clipPath id="SVGID_00000134956988298926373000000016667242038980011680_">
							<use xlink:href="#SVGID_00000002364027674287338150000012354271144715867532_"  style="overflow:visible;"/>
						</clipPath>
						<g style="clip-path:url(#SVGID_00000134956988298926373000000016667242038980011680_);">
							<g>
								<path class="st6" d="M164.8,108.9c2.5,5.1,5.7,9.7,8.7,14.4c3.2,4.9,6.1,9.9,9,15c3.1,5.3,6.1,10.6,9,16
									c2.7,5,5.2,10.2,8.6,14.7c1.7,2.2,3.6,4.3,5.3,6.5c1.6,2.1,3.3,4.2,5.6,5.6c0.8,0.5,1.6-0.8,0.8-1.3
									c-2.1-1.4-3.6-3.3-5.1-5.3c-1.5-1.9-3.2-3.8-4.7-5.7c-3.5-4.5-6-9.6-8.7-14.6c-2.9-5.2-5.8-10.4-8.8-15.6
									c-2.9-5-5.7-10.1-8.8-14.9c-3.3-5.2-6.9-10.2-9.6-15.7C165.6,107.3,164.3,108,164.8,108.9L164.8,108.9z"/>
							</g>
						</g>
					</g>
					<g>
						<defs>
							
								<ellipse id="SVGID_00000156571728366978402480000001864545396549291175_" transform="matrix(0.4619 -0.8869 0.8869 0.4619 -40.3446 222.6243)" cx="163.3" cy="144.6" rx="18.2" ry="23.3"/>
						</defs>
						<clipPath id="SVGID_00000068638210356793915070000002491116253167297179_">
							<use xlink:href="#SVGID_00000156571728366978402480000001864545396549291175_"  style="overflow:visible;"/>
						</clipPath>
						<g style="clip-path:url(#SVGID_00000068638210356793915070000002491116253167297179_);">
							<g>
								<path class="st6" d="M159.9,108.9c2.5,5.1,5.7,9.7,8.7,14.4c3.2,4.9,6.1,9.9,9,15c3.1,5.3,6.1,10.6,9,16
									c2.7,5,5.2,10.2,8.6,14.7c1.7,2.2,3.6,4.3,5.3,6.5c1.6,2.1,3.3,4.2,5.6,5.6c0.8,0.5,1.6-0.8,0.8-1.3
									c-2.1-1.4-3.6-3.3-5.1-5.3c-1.5-1.9-3.2-3.8-4.7-5.7c-3.5-4.5-6-9.6-8.7-14.6c-2.9-5.2-5.8-10.4-8.8-15.6
									c-2.9-5-5.7-10.1-8.8-14.9c-3.3-5.2-6.9-10.2-9.6-15.7C160.8,107.3,159.5,108,159.9,108.9L159.9,108.9z"/>
							</g>
						</g>
					</g>
					<g>
						<defs>
							
								<ellipse id="SVGID_00000039107782457135869810000003671922450622123425_" transform="matrix(0.4619 -0.8869 0.8869 0.4619 -40.3446 222.6243)" cx="163.3" cy="144.6" rx="18.2" ry="23.3"/>
						</defs>
						<clipPath id="SVGID_00000134241813732561708230000014622992115166467739_">
							<use xlink:href="#SVGID_00000039107782457135869810000003671922450622123425_"  style="overflow:visible;"/>
						</clipPath>
						<g style="clip-path:url(#SVGID_00000134241813732561708230000014622992115166467739_);">
							<g>
								<path class="st6" d="M155.1,108.9c2.5,5.1,5.7,9.7,8.7,14.4c3.2,4.9,6.1,9.9,9,15c3.1,5.3,6.1,10.6,9,16
									c2.7,5,5.2,10.2,8.6,14.7c1.7,2.2,3.6,4.3,5.3,6.5c1.6,2.1,3.3,4.2,5.6,5.6c0.8,0.5,1.6-0.8,0.8-1.3
									c-2.1-1.4-3.6-3.3-5.1-5.3c-1.5-1.9-3.2-3.8-4.7-5.7c-3.5-4.5-6-9.6-8.7-14.6c-2.9-5.2-5.8-10.4-8.8-15.6
									c-2.9-5-5.7-10.1-8.8-14.9c-3.3-5.2-6.9-10.2-9.6-15.7C156,107.3,154.7,108,155.1,108.9L155.1,108.9z"/>
							</g>
						</g>
					</g>
					<g>
						<defs>
							
								<ellipse id="SVGID_00000154404951271278643450000003694022787792679555_" transform="matrix(0.4619 -0.8869 0.8869 0.4619 -40.3446 222.6243)" cx="163.3" cy="144.6" rx="18.2" ry="23.3"/>
						</defs>
						<clipPath id="SVGID_00000132789055813841587520000013943083818275229626_">
							<use xlink:href="#SVGID_00000154404951271278643450000003694022787792679555_"  style="overflow:visible;"/>
						</clipPath>
						<g style="clip-path:url(#SVGID_00000132789055813841587520000013943083818275229626_);">
							<g>
								<path class="st6" d="M179.2,108.9c2.5,5.1,5.7,9.7,8.7,14.4c3.2,4.9,6.1,9.9,9,15c3.1,5.3,6.1,10.6,9,16
									c2.7,5,5.2,10.2,8.6,14.7c1.7,2.2,3.6,4.3,5.3,6.5c1.6,2.1,3.3,4.2,5.6,5.6c0.8,0.5,1.6-0.8,0.8-1.3
									c-2.1-1.4-3.6-3.3-5.1-5.3c-1.5-1.9-3.2-3.8-4.7-5.7c-3.5-4.5-6-9.6-8.7-14.6c-2.9-5.2-5.8-10.4-8.8-15.6
									c-2.9-5-5.7-10.1-8.8-14.9c-3.3-5.2-6.9-10.2-9.6-15.7C180.1,107.3,178.8,108,179.2,108.9L179.2,108.9z"/>
							</g>
						</g>
					</g>
					<g>
						<defs>
							
								<ellipse id="SVGID_00000080188378211110262520000014908312536908794809_" transform="matrix(0.4619 -0.8869 0.8869 0.4619 -40.3446 222.6243)" cx="163.3" cy="144.6" rx="18.2" ry="23.3"/>
						</defs>
						<clipPath id="SVGID_00000145040838030266222350000007565345210001576362_">
							<use xlink:href="#SVGID_00000080188378211110262520000014908312536908794809_"  style="overflow:visible;"/>
						</clipPath>
						<g style="clip-path:url(#SVGID_00000145040838030266222350000007565345210001576362_);">
							<g>
								<path class="st6" d="M184,108.9c2.5,5.1,5.7,9.7,8.7,14.4c3.2,4.9,6.1,9.9,9,15c3.1,5.3,6.1,10.6,9,16
									c2.7,5,5.2,10.2,8.6,14.7c1.7,2.2,3.6,4.3,5.3,6.5c1.6,2.1,3.3,4.2,5.6,5.6c0.8,0.5,1.6-0.8,0.8-1.3
									c-2.1-1.4-3.6-3.3-5.1-5.3c-1.5-1.9-3.2-3.8-4.7-5.7c-3.5-4.5-6-9.6-8.7-14.6c-2.9-5.2-5.8-10.4-8.8-15.6
									c-2.9-5-5.7-10.1-8.8-14.9c-3.3-5.2-6.9-10.2-9.6-15.7C184.9,107.3,183.6,108,184,108.9L184,108.9z"/>
							</g>
						</g>
					</g>
					<g>
						<defs>
							
								<ellipse id="SVGID_00000106139510485644862980000016101520725139593621_" transform="matrix(0.4619 -0.8869 0.8869 0.4619 -40.3446 222.6243)" cx="163.3" cy="144.6" rx="18.2" ry="23.3"/>
						</defs>
						<clipPath id="SVGID_00000062898487028954466160000017453626299072936122_">
							<use xlink:href="#SVGID_00000106139510485644862980000016101520725139593621_"  style="overflow:visible;"/>
						</clipPath>
						<g style="clip-path:url(#SVGID_00000062898487028954466160000017453626299072936122_);">
							<g>
								<path class="st6" d="M188.8,108.9c2.5,5.1,5.7,9.7,8.7,14.4c3.2,4.9,6.1,9.9,9,15c3.1,5.3,6.1,10.6,9,16
									c2.7,5,5.2,10.2,8.6,14.7c1.7,2.2,3.6,4.3,5.3,6.5c1.6,2.1,3.3,4.2,5.6,5.6c0.8,0.5,1.6-0.8,0.8-1.3
									c-2.1-1.4-3.6-3.3-5.1-5.3c-1.5-1.9-3.2-3.8-4.7-5.7c-3.5-4.5-6-9.6-8.7-14.6c-2.9-5.2-5.8-10.4-8.8-15.6
									c-2.9-5-5.7-10.1-8.8-14.9c-3.3-5.2-6.9-10.2-9.6-15.7C189.7,107.3,188.4,108,188.8,108.9L188.8,108.9z"/>
							</g>
						</g>
					</g>
					<g>
						<defs>
							
								<ellipse id="SVGID_00000101073310303805211040000010952026130652916352_" transform="matrix(0.4619 -0.8869 0.8869 0.4619 -40.3446 222.6243)" cx="163.3" cy="144.6" rx="18.2" ry="23.3"/>
						</defs>
						<clipPath id="SVGID_00000052088041479925559930000015391834876523401916_">
							<use xlink:href="#SVGID_00000101073310303805211040000010952026130652916352_"  style="overflow:visible;"/>
						</clipPath>
						<g style="clip-path:url(#SVGID_00000052088041479925559930000015391834876523401916_);">
							<g>
								<path class="st6" d="M174.4,108.9c2.5,5.1,5.7,9.7,8.7,14.4c3.2,4.9,6.1,9.9,9,15c3.1,5.3,6.1,10.6,9,16
									c2.7,5,5.2,10.2,8.6,14.7c1.7,2.2,3.6,4.3,5.3,6.5c1.6,2.1,3.3,4.2,5.6,5.6c0.8,0.5,1.6-0.8,0.8-1.3
									c-2.1-1.4-3.6-3.3-5.1-5.3c-1.5-1.9-3.2-3.8-4.7-5.7c-3.5-4.5-6-9.6-8.7-14.6c-2.9-5.2-5.8-10.4-8.8-15.6
									c-2.9-5-5.7-10.1-8.8-14.9c-3.3-5.2-6.9-10.2-9.6-15.7C175.3,107.3,174,108,174.4,108.9L174.4,108.9z"/>
							</g>
						</g>
					</g>
					<g>
						<defs>
							
								<ellipse id="SVGID_00000075877584919069276270000013101943983686659750_" transform="matrix(0.4619 -0.8869 0.8869 0.4619 -40.3446 222.6243)" cx="163.3" cy="144.6" rx="18.2" ry="23.3"/>
						</defs>
						<clipPath id="SVGID_00000041263981665035826850000007384437251256728485_">
							<use xlink:href="#SVGID_00000075877584919069276270000013101943983686659750_"  style="overflow:visible;"/>
						</clipPath>
						<g style="clip-path:url(#SVGID_00000041263981665035826850000007384437251256728485_);">
							<g>
								<path class="st6" d="M169.6,108.9c2.5,5.1,5.7,9.7,8.7,14.4c3.2,4.9,6.1,9.9,9,15c3.1,5.3,6.1,10.6,9,16
									c2.7,5,5.2,10.2,8.6,14.7c1.7,2.2,3.6,4.3,5.3,6.5c1.6,2.1,3.3,4.2,5.6,5.6c0.8,0.5,1.6-0.8,0.8-1.3
									c-2.1-1.4-3.6-3.3-5.1-5.3c-1.5-1.9-3.2-3.8-4.7-5.7c-3.5-4.5-6-9.6-8.7-14.6c-2.9-5.2-5.8-10.4-8.8-15.6
									c-2.9-5-5.7-10.1-8.8-14.9c-3.3-5.2-6.9-10.2-9.6-15.7C170.5,107.3,169.2,108,169.6,108.9L169.6,108.9z"/>
							</g>
						</g>
					</g>
				</g>
			</g>
			<g>
				<g>
					<path d="M33.4,187.9c0,0-1.6,3.9-8.9,7.2c-7.3,3.4-13.5-1.5-13.5-1.5s3.7-4.4,11.9-8.6c8.2-4.2,10.9-2,10.9-2L33.4,187.9z"/>
				</g>
				<path class="st52" d="M84.5,183.6c0,0-15.2,6.9-24.7,10.2c-16.2,5.6-30.4-8.4-30.4-8.4"/>
			</g>
			<g>
				<g>
					<path d="M211.1,252.6c0,0,3.4-2.5,11.4-1.5s10.7,8.3,10.7,8.3s-5.4,1.8-14.6,1.2c-9.2-0.6-10.3-3.9-10.3-3.9L211.1,252.6z"/>
				</g>
				<path class="st52" d="M185.9,208.7c0,0,11,16.1,15.8,24.9c4.9,8.8,10,21.7,10,21.7"/>
			</g>
		</g>
	</g>
</g>
<ellipse class="st53" cx="124.8" cy="255.3" rx="70.5" ry="15"/>
</svg>
