<?xml version="1.0" encoding="utf-8"?>
<!-- Generator: Adobe Illustrator 25.4.1, SVG Export Plug-In . SVG Version: 6.00 Build 0)  -->
<svg version="1.1" xmlns="http://www.w3.org/2000/svg" xmlns:xlink="http://www.w3.org/1999/xlink" x="0px" y="0px"
	 viewBox="0 0 492 322.04" style="enable-background:new 0 0 492 322.04;" xml:space="preserve">
<style type="text/css">
	.st0{fill:none;stroke:#000000;stroke-width:2.6129;stroke-miterlimit:10;}
	.st1{fill:none;stroke:#000000;stroke-width:3.9194;stroke-miterlimit:10;}
	.st2{fill:#FFFFFF;stroke:#000000;stroke-width:2.6129;stroke-miterlimit:10;}
	.st3{fill:#FFFFFF;}
	.st4{clip-path:url(#SVGID_00000147937222717358805560000002282376066061424256_);}
	.st5{clip-path:url(#SVGID_00000066508158667676385410000005574080716708894340_);}
	.st6{fill:#2B2E31;}
	.st7{clip-path:url(#SVGID_00000082355087909234947860000008672919078450714276_);}
	.st8{fill-rule:evenodd;clip-rule:evenodd;fill:#414042;}
	.st9{fill:none;stroke:#414042;stroke-width:3.9194;stroke-miterlimit:10;}
	.st10{fill:#414042;}
</style>
<g id="Capa_1">
</g>
<g id="Capa_2">
	<g>
		<g>
			<g>
				<path d="M476.7,179.55c-5.3-4.53-19.71-3.95-21.76,11.85s11.91,20.03,3.54,28.86s12.1,3.44,18.6-7.67
					C484.52,199.89,484.51,186.23,476.7,179.55z"/>
				<path class="st0" d="M440.54,122.43c0,0,21.82,5.18,30.36,16.93c8.54,11.74,0.31,40.84,0.31,40.84"/>
			</g>
			<g>
				<g>
					<path d="M260.04,111.64c0,0,0.04-5.47-7-13.25c-7.03-7.78-16.96-5.1-16.96-5.1s2.22,7.16,9.86,16.4c7.64,9.25,12.02,8,12.02,8
						L260.04,111.64z"/>
				</g>
				<path class="st1" d="M255.29,112.9c0,0,7.05,24.38,15.36,34.54c8.3,10.16,28.66,19.32,28.66,19.32"/>
			</g>
			<g>
				<g>
					<path d="M347.69,302.39c0,0-4.25-3.44-14.72-2.78c-10.47,0.65-14.56,10.09-14.56,10.09s6.98,2.73,18.97,2.51
						c12-0.22,13.74-4.42,13.74-4.42L347.69,302.39z"/>
				</g>
				<path class="st1" d="M347.04,239.21c0,0-6.72,23.38-6.72,36.5s6.72,33.05,6.72,33.05"/>
			</g>
			<g>
				<g>
					<path d="M404.48,304.12c0,0-4.25-3.44-14.72-2.78c-10.47,0.65-14.56,10.09-14.56,10.09s6.98,2.73,18.97,2.51
						s13.74-4.42,13.74-4.42L404.48,304.12z"/>
				</g>
				<path class="st1" d="M403.83,240.94c0,0-5.45,23.8-5.45,36.92s5.45,32.64,5.45,32.64"/>
			</g>
			<g>
				<path class="st2" d="M407,266.47l-107.52-24.24c-13.13-2.82-21.48-15.75-18.66-28.88l33.7-135.37
					c2.82-13.13,15.75-21.48,28.88-18.66l107.52,24.24c13.13,2.82,21.48,15.75,18.66,28.88l-33.7,135.37
					C433.06,260.94,420.13,269.3,407,266.47z"/>
				<g>
					<g>
						<path class="st3" d="M405.14,234.84c0.54,16.54-12.43,30.38-28.97,30.92c-16.54,0.54-30.38-12.43-30.92-28.97"/>
						<path d="M405.14,234.84c0.55,3.91,0.17,7.99-1.01,11.87c-1.21,3.87-3.23,7.53-5.96,10.63c-2.69,3.13-6.11,5.64-9.85,7.45
							c-3.77,1.78-7.92,2.75-12.09,2.93c-4.17,0.1-8.37-0.6-12.25-2.13c-3.86-1.57-7.43-3.84-10.32-6.79
							c-2.92-2.92-5.18-6.44-6.64-10.22c-1.43-3.79-2.08-7.84-1.78-11.78c1.06,7.82,4.86,14.89,10.51,19.77
							c5.64,4.88,13.01,7.53,20.35,7.24c7.35-0.19,14.53-3.31,19.84-8.55C401.26,250.02,404.59,242.71,405.14,234.84z"/>
					</g>
					<g>
						<path class="st3" d="M365.75,258.22l-2.59,7c-0.78,2.09-3.12,3.16-5.25,2.37l-0.14-0.05c-2.12-0.79-3.21-3.12-2.44-5.22
							l2.59-7"/>
						<path d="M365.75,258.22c-0.3,2.36-0.84,4.64-1.47,6.88l-0.12,0.42c-0.04,0.14-0.11,0.34-0.17,0.51
							c-0.14,0.34-0.33,0.67-0.54,0.98c-0.43,0.61-1.02,1.12-1.68,1.49c-1.31,0.75-3.01,0.84-4.39,0.3
							c-0.67-0.25-1.37-0.66-1.91-1.19c-0.54-0.54-0.97-1.19-1.23-1.89c-0.26-0.71-0.38-1.47-0.3-2.22
							c0.04-0.37,0.11-0.74,0.23-1.09c0.06-0.17,0.14-0.36,0.2-0.5l0.19-0.39c0.99-2.11,2.06-4.19,3.37-6.18
							c-0.3,2.37-0.84,4.64-1.46,6.88c-0.18,0.63-0.23,0.93-0.22,1.38c0.02,0.41,0.12,0.82,0.3,1.18c0.36,0.74,0.96,1.29,1.76,1.57
							c0.79,0.31,1.61,0.28,2.36-0.05c0.37-0.16,0.71-0.4,1-0.7c0.3-0.33,0.46-0.59,0.73-1.19
							C363.36,262.29,364.43,260.21,365.75,258.22z"/>
					</g>
					<g>
						<path class="st3" d="M377.46,259.86l-0.64,7.44c-0.19,2.23-2.17,3.87-4.43,3.68l-0.15-0.01c-2.25-0.19-3.93-2.16-3.73-4.38
							l0.64-7.44"/>
						<path d="M377.46,259.86c0.34,2.36,0.42,4.7,0.41,7.03l0,0.44c0,0.15-0.02,0.36-0.03,0.53c-0.04,0.37-0.14,0.73-0.26,1.08
							c-0.25,0.71-0.68,1.35-1.22,1.88c-1.07,1.07-2.68,1.61-4.16,1.45c-0.71-0.06-1.5-0.27-2.16-0.64
							c-0.66-0.38-1.25-0.89-1.69-1.5c-0.44-0.61-0.75-1.32-0.88-2.06c-0.06-0.37-0.09-0.74-0.07-1.11
							c0.02-0.18,0.04-0.38,0.06-0.53l0.08-0.43c0.39-2.3,0.87-4.58,1.61-6.85c0.34,2.36,0.43,4.7,0.42,7.03
							c-0.01,0.66,0.02,0.96,0.15,1.39c0.13,0.39,0.33,0.76,0.6,1.06c0.54,0.62,1.27,0.99,2.11,1.05c0.84,0.09,1.62-0.15,2.26-0.67
							c0.32-0.25,0.58-0.58,0.77-0.94c0.2-0.4,0.29-0.69,0.39-1.34C376.24,264.42,376.72,262.13,377.46,259.86z"/>
					</g>
					<g>
						<path class="st3" d="M389.41,258.57l0.8,7.42c0.24,2.22-1.39,4.22-3.64,4.46l-0.15,0.02c-2.25,0.24-4.27-1.36-4.5-3.58
							l-0.8-7.42"/>
						<path d="M389.41,258.57c0.79,2.25,1.31,4.53,1.75,6.82l0.08,0.43c0.03,0.15,0.05,0.35,0.07,0.53
							c0.03,0.37,0.01,0.74-0.05,1.11c-0.11,0.74-0.41,1.45-0.84,2.08c-0.84,1.25-2.33,2.09-3.8,2.22
							c-0.71,0.08-1.52,0.02-2.24-0.21c-0.72-0.24-1.4-0.63-1.95-1.15c-0.55-0.52-0.99-1.15-1.26-1.85
							c-0.13-0.35-0.23-0.71-0.28-1.08c-0.02-0.18-0.04-0.38-0.04-0.53l-0.01-0.44c-0.06-2.33-0.02-4.67,0.27-7.03
							c0.79,2.25,1.32,4.53,1.76,6.82c0.12,0.65,0.21,0.94,0.41,1.33c0.21,0.36,0.47,0.68,0.79,0.92c0.65,0.5,1.43,0.73,2.27,0.62
							c0.84-0.07,1.56-0.46,2.09-1.09c0.26-0.31,0.45-0.68,0.58-1.07c0.12-0.43,0.15-0.74,0.12-1.39
							C389.09,263.27,389.12,260.93,389.41,258.57z"/>
					</g>
				</g>
				<g>
					<defs>
						<path id="SVGID_1_" d="M406.16,265.21l-105.4-23.79c-13.13-2.82-21.48-15.75-18.66-28.88l33.25-133.29
							c2.82-13.13,15.75-21.48,28.88-18.66l105.4,23.79c13.13,2.82,21.48,15.75,18.66,28.88l-33.25,133.29
							C432.22,259.68,419.29,268.03,406.16,265.21z"/>
					</defs>
					<clipPath id="SVGID_00000119824862325196373510000016052982706191450509_">
						<use xlink:href="#SVGID_1_"  style="overflow:visible;"/>
					</clipPath>
					<g style="clip-path:url(#SVGID_00000119824862325196373510000016052982706191450509_);">
						<defs>
							<path id="SVGID_00000021805216784440543320000005001742320884735893_" d="M455.16,77.69c-15.83-11.57-36.52-11.66-52.17-1.85
								c-1.79-3.24-4.28-6.17-7.47-8.5c-11.73-8.57-28.19-6.01-36.77,5.72s-6.01,28.19,5.72,36.77c5.04,3.68,10.95,5.3,16.73,5.03
								c-0.11,14.47,6.49,28.78,19.06,37.96c20.75,15.16,49.86,10.63,65.02-10.11C480.43,121.97,475.91,92.86,455.16,77.69z"/>
						</defs>
						<clipPath id="SVGID_00000080928056094766592360000005952312829513017226_">
							<use xlink:href="#SVGID_00000021805216784440543320000005001742320884735893_"  style="overflow:visible;"/>
						</clipPath>
						<g style="clip-path:url(#SVGID_00000080928056094766592360000005952312829513017226_);">
							<g>
								<path class="st6" d="M489.98,92.5c-5.54,4.53-11.72,8.18-17.79,11.94c-6.31,3.91-12.34,8.2-18.4,12.46
									c-6.25,4.39-12.47,8.81-18.63,13.32c-5.95,4.35-11.65,9.21-18.06,12.87c-3.31,1.89-6.81,3.36-10.22,5.06
									c-3.42,1.71-6.85,3.64-10.69,4.21c-1.24,0.18-0.71,2.07,0.52,1.89c3.29-0.48,6.32-1.97,9.26-3.44
									c3.1-1.55,6.28-2.93,9.36-4.52c6.68-3.45,12.44-8.19,18.47-12.63c6.27-4.63,12.62-9.16,18.99-13.65
									c6.17-4.35,12.29-8.79,18.68-12.8c6.77-4.24,13.7-8.25,19.9-13.31C492.34,93.09,490.95,91.71,489.98,92.5L489.98,92.5z"/>
							</g>
						</g>
						<g style="clip-path:url(#SVGID_00000080928056094766592360000005952312829513017226_);">
							<g>
								<path class="st6" d="M495.69,95.15c-5.54,4.53-11.72,8.18-17.79,11.94c-6.31,3.91-12.34,8.2-18.4,12.46
									c-6.25,4.39-12.47,8.81-18.63,13.32c-5.95,4.35-11.65,9.21-18.06,12.87c-3.31,1.89-6.81,3.36-10.22,5.06
									c-3.42,1.71-6.85,3.64-10.69,4.21c-1.24,0.18-0.71,2.07,0.52,1.89c3.29-0.48,6.32-1.97,9.26-3.44
									c3.1-1.55,6.28-2.93,9.36-4.52c6.68-3.45,12.44-8.19,18.47-12.63c6.27-4.63,12.62-9.16,18.99-13.65
									c6.17-4.35,12.29-8.79,18.68-12.8c6.77-4.24,13.7-8.25,19.9-13.31C498.05,95.74,496.66,94.36,495.69,95.15L495.69,95.15z"/>
							</g>
						</g>
						<g style="clip-path:url(#SVGID_00000080928056094766592360000005952312829513017226_);">
							<g>
								<path class="st6" d="M501.4,97.8c-5.54,4.53-11.72,8.18-17.79,11.94c-6.31,3.91-12.34,8.2-18.4,12.46
									c-6.25,4.39-12.47,8.81-18.63,13.32c-5.95,4.35-11.65,9.21-18.06,12.87c-3.31,1.89-6.81,3.36-10.22,5.06
									c-3.42,1.71-6.85,3.64-10.69,4.21c-1.24,0.18-0.71,2.07,0.52,1.89c3.29-0.48,6.32-1.97,9.26-3.44
									c3.1-1.55,6.28-2.93,9.36-4.52c6.68-3.45,12.44-8.19,18.47-12.63c6.27-4.63,12.62-9.16,18.99-13.65
									c6.17-4.35,12.29-8.79,18.68-12.8c6.77-4.24,13.7-8.25,19.9-13.31C503.76,98.39,502.37,97.01,501.4,97.8L501.4,97.8z"/>
							</g>
						</g>
						<g style="clip-path:url(#SVGID_00000080928056094766592360000005952312829513017226_);">
							<g>
								<path class="st6" d="M507.11,100.46c-5.54,4.53-11.72,8.18-17.79,11.94c-6.31,3.91-12.34,8.2-18.4,12.46
									c-6.25,4.39-12.47,8.81-18.63,13.32c-5.95,4.35-11.65,9.21-18.06,12.87c-3.31,1.89-6.81,3.36-10.22,5.06
									c-3.42,1.71-6.85,3.64-10.69,4.21c-1.24,0.18-0.71,2.07,0.52,1.89c3.29-0.48,6.32-1.97,9.26-3.44
									c3.1-1.55,6.28-2.93,9.36-4.52c6.68-3.45,12.44-8.19,18.47-12.63c6.27-4.63,12.62-9.16,18.99-13.65
									c6.17-4.35,12.29-8.79,18.68-12.8c6.77-4.24,13.7-8.25,19.9-13.31C509.47,101.04,508.07,99.66,507.11,100.46L507.11,100.46z
									"/>
							</g>
						</g>
						<g style="clip-path:url(#SVGID_00000080928056094766592360000005952312829513017226_);">
							<g>
								<path class="st6" d="M512.81,103.11c-5.54,4.53-11.72,8.18-17.79,11.94c-6.31,3.91-12.34,8.2-18.4,12.46
									c-6.25,4.39-12.47,8.81-18.63,13.32c-5.95,4.35-11.65,9.21-18.06,12.87c-3.31,1.89-6.81,3.36-10.22,5.06
									c-3.42,1.71-6.85,3.64-10.69,4.21c-1.24,0.18-0.71,2.07,0.52,1.89c3.29-0.48,6.32-1.97,9.26-3.44
									c3.1-1.55,6.28-2.93,9.36-4.52c6.68-3.45,12.44-8.19,18.47-12.63c6.27-4.63,12.62-9.16,18.99-13.65
									c6.17-4.35,12.29-8.79,18.68-12.8c6.77-4.24,13.7-8.25,19.9-13.31C515.18,103.69,513.78,102.32,512.81,103.11L512.81,103.11
									z"/>
							</g>
						</g>
						<g style="clip-path:url(#SVGID_00000080928056094766592360000005952312829513017226_);">
							<g>
								<path class="st6" d="M518.52,105.76c-5.54,4.53-11.72,8.18-17.79,11.94c-6.31,3.91-12.34,8.2-18.4,12.46
									c-6.25,4.39-12.47,8.81-18.63,13.32c-5.95,4.35-11.65,9.21-18.06,12.87c-3.31,1.89-6.81,3.36-10.22,5.06
									c-3.42,1.71-6.85,3.64-10.69,4.21c-1.24,0.18-0.71,2.07,0.52,1.89c3.29-0.48,6.32-1.97,9.26-3.44
									c3.1-1.55,6.28-2.93,9.36-4.52c6.68-3.45,12.44-8.19,18.47-12.63c6.27-4.63,12.62-9.16,18.99-13.65
									c6.17-4.35,12.29-8.79,18.68-12.8c6.77-4.24,13.7-8.25,19.9-13.31C520.88,106.35,519.49,104.97,518.52,105.76L518.52,105.76
									z"/>
							</g>
						</g>
						<g style="clip-path:url(#SVGID_00000080928056094766592360000005952312829513017226_);">
							<g>
								<path class="st6" d="M472.86,84.55c-5.54,4.53-11.72,8.18-17.79,11.94c-6.31,3.91-12.34,8.2-18.4,12.46
									c-6.25,4.39-12.47,8.81-18.63,13.32c-5.95,4.35-11.65,9.21-18.06,12.87c-3.31,1.89-6.81,3.36-10.22,5.06
									c-3.42,1.71-6.85,3.64-10.69,4.21c-1.24,0.18-0.71,2.07,0.52,1.89c3.29-0.48,6.32-1.97,9.26-3.44
									c3.1-1.55,6.28-2.93,9.36-4.52c6.68-3.45,12.44-8.19,18.47-12.63c6.27-4.63,12.62-9.16,18.99-13.65
									c6.17-4.35,12.29-8.79,18.68-12.8c6.77-4.24,13.7-8.25,19.9-13.31C475.22,85.14,473.83,83.76,472.86,84.55L472.86,84.55z"/>
							</g>
						</g>
						<g style="clip-path:url(#SVGID_00000080928056094766592360000005952312829513017226_);">
							<g>
								<path class="st6" d="M478.56,87.2c-5.54,4.53-11.72,8.18-17.79,11.94c-6.31,3.91-12.34,8.2-18.4,12.46
									c-6.25,4.39-12.47,8.81-18.63,13.32c-5.95,4.35-11.65,9.21-18.06,12.87c-3.31,1.89-6.81,3.36-10.22,5.06
									c-3.42,1.71-6.85,3.64-10.69,4.21c-1.24,0.18-0.71,2.07,0.52,1.89c3.29-0.48,6.32-1.97,9.26-3.44
									c3.1-1.55,6.28-2.93,9.36-4.52c6.68-3.45,12.44-8.19,18.47-12.63c6.27-4.63,12.62-9.16,18.99-13.65
									c6.17-4.35,12.29-8.79,18.68-12.8c6.77-4.24,13.7-8.25,19.9-13.31C480.93,87.79,479.53,86.41,478.56,87.2L478.56,87.2z"/>
							</g>
						</g>
						<g style="clip-path:url(#SVGID_00000080928056094766592360000005952312829513017226_);">
							<g>
								<path class="st6" d="M484.27,89.85c-5.54,4.53-11.72,8.18-17.79,11.94c-6.31,3.91-12.34,8.2-18.4,12.46
									c-6.25,4.39-12.47,8.81-18.63,13.32c-5.95,4.35-11.65,9.21-18.06,12.87c-3.31,1.89-6.81,3.36-10.22,5.06
									c-3.42,1.71-6.85,3.64-10.69,4.21c-1.24,0.18-0.71,2.07,0.52,1.89c3.29-0.48,6.32-1.97,9.26-3.44
									c3.1-1.55,6.28-2.93,9.36-4.52c6.68-3.45,12.44-8.19,18.47-12.63c6.27-4.63,12.62-9.16,18.99-13.65
									c6.17-4.35,12.29-8.79,18.68-12.8c6.77-4.24,13.7-8.25,19.9-13.31C486.64,90.44,485.24,89.06,484.27,89.85L484.27,89.85z"/>
							</g>
						</g>
						<g style="clip-path:url(#SVGID_00000080928056094766592360000005952312829513017226_);">
							<g>
								<path class="st6" d="M455.73,76.59c-5.54,4.53-11.72,8.18-17.79,11.94c-6.31,3.91-12.34,8.2-18.4,12.46
									c-6.25,4.39-12.47,8.81-18.63,13.32c-5.95,4.35-11.65,9.21-18.06,12.87c-3.31,1.89-6.81,3.36-10.22,5.06
									c-3.42,1.71-6.85,3.64-10.69,4.21c-1.24,0.18-0.71,2.07,0.52,1.89c3.29-0.48,6.32-1.97,9.26-3.44
									c3.1-1.55,6.28-2.93,9.36-4.52c6.68-3.45,12.44-8.19,18.47-12.63c6.27-4.63,12.62-9.16,18.99-13.65
									c6.17-4.35,12.29-8.79,18.68-12.8c6.77-4.24,13.7-8.25,19.9-13.31C458.09,77.18,456.7,75.8,455.73,76.59L455.73,76.59z"/>
							</g>
						</g>
						<g style="clip-path:url(#SVGID_00000080928056094766592360000005952312829513017226_);">
							<g>
								<path class="st6" d="M461.44,79.25c-5.54,4.53-11.72,8.18-17.79,11.94c-6.31,3.91-12.34,8.2-18.4,12.46
									c-6.25,4.39-12.47,8.81-18.63,13.32c-5.95,4.35-11.65,9.21-18.06,12.87c-3.31,1.89-6.81,3.36-10.22,5.06
									c-3.42,1.71-6.85,3.64-10.69,4.21c-1.24,0.18-0.71,2.07,0.52,1.89c3.29-0.48,6.32-1.97,9.26-3.44
									c3.1-1.55,6.28-2.93,9.36-4.52c6.68-3.45,12.44-8.19,18.47-12.63c6.27-4.63,12.62-9.16,18.99-13.65
									c6.17-4.35,12.29-8.79,18.68-12.8c6.77-4.24,13.7-8.25,19.9-13.31C463.8,79.83,462.41,78.45,461.44,79.25L461.44,79.25z"/>
							</g>
						</g>
						<g style="clip-path:url(#SVGID_00000080928056094766592360000005952312829513017226_);">
							<g>
								<path class="st6" d="M467.15,81.9c-5.54,4.53-11.72,8.18-17.79,11.94c-6.31,3.91-12.34,8.2-18.4,12.46
									c-6.25,4.39-12.47,8.81-18.63,13.32c-5.95,4.35-11.65,9.21-18.06,12.87c-3.31,1.89-6.81,3.36-10.22,5.06
									c-3.42,1.71-6.85,3.64-10.69,4.21c-1.24,0.18-0.71,2.07,0.52,1.89c3.29-0.48,6.32-1.97,9.26-3.44
									c3.1-1.55,6.28-2.93,9.36-4.52c6.68-3.45,12.44-8.19,18.47-12.63c6.27-4.63,12.62-9.16,18.99-13.65
									c6.17-4.35,12.29-8.79,18.68-12.8c6.77-4.24,13.7-8.25,19.9-13.31C469.51,82.48,468.12,81.11,467.15,81.9L467.15,81.9z"/>
							</g>
						</g>
						<g style="clip-path:url(#SVGID_00000080928056094766592360000005952312829513017226_);">
							<g>
								<path class="st6" d="M438.61,68.64c-5.54,4.53-11.72,8.18-17.79,11.94c-6.31,3.91-12.34,8.2-18.4,12.46
									c-6.25,4.39-12.47,8.81-18.63,13.32c-5.95,4.35-11.65,9.21-18.06,12.87c-3.31,1.89-6.81,3.36-10.22,5.06
									c-3.42,1.71-6.85,3.64-10.69,4.21c-1.24,0.18-0.71,2.07,0.52,1.89c3.29-0.48,6.32-1.97,9.26-3.44
									c3.1-1.55,6.28-2.93,9.36-4.52c6.68-3.45,12.44-8.19,18.47-12.63c6.27-4.63,12.62-9.16,18.99-13.65
									c6.17-4.35,12.29-8.79,18.68-12.8c6.77-4.24,13.7-8.25,19.9-13.31C440.97,69.23,439.58,67.85,438.61,68.64L438.61,68.64z"/>
							</g>
						</g>
						<g style="clip-path:url(#SVGID_00000080928056094766592360000005952312829513017226_);">
							<g>
								<path class="st6" d="M444.32,71.29c-5.54,4.53-11.72,8.18-17.79,11.94c-6.31,3.91-12.34,8.2-18.4,12.46
									c-6.25,4.39-12.47,8.81-18.63,13.32c-5.95,4.35-11.65,9.21-18.06,12.87c-3.31,1.89-6.81,3.36-10.22,5.06
									c-3.42,1.71-6.85,3.64-10.69,4.21c-1.24,0.18-0.71,2.07,0.52,1.89c3.29-0.48,6.32-1.97,9.26-3.44
									c3.1-1.55,6.28-2.93,9.36-4.52c6.68-3.45,12.44-8.19,18.47-12.63c6.27-4.63,12.62-9.16,18.99-13.65
									c6.17-4.35,12.29-8.79,18.68-12.8c6.77-4.24,13.7-8.25,19.9-13.31C446.68,71.88,445.28,70.5,444.32,71.29L444.32,71.29z"/>
							</g>
						</g>
						<g style="clip-path:url(#SVGID_00000080928056094766592360000005952312829513017226_);">
							<g>
								<path class="st6" d="M450.02,73.94c-5.54,4.53-11.72,8.18-17.79,11.94c-6.31,3.91-12.34,8.2-18.4,12.46
									c-6.25,4.39-12.47,8.81-18.63,13.32c-5.95,4.35-11.65,9.21-18.06,12.87c-3.31,1.89-6.81,3.36-10.22,5.06
									c-3.42,1.71-6.85,3.64-10.69,4.21c-1.24,0.18-0.71,2.07,0.52,1.89c3.29-0.48,6.32-1.97,9.26-3.44
									c3.1-1.55,6.28-2.93,9.36-4.52c6.68-3.45,12.44-8.19,18.47-12.63c6.27-4.63,12.62-9.16,18.99-13.65
									c6.17-4.35,12.29-8.79,18.68-12.8c6.77-4.24,13.7-8.25,19.9-13.31C452.39,74.53,450.99,73.15,450.02,73.94L450.02,73.94z"/>
							</g>
						</g>
						<g style="clip-path:url(#SVGID_00000080928056094766592360000005952312829513017226_);">
							<g>
								<path class="st6" d="M421.48,60.69c-5.54,4.53-11.72,8.18-17.79,11.94c-6.31,3.91-12.34,8.2-18.4,12.46
									c-6.25,4.39-12.47,8.81-18.63,13.32c-5.95,4.35-11.65,9.21-18.06,12.87c-3.31,1.89-6.81,3.36-10.22,5.06
									c-3.42,1.71-6.85,3.64-10.69,4.21c-1.24,0.18-0.71,2.07,0.52,1.89c3.29-0.48,6.32-1.97,9.26-3.44
									c3.1-1.55,6.28-2.93,9.36-4.52c6.68-3.45,12.44-8.19,18.47-12.63c6.27-4.63,12.62-9.16,18.99-13.65
									c6.17-4.35,12.29-8.79,18.68-12.8c6.77-4.24,13.7-8.25,19.9-13.31C423.85,61.27,422.45,59.9,421.48,60.69L421.48,60.69z"/>
							</g>
						</g>
						<g style="clip-path:url(#SVGID_00000080928056094766592360000005952312829513017226_);">
							<g>
								<path class="st6" d="M427.19,63.34c-5.54,4.53-11.72,8.18-17.79,11.94c-6.31,3.91-12.34,8.2-18.4,12.46
									c-6.25,4.39-12.47,8.81-18.63,13.32c-5.95,4.35-11.65,9.21-18.06,12.87c-3.31,1.89-6.81,3.36-10.22,5.06
									c-3.42,1.71-6.85,3.64-10.69,4.21c-1.24,0.18-0.71,2.07,0.52,1.89c3.29-0.48,6.32-1.97,9.26-3.44
									c3.1-1.55,6.28-2.93,9.36-4.52c6.68-3.45,12.44-8.19,18.47-12.63c6.27-4.63,12.62-9.16,18.99-13.65
									c6.17-4.35,12.29-8.79,18.68-12.8c6.77-4.24,13.7-8.25,19.9-13.31C429.55,63.93,428.16,62.55,427.19,63.34L427.19,63.34z"/>
							</g>
						</g>
						<g style="clip-path:url(#SVGID_00000080928056094766592360000005952312829513017226_);">
							<g>
								<path class="st6" d="M432.9,65.99c-5.54,4.53-11.72,8.18-17.79,11.94c-6.31,3.91-12.34,8.2-18.4,12.46
									c-6.25,4.39-12.47,8.81-18.63,13.32c-5.95,4.35-11.65,9.21-18.06,12.87c-3.31,1.89-6.81,3.36-10.22,5.06
									c-3.42,1.71-6.85,3.64-10.69,4.21c-1.24,0.18-0.71,2.07,0.52,1.89c3.29-0.48,6.32-1.97,9.26-3.44
									c3.1-1.55,6.28-2.93,9.36-4.52c6.68-3.45,12.44-8.19,18.47-12.63c6.27-4.63,12.62-9.16,18.99-13.65
									c6.17-4.35,12.29-8.79,18.68-12.8c6.77-4.24,13.7-8.25,19.9-13.31C435.26,66.58,433.87,65.2,432.9,65.99L432.9,65.99z"/>
							</g>
						</g>
						<g style="clip-path:url(#SVGID_00000080928056094766592360000005952312829513017226_);">
							<g>
								<path class="st6" d="M404.36,52.73c-5.54,4.53-11.72,8.18-17.79,11.94c-6.31,3.91-12.34,8.2-18.4,12.46
									c-6.25,4.39-12.47,8.81-18.63,13.32c-5.95,4.35-11.65,9.21-18.06,12.87c-3.31,1.89-6.81,3.36-10.22,5.06
									c-3.42,1.71-6.85,3.64-10.69,4.21c-1.24,0.18-0.71,2.07,0.52,1.89c3.29-0.48,6.32-1.97,9.26-3.44
									c3.1-1.55,6.28-2.93,9.36-4.52c6.68-3.45,12.44-8.19,18.47-12.63c6.27-4.63,12.62-9.16,18.99-13.65
									c6.17-4.35,12.29-8.79,18.68-12.8c6.77-4.24,13.7-8.25,19.9-13.31C406.72,53.32,405.33,51.94,404.36,52.73L404.36,52.73z"/>
							</g>
						</g>
						<g style="clip-path:url(#SVGID_00000080928056094766592360000005952312829513017226_);">
							<g>
								<path class="st6" d="M398.65,50.08c-5.54,4.53-11.72,8.18-17.79,11.94c-6.31,3.91-12.34,8.2-18.4,12.46
									c-6.25,4.39-12.47,8.81-18.63,13.32c-5.95,4.35-11.65,9.21-18.06,12.87c-3.31,1.89-6.81,3.36-10.22,5.06
									c-3.42,1.71-6.85,3.64-10.69,4.21c-1.24,0.18-0.71,2.07,0.52,1.89c3.29-0.48,6.32-1.97,9.26-3.44
									c3.1-1.55,6.28-2.93,9.36-4.52c6.68-3.45,12.44-8.19,18.47-12.63c6.27-4.63,12.62-9.16,18.99-13.65
									c6.17-4.35,12.29-8.79,18.68-12.8c6.77-4.24,13.7-8.25,19.9-13.31C401.01,50.67,399.62,49.29,398.65,50.08L398.65,50.08z"/>
							</g>
						</g>
						<g style="clip-path:url(#SVGID_00000080928056094766592360000005952312829513017226_);">
							<g>
								<path class="st6" d="M392.94,47.43c-5.54,4.53-11.72,8.18-17.79,11.94c-6.31,3.91-12.34,8.2-18.4,12.46
									c-6.25,4.39-12.47,8.81-18.63,13.32c-5.95,4.35-11.65,9.21-18.06,12.87c-3.31,1.89-6.81,3.36-10.22,5.06
									c-3.42,1.71-6.85,3.64-10.69,4.21c-1.24,0.18-0.71,2.07,0.52,1.89c3.29-0.48,6.32-1.97,9.26-3.44
									c3.1-1.55,6.28-2.93,9.36-4.52c6.68-3.45,12.44-8.19,18.47-12.63c6.27-4.63,12.62-9.16,18.99-13.65
									c6.17-4.35,12.29-8.79,18.68-12.8c6.77-4.24,13.7-8.25,19.9-13.31C395.31,48.02,393.91,46.64,392.94,47.43L392.94,47.43z"/>
							</g>
						</g>
						<g style="clip-path:url(#SVGID_00000080928056094766592360000005952312829513017226_);">
							<g>
								<path class="st6" d="M410.07,55.38c-5.54,4.53-11.72,8.18-17.79,11.94c-6.31,3.91-12.34,8.2-18.4,12.46
									c-6.25,4.39-12.47,8.81-18.63,13.32c-5.95,4.35-11.65,9.21-18.06,12.87c-3.31,1.89-6.81,3.36-10.22,5.06
									c-3.42,1.71-6.85,3.64-10.69,4.21c-1.24,0.18-0.71,2.07,0.52,1.89c3.29-0.48,6.32-1.97,9.26-3.44
									c3.1-1.55,6.28-2.93,9.36-4.52c6.68-3.45,12.44-8.19,18.47-12.63c6.27-4.63,12.62-9.16,18.99-13.65
									c6.17-4.35,12.29-8.79,18.68-12.8c6.77-4.24,13.7-8.25,19.9-13.31C412.43,55.97,411.04,54.59,410.07,55.38L410.07,55.38z"/>
							</g>
						</g>
						<g style="clip-path:url(#SVGID_00000080928056094766592360000005952312829513017226_);">
							<g>
								<path class="st6" d="M415.77,58.04c-5.54,4.53-11.72,8.18-17.79,11.94c-6.31,3.91-12.34,8.2-18.4,12.46
									c-6.25,4.39-12.47,8.81-18.63,13.32c-5.95,4.35-11.65,9.21-18.06,12.87c-3.31,1.89-6.81,3.36-10.22,5.06
									c-3.42,1.71-6.85,3.64-10.69,4.21c-1.24,0.18-0.71,2.07,0.52,1.89c3.29-0.48,6.32-1.97,9.26-3.44
									c3.1-1.55,6.28-2.93,9.36-4.52c6.68-3.45,12.44-8.19,18.47-12.63c6.27-4.63,12.62-9.16,18.99-13.65
									c6.17-4.35,12.29-8.79,18.68-12.8c6.77-4.24,13.7-8.25,19.9-13.31C418.14,58.62,416.74,57.24,415.77,58.04L415.77,58.04z"/>
							</g>
						</g>
					</g>
				</g>
				<g>
					<g>
						<defs>
							
								<ellipse id="SVGID_00000154418846019283696360000016572717470033852344_" transform="matrix(0.999 -0.0453 0.0453 0.999 -6.6462 16.217)" cx="354.21" cy="154.64" rx="30.47" ry="23.76"/>
						</defs>
						<clipPath id="SVGID_00000169536749095249302050000017041413298555022485_">
							<use xlink:href="#SVGID_00000154418846019283696360000016572717470033852344_"  style="overflow:visible;"/>
						</clipPath>
						<g style="clip-path:url(#SVGID_00000169536749095249302050000017041413298555022485_);">
							<g>
								<path class="st6" d="M439.33,141.87c-5.54,4.53-11.72,8.18-17.79,11.94c-6.31,3.91-12.34,8.2-18.4,12.46
									c-6.25,4.39-12.47,8.81-18.63,13.32c-5.95,4.35-11.65,9.21-18.06,12.87c-3.31,1.89-6.81,3.36-10.22,5.06
									c-3.42,1.71-6.85,3.64-10.69,4.21c-1.24,0.18-0.71,2.07,0.52,1.89c3.29-0.48,6.32-1.97,9.26-3.44
									c3.1-1.55,6.28-2.93,9.36-4.52c6.68-3.45,12.44-8.19,18.47-12.63c6.27-4.63,12.62-9.16,18.99-13.65
									c6.17-4.35,12.29-8.79,18.68-12.8c6.77-4.24,13.7-8.25,19.9-13.31C441.69,142.45,440.3,141.07,439.33,141.87L439.33,141.87z
									"/>
							</g>
						</g>
						<g style="clip-path:url(#SVGID_00000169536749095249302050000017041413298555022485_);">
							<g>
								<path class="st6" d="M445.03,144.52c-5.54,4.53-11.72,8.18-17.79,11.94c-6.31,3.91-12.34,8.2-18.4,12.46
									c-6.25,4.39-12.47,8.81-18.63,13.32c-5.95,4.35-11.65,9.21-18.06,12.87c-3.31,1.89-6.81,3.36-10.22,5.06
									c-3.42,1.71-6.85,3.64-10.69,4.21c-1.24,0.18-0.71,2.07,0.52,1.89c3.29-0.48,6.32-1.97,9.26-3.44
									c3.1-1.55,6.28-2.93,9.36-4.52c6.68-3.45,12.44-8.19,18.47-12.63c6.27-4.63,12.62-9.16,18.99-13.65
									c6.17-4.35,12.29-8.79,18.68-12.8c6.77-4.24,13.7-8.25,19.9-13.31C447.4,145.1,446,143.73,445.03,144.52L445.03,144.52z"/>
							</g>
						</g>
						<g style="clip-path:url(#SVGID_00000169536749095249302050000017041413298555022485_);">
							<g>
								<path class="st6" d="M450.74,147.17c-5.54,4.53-11.72,8.18-17.79,11.94c-6.31,3.91-12.34,8.2-18.4,12.46
									c-6.25,4.39-12.47,8.81-18.63,13.32c-5.95,4.35-11.65,9.21-18.06,12.87c-3.31,1.89-6.81,3.36-10.22,5.06
									c-3.42,1.71-6.85,3.64-10.69,4.21c-1.24,0.18-0.71,2.07,0.52,1.89c3.29-0.48,6.32-1.97,9.26-3.44
									c3.1-1.55,6.28-2.93,9.36-4.52c6.68-3.45,12.44-8.19,18.47-12.63c6.27-4.63,12.62-9.16,18.99-13.65
									c6.17-4.35,12.29-8.79,18.68-12.8c6.77-4.24,13.7-8.25,19.9-13.31C453.11,147.76,451.71,146.38,450.74,147.17L450.74,147.17
									z"/>
							</g>
						</g>
						<g style="clip-path:url(#SVGID_00000169536749095249302050000017041413298555022485_);">
							<g>
								<path class="st6" d="M456.45,149.82c-5.54,4.53-11.72,8.18-17.79,11.94c-6.31,3.91-12.34,8.2-18.4,12.46
									c-6.25,4.39-12.47,8.81-18.63,13.32c-5.95,4.35-11.65,9.21-18.06,12.87c-3.31,1.89-6.81,3.36-10.22,5.06
									c-3.42,1.71-6.85,3.64-10.69,4.21c-1.24,0.18-0.71,2.07,0.52,1.89c3.29-0.48,6.32-1.97,9.26-3.44
									c3.1-1.55,6.28-2.93,9.36-4.52c6.68-3.45,12.44-8.19,18.47-12.63c6.27-4.63,12.62-9.16,18.99-13.65
									c6.17-4.35,12.29-8.79,18.68-12.8c6.77-4.24,13.7-8.25,19.9-13.31C458.81,150.41,457.42,149.03,456.45,149.82L456.45,149.82
									z"/>
							</g>
						</g>
						<g style="clip-path:url(#SVGID_00000169536749095249302050000017041413298555022485_);">
							<g>
								<path class="st6" d="M462.16,152.47c-5.54,4.53-11.72,8.18-17.79,11.94c-6.31,3.91-12.34,8.2-18.4,12.46
									c-6.25,4.39-12.47,8.81-18.63,13.32c-5.95,4.35-11.65,9.21-18.06,12.87c-3.31,1.89-6.81,3.36-10.22,5.06
									c-3.42,1.71-6.85,3.64-10.69,4.21c-1.24,0.18-0.71,2.07,0.52,1.89c3.29-0.48,6.32-1.97,9.26-3.44
									c3.1-1.55,6.28-2.93,9.36-4.52c6.68-3.45,12.44-8.19,18.47-12.63c6.27-4.63,12.62-9.16,18.99-13.65
									c6.17-4.35,12.29-8.79,18.68-12.8c6.77-4.24,13.7-8.25,19.9-13.31C464.52,153.06,463.13,151.68,462.16,152.47L462.16,152.47
									z"/>
							</g>
						</g>
						<g style="clip-path:url(#SVGID_00000169536749095249302050000017041413298555022485_);">
							<g>
								<path class="st6" d="M467.87,155.12c-5.54,4.53-11.72,8.18-17.79,11.94c-6.31,3.91-12.34,8.2-18.4,12.46
									c-6.25,4.39-12.47,8.81-18.63,13.32c-5.95,4.35-11.65,9.21-18.06,12.87c-3.31,1.89-6.81,3.36-10.22,5.06
									c-3.42,1.71-6.85,3.64-10.69,4.21c-1.24,0.18-0.71,2.07,0.52,1.89c3.29-0.48,6.32-1.97,9.26-3.44
									c3.1-1.55,6.28-2.93,9.36-4.52c6.68-3.45,12.44-8.19,18.47-12.63c6.27-4.63,12.62-9.16,18.99-13.65
									c6.17-4.35,12.29-8.79,18.68-12.8c6.77-4.24,13.7-8.25,19.9-13.31C470.23,155.71,468.84,154.33,467.87,155.12L467.87,155.12
									z"/>
							</g>
						</g>
						<g style="clip-path:url(#SVGID_00000169536749095249302050000017041413298555022485_);">
							<g>
								<path class="st6" d="M422.2,133.91c-5.54,4.53-11.72,8.18-17.79,11.94c-6.31,3.91-12.34,8.2-18.4,12.46
									c-6.25,4.39-12.47,8.81-18.63,13.32c-5.95,4.35-11.65,9.21-18.06,12.87c-3.31,1.89-6.81,3.36-10.22,5.06
									c-3.42,1.71-6.85,3.64-10.69,4.21c-1.24,0.18-0.71,2.07,0.52,1.89c3.29-0.48,6.32-1.97,9.26-3.44
									c3.1-1.55,6.28-2.93,9.36-4.52c6.68-3.45,12.44-8.19,18.47-12.63c6.27-4.63,12.62-9.16,18.99-13.65
									c6.17-4.35,12.29-8.79,18.68-12.8c6.77-4.24,13.7-8.25,19.9-13.31C424.56,134.5,423.17,133.12,422.2,133.91L422.2,133.91z"
									/>
							</g>
						</g>
						<g style="clip-path:url(#SVGID_00000169536749095249302050000017041413298555022485_);">
							<g>
								<path class="st6" d="M427.91,136.56c-5.54,4.53-11.72,8.18-17.79,11.94c-6.31,3.91-12.34,8.2-18.4,12.46
									c-6.25,4.39-12.47,8.81-18.63,13.32c-5.95,4.35-11.65,9.21-18.06,12.87c-3.31,1.89-6.81,3.36-10.22,5.06
									c-3.42,1.71-6.85,3.64-10.69,4.21c-1.24,0.18-0.71,2.07,0.52,1.89c3.29-0.48,6.32-1.97,9.26-3.44
									c3.1-1.55,6.28-2.93,9.36-4.52c6.68-3.45,12.44-8.19,18.47-12.63c6.27-4.63,12.62-9.16,18.99-13.65
									c6.17-4.35,12.29-8.79,18.68-12.8c6.77-4.24,13.7-8.25,19.9-13.31C430.27,137.15,428.88,135.77,427.91,136.56L427.91,136.56
									z"/>
							</g>
						</g>
						<g style="clip-path:url(#SVGID_00000169536749095249302050000017041413298555022485_);">
							<g>
								<path class="st6" d="M433.62,139.21c-5.54,4.53-11.72,8.18-17.79,11.94c-6.31,3.91-12.34,8.2-18.4,12.46
									c-6.25,4.39-12.47,8.81-18.63,13.32c-5.95,4.35-11.65,9.21-18.06,12.87c-3.31,1.89-6.81,3.36-10.22,5.06
									c-3.42,1.71-6.85,3.64-10.69,4.21c-1.24,0.18-0.71,2.07,0.52,1.89c3.29-0.48,6.32-1.97,9.26-3.44
									c3.1-1.55,6.28-2.93,9.36-4.52c6.68-3.45,12.44-8.19,18.47-12.63c6.27-4.63,12.62-9.16,18.99-13.65
									c6.17-4.35,12.29-8.79,18.68-12.8c6.77-4.24,13.7-8.25,19.9-13.31C435.98,139.8,434.59,138.42,433.62,139.21L433.62,139.21z
									"/>
							</g>
						</g>
						<g style="clip-path:url(#SVGID_00000169536749095249302050000017041413298555022485_);">
							<g>
								<path class="st6" d="M405.08,125.96c-5.54,4.53-11.72,8.18-17.79,11.94c-6.31,3.91-12.34,8.2-18.4,12.46
									c-6.25,4.39-12.47,8.81-18.63,13.32c-5.95,4.35-11.65,9.21-18.06,12.87c-3.31,1.89-6.81,3.36-10.22,5.06
									c-3.42,1.71-6.85,3.64-10.69,4.21c-1.24,0.18-0.71,2.07,0.52,1.89c3.29-0.48,6.32-1.97,9.26-3.44
									c3.1-1.55,6.28-2.93,9.36-4.52c6.68-3.45,12.44-8.19,18.47-12.63c6.27-4.63,12.62-9.16,18.99-13.65
									c6.17-4.35,12.29-8.79,18.68-12.8c6.77-4.24,13.7-8.25,19.9-13.31C407.44,126.55,406.05,125.17,405.08,125.96L405.08,125.96
									z"/>
							</g>
						</g>
						<g style="clip-path:url(#SVGID_00000169536749095249302050000017041413298555022485_);">
							<g>
								<path class="st6" d="M410.79,128.61c-5.54,4.53-11.72,8.18-17.79,11.94c-6.31,3.91-12.34,8.2-18.4,12.46
									c-6.25,4.39-12.47,8.81-18.63,13.32c-5.95,4.35-11.65,9.21-18.06,12.87c-3.31,1.89-6.81,3.36-10.22,5.06
									c-3.42,1.71-6.85,3.64-10.69,4.21c-1.24,0.18-0.71,2.07,0.52,1.89c3.29-0.48,6.32-1.97,9.26-3.44
									c3.1-1.55,6.28-2.93,9.36-4.52c6.68-3.45,12.44-8.19,18.47-12.63c6.27-4.63,12.62-9.16,18.99-13.65
									c6.17-4.35,12.29-8.79,18.68-12.8c6.77-4.24,13.7-8.25,19.9-13.31C413.15,129.2,411.75,127.82,410.79,128.61L410.79,128.61z
									"/>
							</g>
						</g>
						<g style="clip-path:url(#SVGID_00000169536749095249302050000017041413298555022485_);">
							<g>
								<path class="st6" d="M416.49,131.26c-5.54,4.53-11.72,8.18-17.79,11.94c-6.31,3.91-12.34,8.2-18.4,12.46
									c-6.25,4.39-12.47,8.81-18.63,13.32c-5.95,4.35-11.65,9.21-18.06,12.87c-3.31,1.89-6.81,3.36-10.22,5.06
									c-3.42,1.71-6.85,3.64-10.69,4.21c-1.24,0.18-0.71,2.07,0.52,1.89c3.29-0.48,6.32-1.97,9.26-3.44
									c3.1-1.55,6.28-2.93,9.36-4.52c6.68-3.45,12.44-8.19,18.47-12.63c6.27-4.63,12.62-9.16,18.99-13.65
									c6.17-4.35,12.29-8.79,18.68-12.8c6.77-4.24,13.7-8.25,19.9-13.31C418.86,131.85,417.46,130.47,416.49,131.26L416.49,131.26
									z"/>
							</g>
						</g>
						<g style="clip-path:url(#SVGID_00000169536749095249302050000017041413298555022485_);">
							<g>
								<path class="st6" d="M387.95,118c-5.54,4.53-11.72,8.18-17.79,11.94c-6.31,3.91-12.34,8.2-18.4,12.46
									c-6.25,4.39-12.47,8.81-18.63,13.32c-5.95,4.35-11.65,9.21-18.06,12.87c-3.31,1.89-6.81,3.36-10.22,5.06
									c-3.42,1.71-6.85,3.64-10.69,4.21c-1.24,0.18-0.71,2.07,0.52,1.89c3.29-0.48,6.32-1.97,9.26-3.44
									c3.1-1.55,6.28-2.93,9.36-4.52c6.68-3.45,12.44-8.19,18.47-12.63c6.27-4.63,12.62-9.16,18.99-13.65
									c6.17-4.35,12.29-8.79,18.68-12.8c6.77-4.24,13.7-8.25,19.9-13.31C390.32,118.59,388.92,117.21,387.95,118L387.95,118z"/>
							</g>
						</g>
						<g style="clip-path:url(#SVGID_00000169536749095249302050000017041413298555022485_);">
							<g>
								<path class="st6" d="M393.66,120.66c-5.54,4.53-11.72,8.18-17.79,11.94c-6.31,3.91-12.34,8.2-18.4,12.46
									c-6.25,4.39-12.47,8.81-18.63,13.32c-5.95,4.35-11.65,9.21-18.06,12.87c-3.31,1.89-6.81,3.36-10.22,5.06
									c-3.42,1.71-6.85,3.64-10.69,4.21c-1.24,0.18-0.71,2.07,0.52,1.89c3.29-0.48,6.32-1.97,9.26-3.44
									c3.1-1.55,6.28-2.93,9.36-4.52c6.68-3.45,12.44-8.19,18.47-12.63c6.27-4.63,12.62-9.16,18.99-13.65
									c6.17-4.35,12.29-8.79,18.68-12.8c6.77-4.24,13.7-8.25,19.9-13.31C396.02,121.24,394.63,119.86,393.66,120.66L393.66,120.66
									z"/>
							</g>
						</g>
						<g style="clip-path:url(#SVGID_00000169536749095249302050000017041413298555022485_);">
							<g>
								<path class="st6" d="M399.37,123.31c-5.54,4.53-11.72,8.18-17.79,11.94c-6.31,3.91-12.34,8.2-18.4,12.46
									c-6.25,4.39-12.47,8.81-18.63,13.32c-5.95,4.35-11.65,9.21-18.06,12.87c-3.31,1.89-6.81,3.36-10.22,5.06
									c-3.42,1.71-6.85,3.64-10.69,4.21c-1.24,0.18-0.71,2.07,0.52,1.89c3.29-0.48,6.32-1.97,9.26-3.44
									c3.1-1.55,6.28-2.93,9.36-4.52c6.68-3.45,12.44-8.19,18.47-12.63c6.27-4.63,12.62-9.16,18.99-13.65
									c6.17-4.35,12.29-8.79,18.68-12.8c6.77-4.24,13.7-8.25,19.9-13.31C401.73,123.89,400.34,122.52,399.37,123.31L399.37,123.31
									z"/>
							</g>
						</g>
						<g style="clip-path:url(#SVGID_00000169536749095249302050000017041413298555022485_);">
							<g>
								<path class="st6" d="M370.83,110.05c-5.54,4.53-11.72,8.18-17.79,11.94c-6.31,3.91-12.34,8.2-18.4,12.46
									c-6.25,4.39-12.47,8.81-18.63,13.32c-5.95,4.35-11.65,9.21-18.06,12.87c-3.31,1.89-6.81,3.36-10.22,5.06
									c-3.42,1.71-6.85,3.64-10.69,4.21c-1.24,0.18-0.71,2.07,0.52,1.89c3.29-0.48,6.32-1.97,9.26-3.44
									c3.1-1.55,6.28-2.93,9.36-4.52c6.68-3.45,12.44-8.19,18.47-12.63c6.27-4.63,12.62-9.16,18.99-13.65
									c6.17-4.35,12.29-8.79,18.68-12.8c6.77-4.24,13.7-8.25,19.9-13.31C373.19,110.64,371.8,109.26,370.83,110.05L370.83,110.05z
									"/>
							</g>
						</g>
						<g style="clip-path:url(#SVGID_00000169536749095249302050000017041413298555022485_);">
							<g>
								<path class="st6" d="M376.54,112.7c-5.54,4.53-11.72,8.18-17.79,11.94c-6.31,3.91-12.34,8.2-18.4,12.46
									c-6.25,4.39-12.47,8.81-18.63,13.32c-5.95,4.35-11.65,9.21-18.06,12.87c-3.31,1.89-6.81,3.36-10.22,5.06
									c-3.42,1.71-6.85,3.64-10.69,4.21c-1.24,0.18-0.71,2.07,0.52,1.89c3.29-0.48,6.32-1.97,9.26-3.44
									c3.1-1.55,6.28-2.93,9.36-4.52c6.68-3.45,12.44-8.19,18.47-12.63c6.27-4.63,12.62-9.16,18.99-13.65
									c6.17-4.35,12.29-8.79,18.68-12.8c6.77-4.24,13.7-8.25,19.9-13.31C378.9,113.29,377.51,111.91,376.54,112.7L376.54,112.7z"
									/>
							</g>
						</g>
						<g style="clip-path:url(#SVGID_00000169536749095249302050000017041413298555022485_);">
							<g>
								<path class="st6" d="M382.24,115.35c-5.54,4.53-11.72,8.18-17.79,11.94c-6.31,3.91-12.34,8.2-18.4,12.46
									c-6.25,4.39-12.47,8.81-18.63,13.32c-5.95,4.35-11.65,9.21-18.06,12.87c-3.31,1.89-6.81,3.36-10.22,5.06
									c-3.42,1.71-6.85,3.64-10.69,4.21c-1.24,0.18-0.71,2.07,0.52,1.89c3.29-0.48,6.32-1.97,9.26-3.44
									c3.1-1.55,6.28-2.93,9.36-4.52c6.68-3.45,12.44-8.19,18.47-12.63c6.27-4.63,12.62-9.16,18.99-13.65
									c6.17-4.35,12.29-8.79,18.68-12.8c6.77-4.24,13.7-8.25,19.9-13.31C384.61,115.94,383.21,114.56,382.24,115.35L382.24,115.35
									z"/>
							</g>
						</g>
						<g style="clip-path:url(#SVGID_00000169536749095249302050000017041413298555022485_);">
							<g>
								<path class="st6" d="M353.7,102.1c-5.54,4.53-11.72,8.18-17.79,11.94c-6.31,3.91-12.34,8.2-18.4,12.46
									c-6.25,4.39-12.47,8.81-18.63,13.32c-5.95,4.35-11.65,9.21-18.06,12.87c-3.31,1.89-6.81,3.36-10.22,5.06
									c-3.42,1.71-6.85,3.64-10.69,4.21c-1.24,0.18-0.71,2.07,0.52,1.89c3.29-0.48,6.32-1.97,9.26-3.44
									c3.1-1.55,6.28-2.93,9.36-4.52c6.68-3.45,12.44-8.19,18.47-12.63c6.27-4.63,12.62-9.16,18.99-13.65
									c6.17-4.35,12.29-8.79,18.68-12.8c6.77-4.24,13.7-8.25,19.9-13.31C356.07,102.68,354.67,101.31,353.7,102.1L353.7,102.1z"/>
							</g>
						</g>
						<g style="clip-path:url(#SVGID_00000169536749095249302050000017041413298555022485_);">
							<g>
								<path class="st6" d="M348,99.45c-5.54,4.53-11.72,8.18-17.79,11.94c-6.31,3.91-12.34,8.2-18.4,12.46
									c-6.25,4.39-12.47,8.81-18.63,13.32c-5.95,4.35-11.65,9.21-18.06,12.87c-3.31,1.89-6.81,3.36-10.22,5.06
									c-3.42,1.71-6.85,3.64-10.69,4.21c-1.24,0.18-0.71,2.07,0.52,1.89c3.29-0.48,6.32-1.97,9.26-3.44
									c3.1-1.55,6.28-2.93,9.36-4.52c6.68-3.45,12.44-8.19,18.47-12.63c6.27-4.63,12.62-9.16,18.99-13.65
									c6.17-4.35,12.29-8.79,18.68-12.8c6.77-4.24,13.7-8.25,19.9-13.31C350.36,100.03,348.96,98.65,348,99.45L348,99.45z"/>
							</g>
						</g>
						<g style="clip-path:url(#SVGID_00000169536749095249302050000017041413298555022485_);">
							<g>
								<path class="st6" d="M342.29,96.79c-5.54,4.53-11.72,8.18-17.79,11.94c-6.31,3.91-12.34,8.2-18.4,12.46
									c-6.25,4.39-12.47,8.81-18.63,13.32c-5.95,4.35-11.65,9.21-18.06,12.87c-3.31,1.89-6.81,3.36-10.22,5.06
									c-3.42,1.71-6.85,3.64-10.69,4.21c-1.24,0.18-0.71,2.07,0.52,1.89c3.29-0.48,6.32-1.97,9.26-3.44
									c3.1-1.55,6.28-2.93,9.36-4.52c6.68-3.45,12.44-8.19,18.47-12.63c6.27-4.63,12.62-9.16,18.99-13.65
									c6.17-4.35,12.29-8.79,18.68-12.8c6.77-4.24,13.7-8.25,19.9-13.31C344.65,97.38,343.26,96,342.29,96.79L342.29,96.79z"/>
							</g>
						</g>
						<g style="clip-path:url(#SVGID_00000169536749095249302050000017041413298555022485_);">
							<g>
								<path class="st6" d="M359.41,104.75c-5.54,4.53-11.72,8.18-17.79,11.94c-6.31,3.91-12.34,8.2-18.4,12.46
									c-6.25,4.39-12.47,8.81-18.63,13.32c-5.95,4.35-11.65,9.21-18.06,12.87c-3.31,1.89-6.81,3.36-10.22,5.06
									c-3.42,1.71-6.85,3.64-10.69,4.21c-1.24,0.18-0.71,2.07,0.52,1.89c3.29-0.48,6.32-1.97,9.26-3.44
									c3.1-1.55,6.28-2.93,9.36-4.52c6.68-3.45,12.44-8.19,18.47-12.63c6.27-4.63,12.62-9.16,18.99-13.65
									c6.17-4.35,12.29-8.79,18.68-12.8c6.77-4.24,13.7-8.25,19.9-13.31C361.77,105.34,360.38,103.96,359.41,104.75L359.41,104.75
									z"/>
							</g>
						</g>
						<g style="clip-path:url(#SVGID_00000169536749095249302050000017041413298555022485_);">
							<g>
								<path class="st6" d="M365.12,107.4c-5.54,4.53-11.72,8.18-17.79,11.94c-6.31,3.91-12.34,8.2-18.4,12.46
									c-6.25,4.39-12.47,8.81-18.63,13.32c-5.95,4.35-11.65,9.21-18.06,12.87c-3.31,1.89-6.81,3.36-10.22,5.06
									c-3.42,1.71-6.85,3.64-10.69,4.21c-1.24,0.18-0.71,2.07,0.52,1.89c3.29-0.48,6.32-1.97,9.26-3.44
									c3.1-1.55,6.28-2.93,9.36-4.52c6.68-3.45,12.44-8.19,18.47-12.63c6.27-4.63,12.62-9.16,18.99-13.65
									c6.17-4.35,12.29-8.79,18.68-12.8c6.77-4.24,13.7-8.25,19.9-13.31C367.48,107.99,366.09,106.61,365.12,107.4L365.12,107.4z"
									/>
							</g>
						</g>
					</g>
				</g>
			</g>
			<g>
				<g>
					<path class="st2" d="M383.87,48.72c0,0,1.01-9.67,16.43-9.95c15.42-0.28,21.6,5.19,21.6,5.19S418.54,58.72,401.3,58
						C384.06,57.28,383.87,48.72,383.87,48.72z"/>
					<g>
						<path d="M383.87,48.72c0.68-0.85,1.64-1.41,2.59-1.92c0.97-0.48,1.98-0.86,3.02-1.15c2.07-0.58,4.2-0.85,6.31-0.91
							c2.11-0.06,4.21,0.06,6.3,0.38c2.08,0.34,4.17,0.84,6.07,1.85l-12.29,0.37c-2.01,0.05-4.01,0.13-6.01,0.31
							c-1,0.09-2,0.18-2.99,0.35C385.86,48.16,384.87,48.36,383.87,48.72z"/>
					</g>
				</g>
				<g>
					<path class="st2" d="M315.03,32.75c0,0,4.7-8.51-7.79-17.56s-20.69-8.09-20.69-8.09s-5.68,14.03,8.88,23.29
						S315.03,32.75,315.03,32.75z"/>
					<g>
						<path d="M315.03,32.75c-0.61-0.87-1.31-1.6-2.05-2.29c-0.71-0.71-1.49-1.35-2.25-2c-1.54-1.28-3.13-2.49-4.75-3.69l-9.87-7.33
							c2.14,0.25,4.14,1.05,6.04,1.95c1.9,0.93,3.69,2.03,5.39,3.28c1.7,1.26,3.29,2.7,4.66,4.35c0.68,0.83,1.29,1.72,1.81,2.67
							C314.49,30.65,314.95,31.67,315.03,32.75z"/>
					</g>
				</g>
				<path class="st2" d="M359.82,133.36c0,0,18.13-28.48,21.15-41.3c4.47-18.96,5.97-47.2,5.97-47.2s8.21-4.55,9.84-11.69
					c1.63-7.14-3.84-6.52-6.97-4.09c-3.13,2.43-9.57,3.76-9.57,3.76s-3.8-7.04-23.07-11.66l-5.37-1.19
					c-14-3.39-23.69-0.81-23.69-0.81s-4.88-4.4-6.36-8.07c-1.48-3.67-5.89-6.97-8.08,0.01c-2.19,6.99,2.6,15.06,2.6,15.06
					s-14.96,29.05-20.09,41.19c-5.12,12.13-7.62,45.47-7.62,45.47"/>
				<g>
					<path class="st3" d="M294.99,103.72c0,0-16.07-1.04-17.48,12.07c-1.74,16.13,7.31,31.53,39.6,34.18s45.08-12.07,47.82-21.54
						c2.88-9.97-3.77-13.7-11.35-17.17"/>
					<path d="M294.99,103.72c-1.7,0.03-3.38,0.26-5.02,0.64c-1.63,0.37-3.23,0.9-4.69,1.64c-1.46,0.75-2.8,1.7-3.87,2.87
						c-1.05,1.19-1.85,2.57-2.29,4.07c-0.47,1.5-0.59,3.07-0.61,4.74c-0.01,0.41-0.04,0.82-0.03,1.23l0.07,1.22
						c0.05,0.81,0.06,1.63,0.23,2.43c0.15,0.8,0.2,1.61,0.42,2.39c0.21,0.78,0.39,1.56,0.62,2.33l0.87,2.24
						c0.32,0.73,0.74,1.41,1.1,2.12c1.61,2.74,3.76,5.12,6.24,7.14c0.64,0.48,1.32,0.92,1.97,1.38c0.33,0.22,0.65,0.47,0.99,0.67
						l1.07,0.58c0.71,0.38,1.41,0.78,2.13,1.15l2.25,0.95c6.02,2.49,12.59,3.75,19.2,4.35c6.61,0.66,13.29,0.72,19.79-0.28
						c0.81-0.13,1.63-0.2,2.43-0.38l2.4-0.54l1.2-0.27l1.17-0.37l2.34-0.73c0.76-0.28,1.51-0.61,2.26-0.92l1.13-0.46l1.08-0.56
						c0.71-0.38,1.47-0.71,2.16-1.13l2.06-1.29c2.66-1.84,5.05-4.07,6.99-6.65c1.93-2.57,3.41-5.53,3.9-8.7
						c0.26-1.56,0.27-3.16-0.18-4.66c-0.44-1.5-1.33-2.86-2.45-4.04c-1.13-1.18-2.5-2.17-3.91-3.07c-1.42-0.91-2.9-1.73-4.4-2.53
						c3.15,1.25,6.36,2.52,9.06,4.81c1.34,1.14,2.48,2.62,3.14,4.34c0.67,1.72,0.81,3.6,0.66,5.39c-0.32,3.6-1.77,6.98-3.71,9.94
						c-1.95,2.98-4.5,5.52-7.32,7.67c-2.83,2.15-6.01,3.75-9.26,5.09l-2.49,0.86l-1.25,0.43l-1.27,0.33l-2.55,0.65
						c-0.85,0.21-1.72,0.32-2.58,0.48c-6.9,1.17-13.89,1.13-20.77,0.51c-6.86-0.71-13.77-2.03-20.26-4.85l-2.41-1.1
						c-0.78-0.42-1.54-0.88-2.31-1.32l-1.15-0.67c-0.37-0.24-0.73-0.52-1.09-0.78c-0.72-0.53-1.45-1.04-2.15-1.6
						c-2.75-2.32-5.09-5.15-6.76-8.34c-1.7-3.18-2.63-6.73-2.87-10.26c-0.12-0.88-0.08-1.76-0.08-2.64l0.01-1.32
						c0.03-0.44,0.08-0.87,0.12-1.31c0.13-1.71,0.36-3.55,1.04-5.25c0.65-1.71,1.72-3.25,3.02-4.5c1.32-1.23,2.87-2.17,4.51-2.8
						C288.11,103.74,291.61,103.42,294.99,103.72z"/>
				</g>
				<g>
					<path d="M300.37,125.31c-1.74-1.28-3.39-2.58-5.09-3.5c-0.84-0.43-1.72-0.76-2.35-0.71c-0.31,0.01-0.52,0.1-0.74,0.27
						c-0.22,0.16-0.43,0.44-0.64,0.76c-0.41,0.74-0.62,1.44-0.49,2.06c0.11,0.63,0.59,1.33,1.28,1.95c1.41,1.23,3.31,2.17,5.24,3.11
						c-2.17,0.08-4.36-0.31-6.41-1.49c-1-0.59-2.05-1.53-2.47-2.96c-0.22-0.7-0.22-1.45-0.09-2.13c0.13-0.69,0.4-1.28,0.7-1.85
						c0.34-0.57,0.78-1.14,1.42-1.59c0.64-0.45,1.49-0.67,2.23-0.64c1.5,0.11,2.57,0.78,3.47,1.49
						C298.2,121.54,299.48,123.33,300.37,125.31z"/>
				</g>
				<g>
					<path d="M337.42,131.41c2.09-0.55,4.14-1.02,5.92-1.76c0.86-0.39,1.68-0.86,2.03-1.38c0.18-0.25,0.25-0.47,0.26-0.74
						c0.01-0.27-0.07-0.61-0.2-0.97c-0.31-0.78-0.73-1.39-1.3-1.68c-0.56-0.31-1.4-0.38-2.32-0.23c-1.84,0.33-3.77,1.21-5.71,2.12
						c1.3-1.74,2.98-3.2,5.19-4.05c1.09-0.4,2.48-0.63,3.86-0.07c0.68,0.27,1.27,0.74,1.72,1.27c0.46,0.53,0.74,1.12,1,1.7
						c0.23,0.62,0.4,1.32,0.35,2.11c-0.05,0.78-0.41,1.58-0.91,2.14c-1.02,1.1-2.22,1.51-3.34,1.76
						C341.72,132.09,339.53,131.96,337.42,131.41z"/>
				</g>
				<path d="M309.85,69.74L309.85,69.74c-1.95-0.57-3.06-2.61-2.49-4.56l1.77-6.05c0.57-1.95,2.61-3.06,4.56-2.49v0
					c1.95,0.57,3.06,2.61,2.49,4.56l-1.77,6.05C313.83,69.19,311.79,70.31,309.85,69.74z"/>
				<path d="M329.04,75.36L329.04,75.36c-1.95-0.57-3.06-2.61-2.49-4.56l1.77-6.05c0.57-1.95,2.61-3.06,4.56-2.49l0,0
					c1.95,0.57,3.06,2.61,2.49,4.56l-1.77,6.05C333.02,74.81,330.98,75.93,329.04,75.36z"/>
			</g>
			<g>
				<g>
					<path d="M317,238.71c0,0-4.85-2.52-14.98,0.21s-12.26,12.78-12.26,12.78s7.38,1.28,19.09-1.32c11.71-2.6,12.59-7.06,12.59-7.06
						L317,238.71z"/>
				</g>
				<path class="st1" d="M333.5,180.2c0,0,6.06,22.95,3.39,35.8c-4.08,19.66-20.4,25.01-20.4,25.01"/>
			</g>
			<g>
				<line x1="162.48" y1="54.09" x2="248.06" y2="103.7"/>
				<polygon points="162.48,54.09 249.04,102 247.07,105.39 				"/>
			</g>
		</g>
		<path class="st8" d="M53.96,218.51H20.91c-6.12,0-11.08-4.96-11.08-11.08V73.73c0-6.12,4.96-11.08,11.08-11.08h33.05
			c6.12,0,11.08,4.96,11.08,11.08v133.7C65.04,213.55,60.08,218.51,53.96,218.51z"/>
		<path class="st8" d="M121.09,218.51H85.86c-5.52,0-9.99-4.47-9.99-9.99V101.65c0-5.52,4.47-9.99,9.99-9.99h35.22
			c5.52,0,9.99,4.47,9.99,9.99v106.87C131.08,214.04,126.61,218.51,121.09,218.51z"/>
		<path class="st8" d="M188.84,218.51h-38.65c-4.57,0-8.28-3.71-8.28-8.28v-70.54c0-4.57,3.71-8.28,8.28-8.28h38.65
			c4.57,0,8.28,3.71,8.28,8.28v70.54C197.12,214.8,193.41,218.51,188.84,218.51z"/>
		<path class="st8" d="M256.28,218.51h-41.45c-3.8,0-6.88-3.08-6.88-6.88v-46.39c0-3.8,3.08-6.88,6.88-6.88h41.45
			c3.8,0,6.88,3.08,6.88,6.88v46.39C263.16,215.43,260.08,218.51,256.28,218.51z"/>
		<g>
			<g>
				<polyline class="st9" points="34.16,35.23 107.69,66.05 173.74,112.15 225.71,130.76 				"/>
				<g>
					<polygon class="st10" points="240.3,135.98 216.73,137.02 224.62,130.37 222.75,120.22 					"/>
				</g>
			</g>
		</g>
	</g>
</g>
</svg>
